measurement/exam_1/fast.csv

#Digilent WaveForms Oscilloscope Acquisition
#Device Name: DiscoveryStudio
#Serial Number: SN:210384B18F1D
#Date Time: 2026-07-09 05:22:32.054
#Sample rate: 40000Hz
#Samples: 8192
#Trigger: Source: Channel 1 Type: Edge Condition: Rising Level: 0 V Hyst.: Auto HoldOff: 0 s
#Channel 1: Range: 500 mV/div Offset: 0 V Sample Mode: Average

Time (s),Channel 1 (V)
0.090223125,0.1205426257478768
0.09024812500000001,0.1349890965334159
0.09027312500000001,0.1497715317558143
0.09029812500000001,0.163546073667601
0.090323125,0.1769846511425148
0.090348125,0.1894153353068101
0.09037312500000001,0.201846019471111
0.09039812500000001,0.2142767036354006
0.09042312500000001,0.2277152811103144
0.090448125,0.2428336807695924
0.090473125,0.2603038314869803
0.09049812500000001,0.280125733262488
0.09052312500000001,0.3016274572223403
0.09054812500000001,0.3238011100559481
0.090573125,0.3446309051420645
0.090598125,0.365124735791308
0.09062312500000001,0.381586993198084
0.09064812500000001,0.3960334639836098
0.09067312500000001,0.4077922192741594
0.090698125,0.4178711523803447
0.090723125,0.4279500854865301
0.09074812500000001,0.4376930541558475
0.09077312500000001,0.4484439161357736
0.09079812500000001,0.460538635863196
0.090823125,0.4726333555906185
0.090848125,0.4857359686286594
0.09087312500000001,0.4978306883560872
0.09089812500000001,0.5095894436466315
0.09092312500000001,0.5203403056265625
0.090948125,0.5304192387327479
0.090973125,0.540834136275806
0.09099812500000001,0.5509130693819964
0.09102312500000001,0.5616639313619225
0.09104812500000001,0.5727507577787263
0.091073125,0.5841735486324031
0.091098125,0.5959323039229527
0.091123125,0.6063472014660061
0.09114812500000001,0.6167620990090691
0.09117312500000001,0.6268410321152544
0.091198125,0.6355761074739483
0.091223125,0.6453190761432609
0.091248125,0.6543901159388236
0.09127312500000001,0.664469049045013
0.09129812500000001,0.6745479821511984
0.091323125,0.6846269152573837
0.091348125,0.6957137416741876
0.091373125,0.7054567103434958
0.09139812500000001,0.7158716078865583
0.09142312500000001,0.725278612118998
0.09144812500000001,0.7336777230408191
0.091473125,0.7430847272732588
0.091498125,0.7504759448844581
0.09152312500000001,0.7588750558062826
0.09154812500000001,0.7672741667281037
0.09157312500000001,0.7746653843393062
0.091598125,0.7834004596980002
0.091623125,0.7904557128723267
0.09164812500000001,0.7981828949204054
0.09167312500000001,0.8052381480947352
0.09169812500000001,0.811957436832192
0.091723125,0.8196846188802674
0.091748125,0.8260679431808486
0.09177312500000001,0.8331231963551813
0.09179812500000001,0.8405144139663839
0.09182312500000001,0.8465617738300951
0.091848125,0.8542889558781706
0.091873125,0.8596643868681336
0.09189812500000001,0.8653757822949745
0.09192312500000001,0.8704152488480671
0.09194812500000001,0.8741108576536684
0.091973125,0.8784783953330154
0.091998125,0.8815020752648697
0.09202312500000001,0.8851976840704723
0.09204812500000001,0.8888932928760735
0.09207312500000001,0.8919169728079291
0.092098125,0.8969564393610219
0.092123125,0.8999801192928761
0.09214812500000001,0.9040116925353516
0.09217312500000001,0.9077073013409529
0.09219812500000001,0.9103950168359357
0.092223125,0.9137546612046641
0.092248125,0.9154344833890276
0.09227312500000001,0.9171143055733926
0.09229812500000001,0.9187941277577568
0.09232312500000001,0.9198020210683753
0.092348125,0.9221537721264852
0.092373125,0.922489736563358
0.09239812500000001,0.9241695587477223
0.09242312500000001,0.9258493809320866
0.09244812500000001,0.926857274242705
0.092473125,0.9285370964270693
0.092498125,0.9282011319901965
0.09252312500000001,0.9282011319901965
0.09254812500000001,0.9282011319901965
0.09257312500000001,0.9271932386795779
0.092598125,0.9271932386795779
0.092623125,0.9255134164952137
0.09264812500000001,0.9245055231845951
0.09267312500000001,0.9238335943108494
0.09269812500000001,0.9218178076896124
0.092723125,0.9218178076896124
0.092748125,0.9194660566315025
0.09277312500000001,0.9181221988840111
0.09279812500000001,0.9167783411365197
0.09282312500000001,0.9144265900784098
0.092848125,0.9130827323309184
0.092873125,0.9100590523990628
0.09289812500000001,0.9080432657778249
0.09292312500000001,0.9060274791565887
0.09294812500000001,0.9026678347878603
0.092973125,0.9003160837297504
0.092998125,0.8956125816135305
0.09302312500000001,0.8915810083710547
0.09304812500000001,0.8878853995654551
0.09307312500000001,0.8825099685754896
0.093098125,0.8788143597698882
0.093123125,0.8731029643430499
0.09314812500000001,0.8687354266637008
0.09317312500000001,0.8643678889843559
0.09319812500000001,0.8593284224312632
0.093223125,0.8556328136256619
0.093248125,0.8499214181988235
0.09327312500000001,0.8452179160826013
0.09329812500000001,0.8398424850926381
0.09332312500000001,0.8331231963551813
0.093348125,0.8274118009283429
0.093373125,0.8196846188802674
0.09339812500000001,0.8122934012690617
0.09342312500000001,0.8052381480947352
0.09344812500000001,0.7971750016097868
0.093473125,0.79045571287233
0.093498125,0.7823925663873816
0.09352312500000001,0.7753373132130488
0.09354812500000001,0.7682820600387222
0.09357312500000001,0.7605548779906468
0.093598125,0.753499624816317
0.093623125,0.7451005138944958
0.09364812500000001,0.7370373674095436
0.09367312500000001,0.7283022920508536
0.09369812500000001,0.7182233589446683
0.093723125,0.7088163547122286
0.093748125,0.6977295282954247
0.09377312500000001,0.6869786663154888
0.09379812500000001,0.6762278043355626
0.09382312500000001,0.664469049045013
0.093848125,0.6540541515019549
0.093873125,0.6426313606482781
0.09389812500000001,0.6322164631052152
0.09392312500000001,0.6218015655621617
0.09394812500000001,0.6110507035822307
0.093973125,0.601643699349791
0.093998125,0.5905568729329871
0.09402312500000001,0.5798060109530512
0.09404812500000001,0.569055148973125
0.09407312500000001,0.5572963936825754
0.094098125,0.5455376383920258
0.094123125,0.5324350253539849
0.09414812500000001,0.5193324123159379
0.09417312500000001,0.5058938348410301
0.09419812500000001,0.4917833284923706
0.094223125,0.478008786580584
0.094248125,0.4635623157950516
0.094273125,0.4494518094463986
0.09429812500000001,0.4360132319714783
0.09432312500000001,0.4222386900596917
0.094348125,0.4098080058953964
0.094373125,0.3970413572942283
0.094398125,0.3846106731299387
0.09442312500000001,0.3721799889656378
0.09444812500000001,0.3590773759275968
0.09447312500000001,0.3459747628895559
0.094498125,0.3311923276671507
0.094523125,0.3160739280078795
0.09454812500000001,0.3006195639117218
0.09457312500000001,0.2841573065049524
0.09459812500000001,0.2680310135350558
0.094623125,0.2512327916914135
0.094648125,0.2344345698477789
0.09467312500000001,0.2183082768778747
0.09469812500000001,0.2021819839079782
0.09472312500000001,0.1870635842487001
0.094748125,0.1719451845894221
0.094773125,0.156826784930151
0.09479812500000001,0.1427162785814846
0.09482312500000001,0.1279338433590794
0.09484812500000001,0.1134873725735471
0.094873125,0.09870493735114189
0.094898125,0.08358653769187073
0.09492312500000001,0.06779620915884013
0.09494812500000001,0.05066202287832504
0.09497312500000001,0.03251994328719141
0.094998125,0.0123620770748207
0.095023125,-0.008467718011286228
0.09504812500000001,-0.02963347753428494
0.09507312500000001,-0.05046327262040134
0.09509812500000001,-0.07129306770651772
0.095123125,-0.09010707617139704
0.095148125,-0.107577226888777
0.09517312500000001,-0.122695626548063
0.09519812500000001,-0.1364701684598497
0.09522312500000001,-0.1495727814978906
0.095248125,-0.1620034656621859
0.095273125,-0.1757780075739663
0.09529812500000001,-0.1912323716701234
0.09532312500000001,-0.2087025223875114
0.09534812500000001,-0.2285244241630092
0.095373125,-0.2503621125597442
0.095398125,-0.2738796231408326
0.09542312500000001,-0.2977330981588153
0.09544812500000001,-0.3212506087399145
0.09547312500000001,-0.344096190447268
0.095498125,-0.3649259855333843
0.095523125,-0.3834040295613825
0.09554812500000001,-0.3995303225312874
0.09557312500000001,-0.4143127577536926
0.09559812500000001,-0.4274153707917335
0.095623125,-0.4408539482666474
0.095648125,-0.4549644546153068
0.09567312500000001,-0.4704188187114577
0.09569812500000001,-0.4868810761182271
0.09572312500000001,-0.5056950845831064
0.095748125,-0.5248450574848585
0.095773125,-0.5453388881341021
0.09579812500000001,-0.5658327187833456
0.09582312500000001,-0.5856546205588435
0.09584812500000001,-0.6054765223343413
0.095873125,-0.6239545663623479
0.095898125,-0.6424326103903544
0.09592312500000001,-0.6605746899814959
0.09594812500000001,-0.6780448406988759
0.09597312500000001,-0.695179026979391
0.095998125,-0.7116412843861605
0.096023125,-0.7270956484823113
0.09604812500000001,-0.7415421192678496
0.09607312500000001,-0.7546447323058846
0.09609812500000001,-0.7677473453439255
0.096123125,-0.7795061006344751
0.096148125,-0.7926087136725161
0.09617312500000001,-0.8063832555843096
0.09619812500000001,-0.821165690806708
0.09622312500000001,-0.8382998770872231
0.096248125,-0.8554340633677382
0.096273125,-0.8725682496482532
0.09629812500000001,-0.8886945426181559
0.09632312500000001,-0.9021331200930636
0.09634812500000001,-0.9142278398204861
0.096373125,-0.9222909863054343
0.096398125,-0.9290102750428912
0.09642312500000001,-0.9330418482853662
0.09644812500000001,-0.9347216704697295
0.09647312500000001,-0.936065528217221
0.096498125,-0.9343857060328568
0.096523125,-0.9306900972272555
0.09654812500000001,-0.9229629151791745
0.09657312500000001,-0.9108681954517576
0.09659812500000001,-0.8954138313556067
0.096623125,-0.8745840362694903
0.096648125,-0.8530823123096283
0.09667312500000001,-0.8309086594760116
0.09669812500000001,-0.8114227221373954
0.09672312500000001,-0.7973122157887359
0.096748125,-0.7868973182456778
0.096773125,-0.7852174960613135
0.09679812500000001,-0.7882411759931723
0.09682312500000001,-0.7952964291674989
0.09684812500000001,-0.8050393978368113
0.096873125,-0.8137744731955053
0.096898125,-0.8221735841173264
0.09692312500000001,-0.8282209439810394
0.09694812500000001,-0.831916552786639
0.09697312500000001,-0.8359481260291132
0.096998125,-0.8379639126503502
0.097023125,-0.8423314503296971
0.09704812500000001,-0.8473709168827923
0.09707312500000001,-0.8527463478727554
0.09709812500000001,-0.8601375654839579
0.097123125,-0.8658489609107963
0.097148125,-0.8712243919007618
0.09717312500000001,-0.8755919295801097
0.09719812500000001,-0.877271751764473
0.09722312500000001,-0.8799594672594558
0.097248125,-0.8806313961332015
0.097273125,-0.8829831471913114
0.09729812500000001,-0.8856708626862956
0.09732312500000001,-0.8886945426181498
0.09734812500000001,-0.8933980447343697
0.097373125,-0.8960857602293524
0.097398125,-0.899109440161208
0.097423125,-0.9007892623455714
0.09744812500000001,-0.9004532979086994
0.09747312500000001,-0.9007892623455722
0.097498125,-0.899109440161208
0.097523125,-0.899109440161208
0.097548125,-0.9001173334718261
0.09757312500000001,-0.9011252267824451
0.09759812500000001,-0.903476977840555
0.09762312500000001,-0.9044848711511735
0.097648125,-0.9054927644617921
0.097673125,-0.9051568000249194
0.09769812500000001,-0.9024690845299365
0.09772312500000001,-0.9004532979086994
0.09774812500000001,-0.8964217246662253
0.097773125,-0.8937340091712425
0.097798125,-0.8923901514237518
0.09782312500000001,-0.8913822581131325
0.09784812500000001,-0.8923901514237511
0.09787312500000001,-0.8917182225500054
0.097898125,-0.8910462936762598
0.097923125,-0.8890305070550235
0.09794812500000001,-0.8849989338125485
0.09797312500000001,-0.8809673605700744
0.09799812500000001,-0.8742480718326174
0.098023125,-0.8698805341532705
0.098048125,-0.8658489609107982
0.09807312500000001,-0.8624893165420678
0.09809812500000001,-0.8608094943577037
0.09812312500000001,-0.8581217788627209
0.098148125,-0.8554340633677382
0.098173125,-0.8507305612515205
0.09819812500000001,-0.8440112725140614
0.09822312500000001,-0.8369560193397316
0.09824812500000001,-0.827549015107292
0.098273125,-0.8201577974960894
0.098298125,-0.8137744731955082
0.09832312500000001,-0.8097428999530312
0.09834812500000001,-0.8083990422055398
0.09837312500000001,-0.8060472911474299
0.098398125,-0.8030236112155743
0.098423125,-0.7966402869149931
0.09844812500000001,-0.7848815316244406
0.09847312500000001,-0.7680833097807984
0.09849812500000001,-0.7449017636365721
0.098523125,-0.719032501997363
0.098548125,-0.6924913114844203
0.09857312500000001,-0.6662860854083263
0.09859812500000001,-0.6451203258853371
0.09862312500000001,-0.6273142107310763
0.098648125,-0.6155554554405267
0.098673125,-0.6078282733924548
0.09869812500000001,-0.6017809135287401
0.09872312500000001,-0.5974133758493931
0.09874812500000001,-0.5910300515488091
0.098773125,-0.5836388339376065
0.098798125,-0.5742318297051668
0.09882312500000001,-0.5631450032883629
0.09884812500000001,-0.5523941413084319
0.09887312500000001,-0.5402994215810094
0.098898125,-0.5302204884748241
0.098923125,-0.5211494486792573
0.09894812500000001,-0.5117424444468176
0.09897312500000001,-0.5040152623987422
0.09899812500000001,-0.4942722937294297
0.099023125,-0.4845293250601172
0.099048125,-0.4734424986433133
0.09907312500000001,-0.4620197077896313
0.09909812500000001,-0.450260952499087
0.09912312500000001,-0.4374943038979189
0.099148125,-0.4260715130442422
0.099173125,-0.4153206510643112
0.09919812500000001,-0.4038978602106298
0.09922312500000001,-0.393818927104449
0.09924812500000001,-0.3823961362507723
0.099273125,-0.3709733453970956
0.099298125,-0.3588786256696732
0.09932312500000001,-0.3461119770684994
0.09934812500000001,-0.3336812929042098
0.09937312500000001,-0.3209146443030417
0.099398125,-0.3084839601387464
0.099423125,-0.2967252048481968
0.09944812500000001,-0.2846304851207692
0.09947312500000001,-0.2732076942670977
0.09949812500000001,-0.2611129745396752
0.099523125,-0.2480103615016342
0.099548125,-0.2345717840267204
0.09957312500000001,-0.2211332065518005
0.09959812500000001,-0.2076946290768928
0.09962312500000001,-0.1935841227282333
0.099648125,-0.1801455452533195
0.099673125,-0.1673788966521514
0.09969812500000001,-0.1546122480509778
0.09972312500000001,-0.1425175283235609
0.09974812500000001,-0.1304228085961385
0.099773125,-0.1179921244318432
0.099798125,-0.1058974047044208
0.09982312500000001,-0.09279479166637403
0.09984812500000001,-0.08002814306521169
0.09987312500000001,-0.06692553002717075
0.099898125,-0.05348695255225694
0.099923125,-0.04004837507734314
0.09994812500000001,-0.02660979760242307
0.09997312500000001,-0.01283525569064269
0.09999812500000001,0.001275250658016808
0.100023125,0.01504979256980346
0.100048125,0.0288243344815901
0.100073125,0.04226291195651018
0.100098125,0.05603745386829056
0.100123125,0.06914006690633151
0.100148125,0.08257864438124532
0.100173125,0.09568125741928629
0.100198125,0.1091198348942063
0.100223125,0.1228943768059867
0.100248125,0.1366689187177734
0.100273125,0.1501074961926872
0.100298125,0.1632101092307282
0.100323125,0.1756407933950291
0.100348125,0.1880714775593187
0.100373125,0.2001661972867411
0.100398125,0.2129328458879092
0.100423125,0.2267073877996959
0.100448125,0.2424977163327124
0.100473125,0.2609757603607261
0.100498125,0.2814695910099696
0.100523125,0.3029713149698317
0.100548125,0.3251449678034394
0.100573125,0.3463107273264191
0.100598125,0.3664685935387994
0.100623125,0.3832668153824417
0.100648125,0.397713286167974
0.100673125,0.4094720414585236
0.100698125,0.419886939001577
0.100723125,0.4299658721077671
0.100748125,0.4393728763402068
0.100773125,0.4504597027570107
0.100798125,0.4622184580475602
0.100823125,0.4739772133381045
0.100848125,0.4877517552498965
0.100873125,0.5001824394141918
0.100898125,0.5122771591416142
0.100923125,0.5233639855584181
0.100948125,0.534450811975217
0.100973125,0.5452016739551531
0.100998125,0.5552806070613384
0.101023125,0.5656955046043965
0.101048125,0.5764463665843277
0.101073125,0.586861264127381
0.101098125,0.5979480905441897
0.101123125,0.608362988087248
0.101148125,0.619113850067179
0.101173125,0.6288568187364915
0.101198125,0.6379278585320541
0.101223125,0.6483427560751165
0.101248125,0.6574137958706833
0.101273125,0.6668208001031229
0.101298125,0.6762278043355626
0.101323125,0.6852988441311253
0.101348125,0.695041812800442
0.101373125,0.7034409237222631
0.101398125,0.7125119635178299
0.101423125,0.7209110744396511
0.101448125,0.7283022920508503
0.101473125,0.7373733318464204
0.101498125,0.7451005138944958
0.101523125,0.753499624816317
0.101548125,0.7615627713012653
0.101573125,0.7689539889124646
0.101598125,0.7776890642711618
0.101623125,0.7847443174454916
0.101648125,0.7917995706198213
0.101673125,0.7985188593572783
0.101698125,0.8045662192209867
0.101723125,0.8116214723953192
0.101748125,0.8173328678221575
0.101773125,0.8240521565596145
0.101798125,0.8307714452970714
0.101823125,0.8361468762870344
0.101848125,0.8432021294613666
0.101873125,0.8485775604513321
0.101898125,0.8539529914412977
0.101923125,0.8589924579943904
0.101948125,0.8636959601106102
0.101973125,0.8687354266637028
0.101998125,0.8731029643430499
0.102023125,0.8774705020223968
0.102048125,0.8825099685754896
0.102073125,0.8865415418179636
0.102098125,0.8919169728079291
0.102123125,0.8952766171766576
0.102148125,0.8993081904191318
0.102173125,0.9030037992247331
0.102198125,0.9056915147197159
0.102223125,0.9093871235253178
0.102248125,0.9107309812728085
0.102273125,0.9134186967677913
0.102298125,0.916106412262774
0.102323125,0.9174502700102655
0.102348125,0.9208099143789943
0.102373125,0.9218178076896124
0.102398125,0.9241695587477223
0.102423125,0.9258493809320866
0.102448125,0.9261853453689594
0.102473125,0.9282011319901962
0.102498125,0.9275292031164508
0.102523125,0.9282011319901965
0.102548125,0.9285370964270693
0.102573125,0.9282011319901965
0.102598125,0.9288730608639417
0.102623125,0.9278651675533236
0.102648125,0.9282011319901965
0.102673125,0.9278651675533236
0.102698125,0.926857274242705
0.102723125,0.9268572742427043
0.102748125,0.9251774520583409
0.102773125,0.9238335943108494
0.102798125,0.9224897365633581
0.102823125,0.9201379855052482
0.102848125,0.9191300921946283
0.102873125,0.916106412262774
0.102898125,0.914090625641537
0.102923125,0.9110669457096814
0.102948125,0.9073713369040801
0.102973125,0.904683621409095
0.102998125,0.8996441548560046
0.103023125,0.8962845104872762
0.103048125,0.892252937244802
0.103073125,0.8878853995654551
0.103098125,0.8841897907598514
0.103123125,0.8791503242067611
0.103148125,0.874782786527414
0.103173125,0.8700792844111943
0.103198125,0.8643678889843559
0.103223125,0.8593284224312598
0.103248125,0.8519372048200606
0.103273125,0.8458898449563494
0.103298125,0.8391705562188925
0.103323125,0.8317793386076899
0.103348125,0.8260679431808482
0.103373125,0.818676725569649
0.103398125,0.8122934012690649
0.103423125,0.8049021836578623
0.103448125,0.7971750016097868
0.103473125,0.7904557128723259
0.103498125,0.7813846730767632
0.103523125,0.7733215265918149
0.103548125,0.7649224156699937
0.103573125,0.755851375874427
0.103598125,0.7477882293894823
0.103623125,0.738381225157039
0.103648125,0.7293101853614722
0.103673125,0.7202391455659053
0.103698125,0.7104961768965928
0.103723125,0.7010891726641575
0.103748125,0.6896663818104765
0.103773125,0.6789155198305454
0.103798125,0.6674927289768686
0.103823125,0.6557339736863191
0.103848125,0.6446471472695202
0.103873125,0.6325524275420927
0.103898125,0.6218015655621617
0.103923125,0.6110507035822307
0.103948125,0.6002998416022997
0.103973125,0.5898849440592462
0.103998125,0.5784621532055647
0.104023125,0.5673753267887608
0.104048125,0.5552806070613384
0.104073125,0.5425139584601703
0.104098125,0.529747309859008
0.104123125,0.5153008390734698
0.104148125,0.5011903327248104
0.104173125,0.4867438619392779
0.104198125,0.4722973911537456
0.104223125,0.4585228492419652
0.104248125,0.4440763784564266
0.104273125,0.4309737654183857
0.104298125,0.4175351879434719
0.104323125,0.4047685393423037
0.104348125,0.3923378551780141
0.104373125,0.3792352421399675
0.104398125,0.3664685935387994
