measurement/exam_1/hifi_lr.csv

#Digilent WaveForms Oscilloscope Acquisition
#Device Name: DiscoveryStudio
#Serial Number: SN:210384B18F1D
#Date Time: 2026-07-09 05:34:38.797
#Sample rate: 40000Hz
#Samples: 8192
#Trigger: Source: Channel 1 Type: Edge Condition: Rising Level: 0 V Hyst.: Auto HoldOff: 0 s
#Channel 1: Range: 500 mV/div Offset: 0 V Sample Mode: Average
#Channel 2: Range: 500 mV/div Offset: 0 V Sample Mode: Average

Time (s),Channel 1 (V),Channel 2 (V)
0.09020405405405403,0.1175189458160212,0.5109235176816652
0.09022905405405404,0.1296136655434493,0.5226611013252204
0.09025405405405404,0.1420443497077389,0.53506940403411
0.09027905405405404,0.1541390694351613,0.5471423472103324
0.09030405405405403,0.1669057180363294,0.5605567285172461
0.09032905405405403,0.178664473326879,0.5726296716934686
0.09035405405405404,0.190087264180561,0.5850379744023696
0.09037905405405404,0.2015100550342325,0.5977816366439319
0.09040405405405404,0.2122609170141635,0.6098545798201543
0.09042905405405403,0.2240196723047131,0.623604320659741
0.09045405405405403,0.2347705342846441,0.6360126233686363
0.09047905405405404,0.2465292895751994,0.6494270046755566
0.09050405405405404,0.258959973739489,0.6638474645804824
0.09052905405405404,0.2713906579037842,0.6779325649527418
0.09055405405405403,0.284829235378698,0.6923530248576741
0.09057905405405403,0.2975958839798661,0.7050966870992422
0.09060405405405404,0.3103625325810404,0.7178403493408163
0.09062905405405404,0.3238011100559481,0.7309193711150513
0.09065405405405404,0.336903723093989,0.7429923142912737
0.09067905405405403,0.3513501938795214,0.7567420551308603
0.09070405405405403,0.3641168424806895,0.7684796387744099
0.09072905405405404,0.3765475266449904,0.7798818628852919
0.09075405405405404,0.38897821080928,0.7916194465288362
0.09077905405405404,0.4017448594104481,0.8023509515743672
0.09080405405405403,0.4155194013222348,0.8147592542832625
0.09082905405405403,0.4272781566127843,0.824484680730775
0.09085405405405404,0.4380290185927195,0.8332040285802726
0.09087905405405404,0.4471000583882822,0.8412526573644172
0.09090405405405404,0.4534833826888663,0.8466184098871827
0.09092905405405403,0.4615465291738146,0.8543316791386582
0.09095405405405403,0.4696096756587628,0.8610388697921151
0.09097905405405404,0.4790166798912069,0.8694228581089404
0.09100405405405404,0.488759648560515,0.8788129250237758
0.09102905405405404,0.4978306883560819,0.8858554752099056
0.09105405405405403,0.5069017281516487,0.8945748230593995
0.09107905405405403,0.5146289101997241,0.9012820137128564
0.09110405405405403,0.5233639855584141,0.9089952829643283
0.09112905405405404,0.5327709897908578,0.9183853498791715
0.09115405405405404,0.5418420295864246,0.9271046977286654
0.09117905405405403,0.5522569271294828,0.9375008432415236
0.09120405405405403,0.5616639313619225,0.9462201910910176
0.09122905405405403,0.5693911134099944,0.9535981008098169
0.09125405405405404,0.5757744377105819,0.9599699319306042
0.09127905405405404,0.580141975389929,0.9629881677246599
0.09130405405405403,0.5861893352536401,0.9683539202474254
0.09132905405405403,0.5919007306804785,0.9727135941721723
0.09135405405405403,0.6006358060391684,0.9797561443582988
0.09137905405405404,0.610378774708485,0.9884754922077961
0.09140405405405404,0.6201217433777975,0.9968594805246171
0.09142905405405403,0.6312085697946014,1.006920266504803
0.09145405405405403,0.6412875029007867,1.014298176223605
0.09147905405405403,0.6513664360069675,1.021676085942405
0.09150405405405404,0.6611094046762847,1.02905399566121
0.09152905405405404,0.6688365867243601,1.032407590987939
0.09155405405405403,0.6779076265199269,1.038108703043377
0.09157905405405403,0.686306737441748,1.041462298370106
0.09160405405405403,0.6960497061110561,1.047498769958214
0.09162905405405404,0.7068005680909916,1.054876679677019
0.09165405405405404,0.7158716078865583,1.059907072667112
0.09167905405405403,0.7246066832452523,1.066278903787896
0.09170405405405403,0.7309900075458364,1.069632499114625
0.09172905405405403,0.7370373674095448,1.072986094441351
0.09175405405405404,0.7440926205838774,1.0773457683661
0.09177905405405404,0.7511478737582071,1.080699363692828
0.09180405405405404,0.7602189135537739,1.087741913878958
0.09182905405405403,0.7672741667281037,1.092772306869051
0.09185405405405403,0.7743294199024302,1.098473418924486
0.09187905405405404,0.7807127442030175,1.104845250045273
0.09190405405405404,0.7854162463192373,1.108869564437347
0.09192905405405404,0.7917995706198213,1.115576755090804
0.09195405405405403,0.7971750016097868,1.119265709950206
0.09197905405405403,0.8025504325997499,1.122954664809605
0.09200405405405404,0.8072539347159722,1.126308260136335
0.09202905405405404,0.8096056857740821,1.126978979201681
0.09205405405405404,0.8139732234534292,1.130667934061082
0.09207905405405403,0.8176688322590304,1.132344731724447
0.09210405405405403,0.8220363699383754,1.135362967518501
0.09212905405405404,0.8253960143071059,1.137710484247212
0.09215405405405404,0.8267398720545972,1.136704405649194
0.09217905405405404,0.82942758754958,1.137710484247212
0.09220405405405403,0.8317793386076899,1.136369046116521
0.09222905405405403,0.8358109118501622,1.137039765181866
0.09225405405405404,0.8405144139663839,1.139051922377903
0.09227905405405404,0.8428661650244939,1.138381203312558
0.09230405405405404,0.8458898449563494,1.140393360508595
0.09232905405405403,0.8479056315775865,1.140058000975922
0.09235405405405403,0.8509293115094407,1.141399439106613
0.09237905405405404,0.8552968491887891,1.142740877237305
0.09240405405405404,0.8573126358100261,1.14106407957394
0.09242905405405404,0.8600003513050088,1.140393360508595
0.09245405405405403,0.8603363157418817,1.137039765181866
0.09247905405405403,0.8613442090525003,1.134692248453157
0.09250405405405404,0.8626880667999917,1.133350810322465
0.09252905405405404,0.8633599956737373,1.130667934061082
0.09255405405405404,0.8660477111687201,1.131003293593755
0.09257905405405403,0.8677275333530844,1.129326495930391
0.09260405405405403,0.8704152488480671,1.128320417332372
0.09262905405405404,0.8734389287799227,1.127649698267027
0.09265405405405404,0.8737748932167956,1.123960743407625
0.09267905405405404,0.8751187509642869,1.121277867146243
0.09270405405405403,0.874782786527414,1.115912114623477
0.09272905405405403,0.8744468220905413,1.11155244069873
0.09275405405405404,0.8761266442749055,1.108534204904674
0.09277905405405404,0.8757906798380326,1.103168452381909
0.09280405405405404,0.8774705020223968,1.099814857055181
0.09282905405405403,0.8767985731486512,1.092772306869051
0.09285405405405403,0.8754547154011598,1.085394397150248
0.09287905405405404,0.8741108576536667,1.077681127898768
0.09290405405405404,0.8704152488480671,1.067620341918587
0.09292905405405404,0.8690713911005757,1.060242432199785
0.09295405405405403,0.8663836756055929,1.051523084350291
0.09297905405405403,0.8643678889843559,1.04313909603347
0.09300405405405404,0.86268806679999,1.035090467249317
0.09302905405405404,0.8589924579943904,1.024694321736463
0.09305405405405404,0.8579845646837718,1.016645692952315
0.09307905405405403,0.8559687780625348,1.007255626037475
0.09310405405405403,0.8546249203150433,0.9985362781879814
0.09312905405405404,0.8532810625675504,0.9898169303384826
0.09315405405405404,0.8499214181988235,0.9794207848256292
0.09317905405405404,0.8485775604513321,0.9710367965088081
0.09320405405405403,0.8462258093932222,0.9616467295939685
0.09322905405405403,0.844545987208858,0.9522566626791288
0.09325405405405404,0.8425302005876188,0.9425312362316105
0.09327905405405404,0.8378266984714011,0.9297875739900482
0.09330405405405404,0.8344670541026726,0.9190560689445172
0.09332905405405403,0.8297635519864528,0.9073184853009676
0.09335405405405403,0.8253960143071059,0.8962516207227638
0.09337905405405404,0.8213644410646289,0.8865261942752458
0.09340405405405404,0.8153170812009205,0.8744532510990288
0.09342905405405404,0.8116214723953192,0.8643924651188435
0.09345405405405403,0.8072539347159722,0.8536609600733125
0.09347905405405403,0.8035583259103709,0.8432648145604543
0.09350405405405404,0.8001986815416393,0.8328686690475898
0.09352905405405404,0.7931434283673128,0.8191189282080095
0.09355405405405404,0.7864241396298558,0.8063752659664414
0.09357905405405403,0.7783609931449076,0.791954806061509
0.09360405405405403,0.7713057399705778,0.7788757842872681
0.09362905405405404,0.7655943445437351,0.7654614029803464
0.09365405405405404,0.7561873403112997,0.7480227072813663
0.09367905405405404,0.7457724427682416,0.7295779329843599
0.09370405405405403,0.7319979008564549,0.7084502824259707
0.09372905405405403,0.7192312522552868,0.6879933509329271
0.09375405405405404,0.7078084614016045,0.6695485766359125
0.09377905405405404,0.6957137416741876,0.6514391618715871
0.09380405405405404,0.6859707730048752,0.6356772638359633
0.09382905405405403,0.6745479821511984,0.6189092872023212
0.09385405405405403,0.6634611557343946,0.6021413105686789
0.09387905405405404,0.653046258191331,0.5853733339350281
0.09390405405405404,0.6412875029007867,0.5665932001053574
0.09392905405405404,0.62986471204711,0.5484837853410238
0.09395405405405403,0.6164261345721962,0.5290329324459988
0.09397905405405403,0.6023156282235367,0.5095820795509738
0.09400405405405404,0.58921301518549,0.4914726647866315
0.09402905405405404,0.5764463665843277,0.4723571714242881
0.09405405405405404,0.5650235757306509,0.4545831161926273
0.09407905405405403,0.5515849982557371,0.4334554656342381
0.09410405405405403,0.536802563033332,0.4093095792817933
0.09412905405405404,0.5213481989371738,0.3844929738639912
0.09415405405405404,0.5052219059672844,0.3590056493808665
0.09417905405405404,0.4934631506767349,0.3375426392898045
0.09420405405405403,0.4833842175705495,0.3180917863947795
0.09422905405405403,0.4746491422118555,0.2999823716304459
0.09425405405405403,0.4662500312900382,0.2818729568661205
0.09427905405405404,0.456171098183849,0.2617513849057416
0.09430405405405404,0.4481079516989008,0.2416298129453709
0.09432905405405403,0.4393728763402068,0.2211728814523274
0.09435405405405403,0.4309737654183857,0.200380590426611
0.09437905405405403,0.4212307967490776,0.1792529398682314
0.09440405405405404,0.4101439703322693,0.1587960083751783
0.09442905405405404,0.4000650372260839,0.1393451554801532
0.09445405405405403,0.3899861041198985,0.1202296621178011
0.09447905405405403,0.3792352421399675,0.1001080901574304
0.09450405405405403,0.3661326291019325,0.07730364193568735
0.09452905405405404,0.3486624783845386,0.0511455983871951
0.09455405405405404,0.3311923276671507,0.02465219530604037
0.09457905405405403,0.3150660346972541,0.000170949420922703
0.09460405405405403,0.3016274572223403,-0.02095670113746652
0.09462905405405403,0.2902046663686688,-0.03973683496713728
0.09465405405405404,0.2781099466412412,-0.05851696879682512
0.09467905405405404,0.2660152269138187,-0.0786385407571958
0.09470405405405403,0.2535845427495235,-0.09909547225023933
0.09472905405405403,0.2421617518958467,-0.1198877632759557
0.09475405405405403,0.2324187832265387,-0.1410154138343353
0.09477905405405404,0.2216679212466032,-0.1621430643927341
0.09480405405405404,0.2102451303929265,-0.1839414340164691
0.09482905405405403,0.1984863751023769,-0.2050690845748583
0.09485405405405403,0.187399548685573,-0.2261967351332475
0.09487905405405403,0.1769846511425195,-0.2479951047569725
0.09490405405405404,0.1648899314150924,-0.2718056315767544
0.09492905405405404,0.1501074961926872,-0.3003111918539462
0.09495405405405404,0.1323013810384264,-0.3311642688598478
0.09497905405405403,0.1138233370104199,-0.3626880649310953
0.09500405405405403,0.0966891507299126,-0.3915289847409468
0.09502905405405404,0.08190671550749964,-0.4156748710934047
0.09505405405405404,0.06947603134320438,-0.4374732407171396
0.09507905405405404,0.05771727605265478,-0.4565887340794918
0.09510405405405403,0.04629448519897805,-0.4760395869745168
0.09512905405405403,0.0352076587821792,-0.495490439869533
0.09515405405405404,0.02445679680224312,-0.514605933231894
0.09517905405405404,0.01303400594856639,-0.5350628647249375
0.09520405405405404,-6.860708947457189e-05,-0.555519796217981
0.09522905405405403,-0.01384314900126122,-0.5756413681783518
0.09525405405405403,-0.02728172647616892,-0.5940861424753497
0.09527905405405404,-0.04004837507734314,-0.6111894786416733
0.09530405405405404,-0.05449484586287548,-0.6303049720040254
0.09532905405405404,-0.0726369254540091,-0.6534447797584517
0.09535405405405403,-0.09649040047198112,-0.6832917781663349
0.09537905405405403,-0.1230315909849238,-0.7181691695642949
0.09540405405405404,-0.1495727814978906,-0.7527112014296137
0.09542905405405404,-0.1717464343314984,-0.7838996379681883
0.09545405405405404,-0.1885446561751407,-0.8087162433859788
0.09547905405405403,-0.2023191980869273,-0.829843893944368
0.09550405405405403,-0.2150858466880896,-0.8492947468393841
0.09552905405405404,-0.2285244241630092,-0.868745599734418
0.09555405405405404,-0.2439787882591601,-0.8908793288908258
0.09557905405405404,-0.2587612234815653,-0.9133484175799064
0.09560405405405403,-0.2738796231408434,-0.9374943039323511
0.09562905405405403,-0.2879901294895028,-0.9613048307521231
0.09565405405405404,-0.3010927425275438,-0.9831032003758581
0.09567905405405404,-0.3152032488762033,-1.004230850934247
0.09570405405405404,-0.3299856840986085,-1.022340265698581
0.09572905405405403,-0.3454400481947594,-1.039778961397569
0.09575405405405403,-0.3619023056015288,-1.056211578498538
0.09577905405405404,-0.3776926341345525,-1.071973476534162
0.09580405405405404,-0.3954987492888133,-1.08941217223315
0.09582905405405404,-0.4129689000062012,-1.106180148866792
0.09585405405405403,-0.430775015160462,-1.122277406435088
0.09587905405405403,-0.4469013081303586,-1.135021068676657
0.09590405405405404,-0.4606758500421509,-1.141392899797443
0.09592905405405404,-0.4731065342064405,-1.14608793325486
0.09595405405405404,-0.4858731828076086,-1.147094011852879
0.09597905405405403,-0.4996477247193952,-1.14843544998357
0.09600405405405403,-0.5127503377574362,-1.149776888114262
0.09602905405405404,-0.5241731286111178,-1.14843544998357
0.09605405405405404,-0.5349239905910439,-1.14843544998357
0.09607905405405404,-0.5446669592603565,-1.146758652320206
0.09610405405405403,-0.5564257145509061,-1.146423292787533
0.09612905405405403,-0.5702002564626927,-1.146758652320206
0.09615405405405404,-0.5846467272482322,-1.144411135591496
0.09617905405405404,-0.6004370557812487,-1.144411135591496
0.09620405405405404,-0.6142115976930353,-1.141728259330113
0.09622905405405403,-0.6283221040416949,-1.140386821199422
0.09625405405405403,-0.6420966459534815,-1.139716102134076
0.09627905405405404,-0.6548632945546559,-1.137703944938039
0.09630405405405404,-0.6686378364664363,-1.137368585405367
0.09632905405405404,-0.6820764139413501,-1.135021068676657
0.09635405405405403,-0.6968588491637553,-1.133008911480619
0.09637905405405403,-0.7113053199492876,-1.13066139475191
0.09640405405405404,-0.7250798618610811,-1.126301720827162
0.09642905405405404,-0.7401982615203523,-1.124624923163798
0.09645405405405404,-0.7536368389952661,-1.12127132783707
0.09647905405405403,-0.7677473453439255,-1.119259170641033
0.09650405405405403,-0.7815218872557123,-1.117582372977669
0.09652905405405404,-0.7936166069831406,-1.113222699052921
0.09655405405405404,-0.8067192200211756,-1.11188126092223
0.09657905405405404,-0.8191499041854708,-1.108192306062829
0.09660405405405403,-0.8312446239128933,-1.105844789334119
0.09662905405405403,-0.8433393436403157,-1.104503351203428
0.09665405405405404,-0.8527463478727595,-1.101485115409373
0.09667905405405404,-0.8618173876683222,-1.102491194007391
0.09670405405405404,-0.8678647475320335,-1.102155834474718
0.09672905405405403,-0.8739121073957447,-1.103832632138082
0.09675405405405403,-0.8799594672594558,-1.107186227464811
0.09677905405405404,-0.8856708626862974,-1.110204463258869
0.09680405405405404,-0.8923901514237511,-1.117247013444996
0.09682905405405404,-0.8944059380449881,-1.120935968304397
0.09685405405405403,-0.8897024359287683,-1.121606687369743
0.09687905405405403,-0.8769357873276002,-1.117247013444996
0.09690405405405404,-0.8574498499889672,-1.106515508399462
0.09692905405405404,-0.8399796992715872,-1.099472958213335
0.09695405405405404,-0.8248612996123093,-1.092765767559878
0.09697905405405403,-0.8127665798848868,-1.089076812700477
0.09700405405405403,-0.7996639668468458,-1.084381779243057
0.09702905405405404,-0.779842065071339,-1.072644195599503
0.09705405405405404,-0.7600201632958501,-1.062918769151995
0.09707905405405404,-0.7422140481415893,-1.052522623639137
0.09710405405405403,-0.7328070439091496,-1.049839747377754
0.09712905405405403,-0.7314631861616583,-1.052522623639137
0.09715405405405404,-0.7331430083460249,-1.055540859433195
0.09717905405405404,-0.7381824748991153,-1.060906611955958
0.09720405405405404,-0.740870190394098,-1.062248050086649
0.09722905405405403,-0.7435579058890808,-1.062918769151995
0.09725405405405403,-0.7469175502578091,-1.063589488217341
0.09727905405405404,-0.7496052657527947,-1.060235892890611
0.09730405405405404,-0.7556526256165031,-1.058223735694575
0.09732905405405404,-0.7606920921695959,-1.053193342704482
0.09735405405405403,-0.7670754164701798,-1.048833668779735
0.09737905405405403,-0.7744666340813825,-1.04581543298568
0.09740405405405403,-0.7791701361976002,-1.040114320930244
0.09742905405405404,-0.7862253893719321,-1.037431444668859
0.09745405405405404,-0.7912648559250247,-1.032736411211439
0.09747905405405403,-0.7966402869149902,-1.028041377754019
0.09750405405405403,-0.801679753468083,-1.024017063361945
0.09752905405405403,-0.8047034333999372,-1.017309872708491
0.09755405405405404,-0.8090709710792855,-1.013620917849087
0.09757905405405404,-0.812430615448014,-1.00926124392434
0.09760405405405403,-0.8161262242536153,-1.007249086728303
0.09762905405405403,-0.8194858686223437,-1.006578367662957
0.09765405405405403,-0.8188139397485984,-1.004230850934248
0.09767905405405404,-0.8201577974960894,-1.004230850934247
0.09770405405405404,-0.8194858686223437,-1.00221869373821
0.09772905405405403,-0.8204937619329623,-1.001212615140191
0.09775405405405403,-0.8225095485541993,-1.000206536542173
0.09777905405405403,-0.821837619680454,-0.9961822221501008
0.09780405405405404,-0.8218376196804537,-0.9945054244867347
0.09782905405405404,-0.8208297263698351,-0.9914871886926792
0.09785405405405403,-0.8204937619329623,-0.9904811100946607
0.09787905405405403,-0.8221735841173264,-0.9908164696273335
0.09790405405405403,-0.8225095485541992,-0.988133593365952
0.09792905405405404,-0.8238534063016907,-0.985450717104568
0.09795405405405404,-0.823181477427945,-0.9790788859837839
0.09797905405405404,-0.8221735841173264,-0.97035953813429
0.09800405405405403,-0.8215016552435808,-0.9609694712194503
0.09802905405405403,-0.8201577974960901,-0.9485611685105607
0.09805405405405404,-0.8204937619329623,-0.9385003825303697
0.09807905405405404,-0.8204937619329623,-0.9274335179521658
0.09810405405405404,-0.8204937619329623,-0.9173727319719804
0.09812905405405403,-0.8194858686223437,-0.9059705078611038
0.09815405405405403,-0.8167981531273621,-0.8918854074888507
0.09817905405405404,-0.8164621886904881,-0.8784710261819305
0.09820405405405404,-0.8154542953798696,-0.8637152067443253
0.09822905405405404,-0.8157902598167425,-0.849294746839393
0.09825405405405403,-0.8157902598167425,-0.8362157250651521
0.09827905405405403,-0.8137744731955062,-0.8224659842255716
0.09830405405405404,-0.8131025443217597,-0.8120698387127072
0.09832905405405404,-0.810414828826777,-0.8020090527325219
0.09835405405405404,-0.8077271133317941,-0.7926189858176822
0.09837905405405403,-0.8040315045261929,-0.7828935593701698
0.09840405405405403,-0.7976481802256117,-0.7701498971286074
0.09842905405405404,-0.7922727492356433,-0.7587476730177249
0.09845405405405404,-0.7865613538088049,-0.7470100893741753
0.09847905405405404,-0.781857851692585,-0.7356078652632987
0.09850405405405403,-0.7764824207026195,-0.7258824388157862
0.09852905405405403,-0.7687552386545476,-0.7148155742375872
0.09855405405405404,-0.7610280566064687,-0.7050901477900697
