measurement/exam_1/hifi_l.csv

#Digilent WaveForms Oscilloscope Acquisition
#Device Name: DiscoveryStudio
#Serial Number: SN:210384B18F1D
#Date Time: 2026-07-09 05:34:56.709
#Sample rate: 40000Hz
#Samples: 8192
#Trigger: Source: Channel 1 Type: Edge Condition: Rising Level: 0 V Hyst.: Auto HoldOff: 0 s
#Channel 1: Range: 500 mV/div Offset: 0 V Sample Mode: Average
#Channel 2: Range: 500 mV/div Offset: 0 V Sample Mode: Average

Time (s),Channel 1 (V),Channel 2 (V)
0.09021071428571427,0.05973306267389186,-0.00217656730778721
0.09023571428571428,0.07619532008066875,-0.002176567307787057
0.09026071428571428,0.09265757748743067,-0.001841207775114365
0.09028571428571427,0.1097917637679458,-0.001170488709768676
0.09031071428571427,0.1262540211747152,-0.000835129177095831
0.09033571428571427,0.1423803141446117,-0.0004997696444229864
0.09036071428571428,0.1581706426776427,-0.000835129177096136
0.09038571428571428,0.1739609712106592,-0.001505848242441521
0.09041071428571427,0.1900872641805558,-0.002511926840460055
0.09043571428571427,0.2062135571504523,-0.002847286373132899
0.09046071428571427,0.2226758145572217,-0.002847286373132899
0.09048571428571428,0.2388021075271255,-0.002511926840460055
0.09051071428571428,0.254592436060142,-0.002511926840460055
0.09053571428571427,0.26971083571942,-0.003182645905805744
0.09056071428571427,0.284829235378698,-0.003518005438478589
0.09058571428571427,0.2999476350379761,-0.002847286373132899
0.09061071428571428,0.3147300702603883,-0.001841207775113908
0.09063571428571428,0.3301844343565321,-0.000835129177095831
0.09066071428571428,0.3446309051420645,-0.0004997696444229864
0.09068571428571427,0.358741411490724,-0.0004997696444229864
0.09071071428571427,0.3731878822762563,-0.001170488709768676
0.09073571428571428,0.3866264597511767,-0.001841207775114518
0.09076071428571428,0.4010729305367025,-0.00217656730778721
0.09078571428571428,0.4148474724484891,-0.002511926840460055
0.09081071428571427,0.4289579787971486,-0.002847286373132899
0.09083571428571427,0.4427325207089353,-0.002847286373132899
0.09086071428571428,0.4561710981838549,-0.00251192684045975
0.09088571428571428,0.4689377467850172,-0.001841207775114365
0.09091071428571428,0.4803605376386939,-0.000835129177095831
0.09093571428571427,0.4921192929292434,-0.0001644101117501417
0.09096071428571427,0.5045499770935388,-0.0004997696444229864
0.09098571428571428,0.5173166256947135,-0.0008351291770956785
0.09101071428571428,0.5317630964802392,-0.0004997696444229864
0.09103571428571428,0.5445297450814074,-0.0001644101117501417
0.09106071428571427,0.5576323581194483,-0.0001644101117501417
0.09108571428571427,0.5693911134099979,-0.000835129177095831
0.09111071428571427,0.5808139042636694,-0.001505848242441216
0.09113571428571428,0.5935805528648428,-0.00217656730778721
0.09116071428571428,0.6050033437185195,-0.002847286373132899
0.09118571428571427,0.6157542056984505,-0.002511926840460055
0.09121071428571427,0.625497174367763,-0.002511926840460055
0.09123571428571427,0.6338962852895804,-0.002176567307787363
0.09126071428571428,0.6446471472695152,-0.001841207775114365
0.09128571428571428,0.6553980092494462,-0.00217656730778721
0.09131071428571427,0.6674927289768686,-0.00217656730778721
0.09133571428571427,0.6792514842674182,-0.00217656730778721
0.09136071428571427,0.689330417373599,-0.00217656730778721
0.09138571428571428,0.6997453149166618,-0.001841207775114365
0.09141071428571428,0.7081444258384829,-0.001505848242441521
0.09143571428571427,0.7175514300709226,-0.001505848242441521
0.09146071428571427,0.7269584343033623,-0.002511926840460055
0.09148571428571427,0.7350215807883068,-0.003182645905805439
0.09151071428571428,0.7437566561470045,-0.003182645905805744
0.09153571428571428,0.7514838381950799,-0.00217656730778721
0.09156071428571427,0.759882949116901,-0.001505848242441521
0.09158571428571427,0.7682820600387222,-0.001505848242441521
0.09161071428571427,0.7766811709605396,-0.001505848242441521
0.09163571428571428,0.7857522107561101,-0.002511926840460055
0.09166071428571428,0.7931434283673128,-0.002511926840460055
0.09168571428571427,0.801206574852261,-0.002511926840460055
0.09171071428571427,0.8085977924634636,-0.001841207775114365
0.09173571428571427,0.8149811167640447,-0.001841207775114365
0.09176071428571428,0.8233802276858688,-0.001505848242441521
0.09178571428571428,0.8300995164233257,-0.000835129177095831
0.09181071428571427,0.8368188051607826,-0.000835129177095831
0.09183571428571427,0.8432021294613666,-0.001170488709768676
0.09186071428571427,0.8475696671407117,-0.00184120777511406
0.09188571428571428,0.8536170270044249,-0.002511926840460055
0.09191071428571428,0.8583205291206447,-0.00217656730778721
0.09193571428571427,0.8636959601106102,-0.00217656730778721
0.09196071428571427,0.8687354266637028,-0.001841207775114365
0.09198571428571427,0.8731029643430479,-0.001841207775114365
0.09201071428571428,0.8784783953330154,-0.002511926840460055
0.09203571428571428,0.8828459330123624,-0.00217656730778721
0.09206071428571427,0.8875494351285822,-0.00217656730778721
0.09208571428571427,0.8915810083710564,-0.00217656730778721
0.09211071428571427,0.8939327594291652,-0.00217656730778721
0.09213571428571428,0.8976283682347675,-0.00217656730778721
0.09216071428571428,0.9003160837297504,-0.00217656730778721
0.09218571428571427,0.9043476569722244,-0.001841207775114365
0.09221071428571427,0.9080432657778258,-0.001841207775114365
0.09223571428571427,0.9100590523990619,-0.001841207775114365
0.09226071428571428,0.9124108034571727,-0.001841207775114365
0.09228571428571428,0.9127467678940456,-0.001170488709768676
0.09231071428571427,0.9144265900784098,-0.001170488709768676
0.09233571428571427,0.9164423766996469,-0.001841207775114365
0.09236071428571427,0.9177862344471376,-0.002176567307787057
0.09238571428571428,0.9198020210683753,-0.002847286373132899
0.09241071428571428,0.9201379855052482,-0.00217656730778721
0.09243571428571427,0.9208099143789938,-0.001841207775114365
0.09246071428571427,0.9214818432527395,-0.001170488709768676
0.09248571428571427,0.9211458788158667,-0.001505848242441521
0.09251071428571428,0.9221537721264852,-0.00217656730778721
0.09253571428571428,0.9218178076896124,-0.002511926840460055
0.09256071428571427,0.9218178076896124,-0.002511926840460055
0.09258571428571427,0.9211458788158667,-0.00217656730778721
0.09261071428571427,0.9194660566315025,-0.001170488709768676
0.09263571428571428,0.9187941277577568,-0.000835129177095831
0.09266071428571428,0.9171143055733926,-0.0004997696444229864
0.09268571428571427,0.916106412262774,-0.0004997696444229864
0.09271071428571427,0.9144265900784098,-0.001170488709768676
0.09273571428571427,0.9110669457096814,-0.001505848242441521
0.09276071428571428,0.9087151946515715,-0.00217656730778721
0.09278571428571428,0.9050195858459702,-0.001841207775114365
0.09281071428571427,0.9026678347878603,-0.001505848242441521
0.09283571428571427,0.9006520481666231,-0.001505848242441521
0.09286071428571427,0.8969564393610219,-0.001505848242441521
0.09288571428571428,0.8942687238660367,-0.002176567307787668
0.09291071428571428,0.8892292573129464,-0.003182645905805744
0.09293571428571427,0.8851976840704723,-0.003853364971151433
0.09296071428571427,0.881502075264871,-0.003518005438478589
0.09298571428571427,0.877134537585524,-0.003182645905805744
0.09301071428571428,0.8744468220905391,-0.002511926840459902
0.09303571428571428,0.8697433199743214,-0.00217656730778721
0.09306071428571427,0.8660477111687201,-0.002511926840460055
0.09308571428571427,0.862016137926246,-0.00217656730778721
0.09311071428571427,0.8559687780625348,-0.002847286373132899
0.09313571428571428,0.8519372048200577,-0.002511926840460055
0.09316071428571428,0.8455538805194766,-0.002511926840460055
0.09318571428571427,0.8405144139663839,-0.00217656730778721
0.09321071428571427,0.8358109118501641,-0.00217656730778721
0.09323571428571427,0.8304354808601986,-0.001841207775114365
0.09326071428571428,0.8260679431808484,-0.002176567307787363
0.09328571428571428,0.8193486544433947,-0.002511926840460055
0.09331071428571427,0.8133012945796835,-0.002847286373132899
0.09333571428571427,0.8069179702790994,-0.003182645905805744
0.09336071428571427,0.8001986815416425,-0.002847286373132899
0.09338571428571428,0.7954951794254199,-0.00184120777511406
0.09341071428571428,0.7894478195617114,-0.001170488709768676
0.09343571428571427,0.7840723885717459,-0.001170488709768676
0.09346071428571427,0.7783609931449076,-0.001170488709768676
0.09348571428571427,0.7716417044074506,-0.001170488709768676
0.09351071428571428,0.7659303089806091,-0.001170488709768676
0.09353571428571428,0.7588750558062826,-0.001170488709768676
0.09356071428571427,0.7531636603794442,-0.001170488709768676
0.09358571428571427,0.747116300515733,-0.001505848242441521
0.09361071428571427,0.7393891184676575,-0.001841207775114365
0.09363571428571428,0.7323338652933238,-0.00217656730778721
0.09366071428571428,0.7235987899346338,-0.00217656730778721
0.09368571428571427,0.716543536760304,-0.00217656730778721
0.09371071428571427,0.7101602124597199,-0.001841207775114365
0.09373571428571427,0.7034409237222631,-0.00217656730778721
0.09376071428571428,0.698065492732294,-0.001841207775114365
0.09378571428571428,0.6903383106842221,-0.001841207775114365
0.09381071428571428,0.6832830575098924,-0.001841207775114365
0.09383571428571427,0.6758918398986898,-0.001505848242441521
0.09386071428571427,0.6681646578506144,-0.001505848242441521
0.09388571428571428,0.6611094046762805,-0.001170488709768523
0.09391071428571428,0.6520383648807178,-0.000835129177095831
0.09393571428571428,0.6439752183957695,-0.0004997696444229864
0.09396071428571427,0.6355761074739483,-0.0001644101117501417
0.09398571428571427,0.6265050676783815,-0.0004997696444229864
0.09401071428571428,0.6174340278828102,-0.001170488709768676
0.09403571428571428,0.6073550947766294,-0.001170488709768676
0.09406071428571428,0.5982840549810626,-0.001170488709768676
0.09408571428571427,0.5895489796223686,-0.001170488709768676
0.09411071428571427,0.5814858331374203,-0.000835129177095831
0.09413571428571428,0.5740946155262134,-0.000835129177095831
0.09416071428571428,0.5646876112937781,-0.000835129177095831
0.09418571428571428,0.5552806070613384,-0.0004997696444229864
0.09421071428571427,0.5455376383920258,-0.0004997696444229864
0.09423571428571427,0.5354587052858405,-0.0004997696444229864
0.09426071428571427,0.5263876654902778,-0.0008351291770956786
0.09428571428571428,0.5159727679472156,-0.001170488709768676
0.09431071428571428,0.5055578704041573,-0.001170488709768676
0.09433571428571427,0.4948070084242263,-0.001505848242441521
0.09436071428571427,0.4833842175705495,-0.001841207775114365
0.09438571428571427,0.4722973911537506,-0.002176567307787057
0.09441071428571428,0.4602026714263232,-0.00217656730778721
0.09443571428571428,0.4477719872620279,-0.001841207775114365
0.09446071428571427,0.4356772675346055,-0.001505848242441521
0.09448571428571427,0.4229106189334374,-0.001170488709768676
0.09451071428571427,0.4108158992060205,-0.0004997696444232914
0.09453571428571428,0.3987211794785925,-0.0001644101117501417
0.09456071428571428,0.3876343530617887,-0.0001644101117501417
0.09458571428571427,0.3762115622081119,-0.0001644101117501417
0.09461071428571427,0.363108949170071,-0.0004997696444229864
0.09463571428571427,0.3503423005689087,-0.001170488709768371
0.09466071428571428,0.3362317942202434,-0.001505848242441521
0.09468571428571428,0.3227932167453296,-0.001841207775114365
0.09471071428571427,0.3090186748335429,-0.001841207775114365
0.09473571428571427,0.2945722040480105,-0.001505848242441521
0.09476071428571427,0.2801257332624847,-0.001170488709768828
0.09478571428571428,0.2643354047294545,-0.001841207775114365
0.09481071428571428,0.248209111759558,-0.00217656730778721
0.09483571428571427,0.2327547476634071,-0.002847286373132899
0.09486071428571427,0.2179723124410019,-0.002511926840460055
0.09488571428571427,0.2035258416554761,-0.00184120777511467
0.09491071428571428,0.1894153353068101,-0.000835129177095831
0.09493571428571428,0.1749688645212777,-0.0004997696444229864
0.09496071428571427,0.1605223937357454,-0.000835129177095831
0.09498571428571427,0.1450680296395945,-0.001170488709768676
0.09501071428571427,0.1296136655434507,-0.001170488709768676
0.09503571428571428,0.1138233370104199,-0.000835129177095831
0.09506071428571428,0.09803300847739618,-0.0001644101117501417
0.09508571428571427,0.08257864438124532,0.0005063089535955478
0.09511071428571427,0.06678831584822159,0.0005063089535955478
0.09513571428571427,0.05032605844145968,0.0001709494209228555
0.09516071428571428,0.03386380103468278,-0.000835129177095831
0.09518571428571428,0.01773750806478622,-0.001170488709768676
0.09521071428571427,0.001947179531762499,-0.002511926840460055
0.09523571428571427,-0.01350718456438837,-0.002847286373132899
0.09526071428571427,-0.02896154866053222,-0.003518005438478284
0.09528571428571428,-0.04508784163043581,-0.003182645905805744
0.09531071428571428,-0.06155009903720522,-0.002511926840460055
0.09533571428571427,-0.0776763920071018,-0.001170488709768676
0.09536071428571427,-0.09413864941387121,0.000170949420922703
0.09538571428571427,-0.1106009068206331,0.0008416684862680875
0.09541071428571428,-0.12706316422741,0.0005063089535955478
0.09543571428571428,-0.1431894571973066,-0.0001644101117501417
0.09546071428571427,-0.1586438212934574,-0.0004997696444229864
0.09548571428571427,-0.1734262565158626,-0.000835129177095831
0.09551071428571427,-0.1885446561751338,-0.001170488709768523
0.09553571428571428,-0.2039990202712915,-0.001505848242441521
0.09556071428571428,-0.2207972421149338,-0.00217656730778721
0.09558571428571427,-0.2379314283954489,-0.002511926840460055
0.09561071428571427,-0.2547296502390912,-0.00217656730778721
0.09563571428571427,-0.2711919076458606,-0.001841207775114365
0.09566071428571428,-0.2863103073051386,-0.000835129177095831
0.09568571428571428,-0.3014287069644166,-0.0004997696444229864
0.09571071428571427,-0.3162111421868218,-0.000835129177095831
0.09573571428571427,-0.3313295418460999,-0.001170488709768676
0.09576071428571427,-0.3464479415053779,-0.001841207775114365
0.09578571428571428,-0.3612303767277831,-0.001841207775114365
0.09581071428571428,-0.3763487763870611,-0.00217656730778721
0.09583571428571427,-0.391803140483212,-0.001505848242441521
0.09586071428571427,-0.4075934690162357,-0.001170488709768676
0.09588571428571427,-0.4247276552967508,-0.000835129177095831
0.09591071428571428,-0.4408539482666545,-0.0004997696444229864
0.09593571428571428,-0.4566442767996711,-0.0004997696444229864
0.09596071428571427,-0.4710907475852034,-0.000835129177095831
0.09598571428571427,-0.48486528949699,-0.001505848242441521
0.09601071428571427,-0.4996477247193952,-0.002847286373132899
0.09603571428571428,-0.5140941955049343,-0.003518005438478741
0.09606071428571428,-0.5288766307273327,-0.003853364971151433
0.09608571428571427,-0.5429871370759922,-0.003518005438478589
0.09611071428571427,-0.5570976434246517,-0.002511926840460055
0.09613571428571427,-0.5718800786470569,-0.001505848242441521
0.09616071428571428,-0.5859905849957233,-0.0008351291770956785
0.09618571428571428,-0.6011089846549944,-0.0004997696444229864
0.09621071428571427,-0.6155554554405267,-0.0004997696444229864
0.09623571428571427,-0.6289940329154405,-0.0004997696444229864
0.09626071428571427,-0.6424326103903544,-0.000835129177095831
0.09628571428571428,-0.6545273301177827,-0.001170488709768828
0.09631071428571428,-0.6676299431558177,-0.001505848242441521
0.09633571428571427,-0.6820764139413501,-0.001505848242441521
0.09636071428571427,-0.6958509558531367,-0.001170488709768676
0.09638571428571427,-0.7099614622017962,-0.000835129177095831
0.09641071428571428,-0.7220561819292242,-0.000835129177095831
0.09643571428571428,-0.7341509016566411,-0.000835129177095831
0.09646071428571427,-0.7455736925103178,-0.001170488709768676
0.09648571428571427,-0.7566605189271217,-0.001505848242441521
0.09651071428571427,-0.769091203091417,-0.001841207775114365
0.09653571428571428,-0.779842065071353,-0.002511926840460055
0.09656071428571428,-0.7909288914881519,-0.002511926840460055
0.09658571428571427,-0.801679753468083,-0.001841207775114365
0.09661071428571427,-0.8120946510111411,-0.001505848242441521
0.09663571428571427,-0.8245253351754364,-0.0004997696444229864
0.09666071428571428,-0.8356121615922453,-0.0004997696444229864
0.09668571428571428,-0.8466989880090442,-0.0004997696444229864
0.09671071428571427,-0.8571138855521023,-0.000835129177095831
0.09673571428571427,-0.866520889784542,-0.001170488709768676
0.09676071428571427,-0.8769357873276002,-0.000835129177095831
0.09678571428571428,-0.8860068271231715,-0.000835129177095831
0.09681071428571428,-0.8957497957924796,-0.000835129177095831
0.09683571428571427,-0.9044848711511735,-0.000835129177095831
0.09686071428571427,-0.9125480176361218,-0.0004997696444229864
0.09688571428571427,-0.9219550218685615,-0.0004997696444229864
0.09691071428571428,-0.9296822039166406,-0.0001644101117502942
0.09693571428571428,-0.9377453504015852,-0.0004997696444229864
0.09696071428571428,-0.9451365680127878,-0.000835129177095831
0.09698571428571427,-0.951183927876499,-0.001170488709768676
0.09701071428571427,-0.9582391810508287,-0.001170488709768676
0.09703571428571428,-0.9639505764776702,-0.001170488709768676
0.09706071428571428,-0.970669865215124,-0.001170488709768676
0.09708571428571428,-0.9780610828263266,-0.001505848242441521
0.09711071428571427,-0.9841084426900378,-0.001505848242441521
0.09713571428571427,-0.9911636958643676,-0.001841207775114365
0.09716071428571428,-0.99586719798059,-0.001170488709768523
0.09718571428571428,-1.001578593407426,-0.000835129177095831
0.09721071428571428,-1.006282095523646,-0.0004997696444229864
0.09723571428571427,-1.01031366876612,-0.0004997696444229864
0.09726071428571427,-1.015689099756085,-0.001170488709768676
0.09728571428571428,-1.019720672998562,-0.001841207775114365
0.09731071428571428,-1.024088210677907,-0.001841207775114365
0.09733571428571428,-1.028119783920381,-0.001505848242441521
0.09736071428571427,-1.030471534978491,-0.000835129177095831
0.09738571428571427,-1.034839072657838,-0.0004997696444229864
0.09741071428571427,-1.036518894842201,-0.0004997696444229864
0.09743571428571428,-1.039542574774057,-0.0004997696444229864
0.09746071428571428,-1.041894325832167,-0.001170488709768676
0.09748571428571427,-1.043574148016531,-0.001505848242441521
0.09751071428571427,-1.046261863511514,-0.002511926840460055
0.09753571428571427,-1.046597827948387,-0.002847286373132747
0.09756071428571428,-1.048277650132751,-0.002847286373132899
0.09758571428571428,-1.049957472317116,-0.002847286373132899
0.09761071428571427,-1.050965365627734,-0.00217656730778721
0.09763571428571427,-1.052645187812098,-0.001841207775114365
0.09766071428571427,-1.051973258938353,-0.001505848242441673
0.09768571428571428,-1.052309223375226,-0.001505848242441521
0.09771071428571428,-1.052309223375226,-0.001841207775114365
0.09773571428571427,-1.051301330064607,-0.00217656730778721
0.09776071428571427,-1.05163729450148,-0.002511926840460055
0.09778571428571427,-1.048949579006498,-0.002176567307787363
0.09781071428571428,-1.047269756822133,-0.001841207775114365
0.09783571428571428,-1.045589934637769,-0.001505848242441521
0.09786071428571427,-1.043238183579659,-0.001170488709768676
0.09788571428571427,-1.042902219142786,-0.000835129177095831
0.09791071428571427,-1.040550468084677,-0.001170488709768523
0.09793571428571428,-1.038870645900312,-0.001170488709768676
0.09796071428571428,-1.036854859279075,-0.001505848242441521
0.09798571428571427,-1.033159250473473,-0.001170488709768676
0.09801071428571427,-1.030135570541618,-0.0001644101117501417
0.09803571428571427,-1.024760139551655,-0.0001644101117501417
0.09806071428571428,-1.021064530746051,-0.000835129177095831
0.09808571428571428,-1.017704886377322,-0.001505848242441521
0.09811071428571427,-1.013001384261103,-0.002511926840460055
0.09813571428571427,-1.009977704329247,-0.00217656730778721
0.09816071428571427,-1.004266308902411,-0.00217656730778721
