measurement/exam_1/smooth.csv

#Digilent WaveForms Oscilloscope Acquisition
#Device Name: DiscoveryStudio
#Serial Number: SN:210384B18F1D
#Date Time: 2026-07-09 05:32:31.042
#Sample rate: 40000Hz
#Samples: 8192
#Trigger: Source: Channel 1 Type: Edge Condition: Rising Level: 0 V Hyst.: Auto HoldOff: 0 s
#Channel 1: Range: 500 mV/div Offset: 0 V Sample Mode: Average

Time (s),Channel 1 (V)
0.09021237373737372,0.1477557451345773
0.09023737373737373,0.1622022159201165
0.09026237373737372,0.1773206155793876
0.09028737373737372,0.1914311219280471
0.09031237373737372,0.2048696994029609
0.09033737373737372,0.2169644191303834
0.09036237373737373,0.2277152811103196
0.09038737373737372,0.2391380719639911
0.09041237373737372,0.250224898380795
0.09043737373737372,0.2626555825450902
0.09046237373737372,0.2760941600200041
0.09048737373737373,0.2895327374949246
0.09051237373737372,0.3043151727173231
0.09053737373737372,0.3177537501922368
0.09056237373737372,0.3311923276671507
0.09058737373737372,0.3436230118314459
0.09061237373737373,0.3557177315588737
0.09063737373737372,0.3674764868494179
0.09066237373737372,0.3788992777030947
0.09068737373737372,0.3913299618673899
0.09071237373737372,0.4044325749054309
0.09073737373737373,0.4171992235066051
0.09076237373737372,0.4306378009815128
0.09078737373737372,0.4434044495826809
0.09081237373737372,0.456171098183849
0.09083737373737372,0.4675938890375258
0.09086237373737373,0.4786807154543347
0.09088737373737373,0.4897675418711335
0.09091237373737372,0.5005184038510646
0.09093737373737372,0.5119411947047414
0.09096237373737372,0.5243718788690367
0.09098737373737373,0.5361306341595923
0.09101237373737373,0.5492332471976272
0.09103737373737372,0.5613279669250496
0.09106237373737372,0.5734226866524721
0.09108737373737372,0.5841735486324031
0.09111237373737371,0.5945884461754565
0.09113737373737373,0.6053393081553923
0.09116237373737372,0.6144103479509592
0.09118737373737372,0.625497174367763
0.09121237373737372,0.6362480363476941
0.09123737373737371,0.6463269694538749
0.09126237373737373,0.6577497603075562
0.09128737373737372,0.6681646578506144
0.09131237373737372,0.6789155198305454
0.09133737373737372,0.6893304173736036
0.09136237373737371,0.6984014571691664
0.09138737373737373,0.7084803902753558
0.09141237373737372,0.7172154656340497
0.09143737373737372,0.7262865054296166
0.09146237373737372,0.7363654385358019
0.09148737373737371,0.7447645494576193
0.09151237373737373,0.7548434825638084
0.09153737373737372,0.7632425934856295
0.09156237373737372,0.7723136332811963
0.09158737373737372,0.7810487086398903
0.09161237373737371,0.7884399262510896
0.09163737373737373,0.7971750016097868
0.09166237373737372,0.8042302547841166
0.09168737373737372,0.8126293657059377
0.09171237373737372,0.820692512190886
0.09173737373737371,0.8284196942389579
0.09176237373737373,0.8368188051607826
0.09178737373737372,0.8432021294613666
0.09181237373737372,0.8499214181988235
0.09183737373737372,0.8563047424994076
0.09186237373737371,0.861344209052498
0.09188737373737373,0.8677275333530844
0.09191237373737372,0.8720950710324313
0.09193737373737372,0.8778064664592697
0.09196237373737372,0.8838538263229809
0.09198737373737371,0.8888932928760712
0.09201237373737373,0.8956125816135305
0.09203737373737372,0.9003160837297504
0.09206237373737372,0.9060274791565887
0.09208737373737372,0.9114029101465542
0.09211237373737372,0.9150985189521539
0.09213737373737373,0.9204739499421211
0.09216237373737372,0.9241695587477223
0.09218737373737372,0.9282011319901965
0.09221237373737372,0.9325686696695434
0.09223737373737372,0.9355923496013977
0.09226237373737373,0.9399598872807461
0.09228737373737372,0.942311638338856
0.09231237373737372,0.9453353182707116
0.09233737373737372,0.9476870693288215
0.09236237373737372,0.9493668915131849
0.09238737373737373,0.9520546070081685
0.09241237373737372,0.9533984647556598
0.09243737373737372,0.9557502158137697
0.09246237373737372,0.9584379313087525
0.09248737373737372,0.9604537179299896
0.09251237373737373,0.9638133622987181
0.09253737373737372,0.9654931844830823
0.09256237373737372,0.9678449355411922
0.09258737373737372,0.9691887932886836
0.09261237373737372,0.9698607221624292
0.09263737373737373,0.9712045799099206
0.09266237373737372,0.9705326510361749
0.09268737373737372,0.9708686154730478
0.09271237373737372,0.9708686154730478
0.09273737373737372,0.9698607221624292
0.09276237373737373,0.9705326510361749
0.09278737373737372,0.9688528288518107
0.09281237373737372,0.9685168644149379
0.09283737373737372,0.9678449355411922
0.09286237373737372,0.9658291489199551
0.09288737373737373,0.9654931844830812
0.09291237373737372,0.9631414334249724
0.09293737373737372,0.9621335401143538
0.09296237373737372,0.9607896823668625
0.09298737373737372,0.9581019668718797
0.09301237373737373,0.9567581091243867
0.09303737373737372,0.9533984647556598
0.09306237373737372,0.9503747848238042
0.09308737373737372,0.9473511048919486
0.09311237373737372,0.9426476027757288
0.09313737373737373,0.9396239228438709
0.09316237373737372,0.9345844562907805
0.09318737373737372,0.9302169186114335
0.09321237373737372,0.9261853453689594
0.09323737373737372,0.9208099143789938
0.09326237373737373,0.9171143055733901
0.09328737373737372,0.9117388745834271
0.09331237373737372,0.9063634435934615
0.09333737373737372,0.900988012603496
0.09336237373737372,0.8949406527397848
0.09338737373737373,0.889901186186689
0.09341237373737372,0.8831818974492353
0.09343737373737372,0.877134537585524
0.09346237373737372,0.8710871777218128
0.09348737373737372,0.8636959601106102
0.09351237373737373,0.8573126358100225
0.09353737373737372,0.8492494893250778
0.09356237373737372,0.8408503784032567
0.09358737373737372,0.8331231963551813
0.09361237373737372,0.8237161921227416
0.09363737373737373,0.8159890100746618
0.09366237373737372,0.8065820058422265
0.09368737373737372,0.7981828949204054
0.09371237373737372,0.7901197484354571
0.09373737373737372,0.7810487086398903
0.09376237373737373,0.7736574910286833
0.09378737373737372,0.7639145223593752
0.09381237373737372,0.7551794470006812
0.09383737373737372,0.7457724427682416
0.09386237373737372,0.7350215807883105
0.09388737373737373,0.7249426476821198
0.09391237373737372,0.7131838923915756
0.09393737373737372,0.7020970659747717
0.09396237373737372,0.6910102395579678
0.09398737373737372,0.6792514842674182
0.09401237373737373,0.6681646578506087
0.09403737373737373,0.6557339736863191
0.09406237373737372,0.6443111828326423
0.09408737373737372,0.6325524275420927
0.09411237373737372,0.6204577078146704
0.09413737373737373,0.6093708813978608
0.09416237373737373,0.5969401972335712
0.09418737373737372,0.5855174063798945
0.09421237373737372,0.5737586510893449
0.09423737373737372,0.5613279669250496
0.09426237373737371,0.5492332471976328
0.09428737373737373,0.5357946697227134
0.09431237373737372,0.5216841633740539
0.09433737373737372,0.5075736570253944
0.09436237373737372,0.4924552573661163
0.09438737373737371,0.4773368577068452
0.09441237373737373,0.4612105647369417
0.09443737373737372,0.445420236203918
0.09446237373737372,0.4299658721077671
0.09448737373737372,0.4145115080116162
0.09451237373737371,0.3993931083523451
0.09453737373737373,0.3839387442561873
0.09456237373737372,0.3691563090337822
0.09458737373737372,0.3553817671219955
0.09461237373737372,0.3405993318995904
0.09463737373737371,0.3271607544246826
0.09466237373737373,0.3133862125128899
0.09468737373737372,0.2992757061642304
0.09471237373737372,0.284829235378698
0.09473737373737372,0.2693748712825472
0.09476237373737371,0.2529126138757852
0.09478737373737373,0.2340986054108985
0.09481237373737372,0.2142767036354006
0.09483737373737372,0.1941188374230299
0.09486237373737372,0.1732890423369135
0.09488737373737371,0.1538031049982973
0.09491237373737373,0.1349890965334092
0.09493737373737372,0.1171829813791484
0.09496237373737372,0.1013926528461246
0.09498737373737372,0.08661021762371945
0.09501237373737371,0.07249971127506638
0.09503737373737373,0.05906113380014617
0.09506237373737372,0.04360676970399529
0.09508737373737372,0.02781644117097157
0.09511237373737372,0.01034629045358363
0.09513737373737371,-0.008467718011287144
0.09516237373737373,-0.0286255842236664
0.09518737373737372,-0.0494553793097828
0.09521237373737372,-0.07028517439589921
0.09523737373737372,-0.09077900504514275
0.09526237373737372,-0.1109368712575043
0.09528737373737373,-0.1304228085961385
0.09531237373737372,-0.1495727814978906
0.09533737373737372,-0.1677148610890243
0.09536237373737372,-0.1858569406801579
0.09538737373737372,-0.2033270913975379
0.09541237373737373,-0.220461277678061
0.09543737373737372,-0.2372594995217032
0.09546237373737372,-0.2537217569284727
0.09548737373737372,-0.270184014335242
0.09551237373737372,-0.286646271742004
0.09553737373737373,-0.3034444935856537
0.09556237373737372,-0.3209146443030417
0.09558737373737372,-0.3390567238941753
0.09561237373737372,-0.3575347679221818
0.09563737373737372,-0.3773566696976796
0.09566237373737373,-0.3968426070363046
0.09568737373737372,-0.4170004732486753
0.09571237373737372,-0.4368223750241732
0.09573737373737372,-0.4556363834890526
0.09576237373737372,-0.474114427517059
0.09578737373737373,-0.4909126493607013
0.09581237373737372,-0.5077108712043434
0.09583737373737372,-0.5231652353004943
0.09586237373737372,-0.5382836349597724
0.09588737373737372,-0.5537379990559232
0.09591237373737373,-0.5681844698414624
0.09593737373737372,-0.5833028695007336
0.09596237373737372,-0.5987572335968845
0.09598737373737372,-0.6132037043824168
0.09601237373737372,-0.6293299973523134
0.09603737373737373,-0.6437764681378527
0.09606237373737372,-0.6592308322339966
0.09608737373737372,-0.6750211607670203
0.09611237373737372,-0.6894676315525526
0.09613737373737372,-0.7052579600855764
0.09616237373737373,-0.7197044308711157
0.09618737373737372,-0.7351587949672596
0.09621237373737372,-0.749605265752792
0.09623737373737372,-0.7643877009751971
0.09626237373737372,-0.7791701361976023
0.09628737373737373,-0.7929446781093952
0.09631237373737372,-0.8067192200211756
0.09633737373737372,-0.8201577974960894
0.09636237373737372,-0.8325884816603847
0.09638737373737372,-0.8453551302615528
0.09641237373737373,-0.8564419566783614
0.09643737373737372,-0.8668568542214149
0.09646237373737372,-0.8765998228907274
0.09648737373737372,-0.8843270049388028
0.09651237373737372,-0.8920541869868782
0.09653737373737373,-0.8977655824137191
0.09656237373737372,-0.9031410134036821
0.09658737373737372,-0.907844515519902
0.09661237373737372,-0.9115401243255032
0.09663737373737372,-0.916579590878596
0.09666237373737373,-0.9196032708104536
0.09668737373737372,-0.9239708084897985
0.09671237373737372,-0.9286743106060183
0.09673737373737372,-0.9327058838484925
0.09676237373737372,-0.9387532437122037
0.09678737373737373,-0.9431207813915531
0.09681237373737372,-0.9481602479446434
0.09683737373737372,-0.9528637500608632
0.09686237373737372,-0.9568953233033374
0.09688737373737372,-0.9615988254195572
0.09691237373737373,-0.9646225053514145
0.09693737373737372,-0.9683181141570141
0.09696237373737372,-0.9720137229626153
0.09698737373737372,-0.9750374028944711
0.09701237373737372,-0.979404940573818
0.09703737373737373,-0.9824286205056755
0.09706237373737372,-0.9864601937481478
0.09708737373737372,-0.9908277314274947
0.09711237373737372,-0.9935154469224775
0.09713737373737372,-0.9978829846018245
0.09716237373737373,-0.9995628067861899
0.09718737373737373,-1.002250522281172
0.09721237373737372,-1.004602273339281
0.09723737373737372,-1.006282095523646
0.09726237373737372,-1.009641739892374
0.09728737373737373,-1.010985597639867
0.09731237373737373,-1.013673313134848
0.09733737373737372,-1.016361028629831
0.09736237373737372,-1.018376815251068
0.09738737373737372,-1.021400495182924
0.09741237373737371,-1.022744352930415
0.09743737373737373,-1.024760139551652
0.09746237373737372,-1.027111890609762
0.09748737373737372,-1.028119783920381
0.09751237373737372,-1.031143463852236
0.09753737373737371,-1.031815392725982
0.09756237373737373,-1.033831179347219
0.09758737373737372,-1.035846965968456
0.09761237373737372,-1.036854859279075
0.09763737373737372,-1.038870645900312
0.09766237373737371,-1.038870645900312
0.09768737373737373,-1.03987853921093
0.09771237373737372,-1.040550468084676
0.09773737373737372,-1.040550468084676
0.09776237373737372,-1.04223029026904
0.09778737373737371,-1.04223029026904
0.09781237373737373,-1.043238183579659
0.09783737373737372,-1.043238183579659
0.09786237373737372,-1.040550468084676
0.09788737373737372,-1.036854859279075
0.09791237373737371,-1.027447855046639
0.09793737373737373,-1.015353135319212
0.09796237373737372,-0.9995628067861887
0.09798737373737372,-0.9797409050106908
0.09801237373737372,-0.9592470743614473
0.09803737373737371,-0.9353935993434862
0.09806237373737373,-0.9135559109467404
0.09808737373737372,-0.8937340091712425
0.09811237373737372,-0.875255965143236
0.09813737373737372,-0.8618173876683222
0.09816237373737371,-0.8493867035040326
0.09818737373737373,-0.8409875925822058
0.09821237373737372,-0.8346042682816217
0.09823737373737372,-0.8292288372916562
0.09826237373737372,-0.8258691929229278
0.09828737373737371,-0.8211656908067101
0.09831237373737373,-0.8171341175642338
0.09833737373737372,-0.812430615448014
0.09836237373737372,-0.8063832555843028
0.09838737373737372,-0.8013437890312101
0.09841237373737372,-0.7942885358568835
0.09843737373737373,-0.7879052115562963
0.09846237373737372,-0.781857851692585
0.09848737373737372,-0.7751385629551282
0.09851237373737372,-0.7700990964020354
0.09853737373737372,-0.7633798076645817
0.09856237373737373,-0.7573324478008674
0.09858737373737372,-0.7509491235002833
0.09861237373737372,-0.7432219414522079
0.09863737373737372,-0.7361666882778781
0.09866237373737372,-0.7270956484823154
0.09868737373737373,-0.7186965375604902
0.09871237373737372,-0.710297426638669
0.09873737373737372,-0.7012263868431022
0.09876237373737372,-0.6938351692318997
0.09878737373737372,-0.6851000938732057
0.09881237373737373,-0.6767009829513846
0.09883737373737372,-0.6683018720295635
0.09886237373737372,-0.6588948677971238
0.09888737373737372,-0.6498238280015569
0.09891237373737372,-0.6387370015847531
0.09893737373737373,-0.6283221040416949
0.09896237373737372,-0.6182431709355095
0.09898737373737372,-0.6081642378293242
0.09901237373737372,-0.5987572335968845
0.09903737373737372,-0.5886783004906991
0.09906237373737373,-0.5792712962582549
0.09908737373737372,-0.5691923631520741
0.09911237373737372,-0.5581055367352702
0.09913737373737372,-0.5470187103184664
0.09916237373737372,-0.5339160972804254
0.09918737373737373,-0.5218213775529976
0.09921237373737372,-0.5100626222624534
0.09923737373737372,-0.4986398314087767
0.09926237373737372,-0.4882249338657185
0.09928737373737372,-0.4774740718857875
0.09931237373737373,-0.4667232099058514
0.09933737373737372,-0.4556363834890526
0.09936237373737372,-0.4425337704510116
0.09938737373737372,-0.4294311574129706
0.09941237373737372,-0.4149846866274383
0.09943737373737373,-0.4008741802787725
0.09946237373737372,-0.3870996383669921
0.09948737373737372,-0.3746689542026969
0.09951237373737372,-0.3632461633490202
0.09953737373737372,-0.3514874080584706
0.09956237373737373,-0.3400646172047883
0.09958737373737372,-0.3279698974773714
0.09961237373737372,-0.3138593911287119
0.09963737373737372,-0.2990769559063067
0.09966237373737372,-0.2829506629364101
0.09968737373737373,-0.26716033440338
0.09971237373737372,-0.2530498280547269
0.09973737373737372,-0.2406191438904317
0.09976237373737372,-0.2298682819105006
0.09978737373737372,-0.2191174199305696
0.09981237373737373,-0.2080305935137593
0.09983737373737372,-0.1939200871651062
0.09986237373737372,-0.1751060787002268
0.09988737373737372,-0.1505806748085092
0.09991237373737372,-0.1203438754899531
0.09993737373737373,-0.08641146736577943
0.09996237373737372,-0.05046327262040134
0.09998737373737372,-0.01552297118562545
0.1000123737373737,0.01639365031729484
0.1000373737373737,0.04360676970399529
0.1000623737373737,0.06510849366386486
0.1000873737373737,0.08157075107062678
0.1001123737373737,0.09467336410866775
0.1001373737373737,0.1060961549623445
0.1001623737373737,0.1171829813791484
0.1001873737373737,0.1292777011065766
0.1002123737373737,0.1420443497077389
0.1002373737373737,0.1561548560563984
0.1002623737373737,0.1709372912788036
0.1002873737373737,0.1850477976274631
0.1003123737373737,0.1981504106655095
0.1003373737373737,0.2102451303929265
0.1003623737373737,0.222003885683476
0.1003873737373737,0.2330907121002799
0.1004123737373737,0.2445135029539567
0.1004373737373737,0.2569441871182462
0.1004623737373737,0.2703827645931657
0.1004873737373737,0.2841573065049524
0.1005123737373737,0.2982678128536119
0.1005373737373737,0.3120423547653985
0.1005623737373737,0.3251449678034335
0.1005873737373737,0.3375756519677347
0.1006123737373737,0.3489984428214115
0.1006373737373737,0.3610931625488339
0.1006623737373737,0.3725159534025106
0.1006873737373737,0.3852826020036729
0.1007123737373737,0.3980492506048469
0.1007373737373737,0.410815899206015
0.1007623737373737,0.4242544766809287
0.1007873737373737,0.436685160845224
0.1008123737373737,0.448779880572641
0.1008373737373737,0.4602026714263232
0.1008623737373737,0.4706175689693814
0.1008873737373737,0.4820403598230581
0.1009123737373737,0.493127186239862
0.1009373737373737,0.5048859415304063
0.1009623737373737,0.5173166256947069
0.1009873737373737,0.530083274295875
0.1010123737373737,0.5428499228970431
0.1010373737373737,0.5546086781875927
0.1010623737373737,0.566367433478137
0.1010873737373737,0.5771182954580734
0.1011123737373737,0.5868612641273858
0.1011373737373737,0.5972761616704441
0.1011623737373737,0.6070191303397565
0.1011873737373737,0.61743402788281
0.1012123737373737,0.6285208542996187
0.1012373737373737,0.6392717162795497
0.1012623737373737,0.6510304715700993
0.1012873737373737,0.6614453691131574
0.1013123737373737,0.6721962310930836
0.1013373737373737,0.6822751641992738
0.1013623737373737,0.690674275121095
0.1013873737373737,0.7004172437904075
0.1014123737373737,0.7088163547122286
0.1014373737373737,0.7178873945077913
0.1014623737373737,0.7269584343033623
0.1014873737373737,0.7363654385358019
0.1015123737373737,0.7461084072051144
0.1015373737373737,0.7548434825638084
0.1015623737373737,0.7639145223593711
0.1015873737373737,0.7723136332811963
0.1016123737373737,0.7800408153292717
0.1016373737373737,0.7891118551248386
0.1016623737373737,0.7961671082991684
0.1016873737373737,0.8045662192209857
0.1017123737373737,0.8129653301428106
0.1017373737373737,0.8210284766277589
0.1017623737373737,0.8297635519864528
0.1017873737373737,0.8368188051607826
0.1018123737373737,0.8438740583351091
0.1018373737373737,0.8499214181988235
0.1018623737373737,0.8556328136256619
0.1018873737373737,0.8613442090525003
0.1019123737373737,0.8657117467318473
0.1019373737373737,0.8714231421586857
0.1019623737373737,0.877134537585524
0.1019873737373737,0.8825099685754896
0.1020123737373737,0.8888932928760735
0.1020373737373737,0.8939327594291663
0.1020623737373737,0.8999801192928775
0.1020873737373737,0.905355550282843
0.1021123737373737,0.9100590523990628
0.1021373737373737,0.9154344833890283
0.1021623737373737,0.9194660566315025
0.1021873737373737,0.9241695587477223
0.1022123737373737,0.9288730608639438
0.1022373737373737,0.9325686696695434
0.1022623737373737,0.9372721717857633
0.1022873737373737,0.9396239228438732
0.1023123737373737,0.9426476027757288
0.1023373737373737,0.9453353182707124
0.1023623737373737,0.9470151404550757
0.1023873737373737,0.9500388203869314
0.1024123737373737,0.9510467136975499
0.1024373737373737,0.9537344291925327
0.1024623737373737,0.9560861802506435
0.1024873737373737,0.9581019668718797
0.1025123737373737,0.9617975756774809
0.1025373737373737,0.9631414334249724
0.1025623737373737,0.9654931844830823
0.1025873737373737,0.9671730066674465
0.1026123737373737,0.9675089711043193
0.1026373737373737,0.9688528288518107
0.1026623737373737,0.968180899978065
0.1026873737373737,0.9688528288518107
0.1027123737373737,0.969524757725556
0.1027373737373737,0.9688528288518107
