measurement/exam_1/stereo_r.csv

#Digilent WaveForms Oscilloscope Acquisition
#Device Name: DiscoveryStudio
#Serial Number: SN:210384B18F1D
#Date Time: 2026-07-09 05:33:35.631
#Sample rate: 40000Hz
#Samples: 8192
#Trigger: Source: Channel 1 Type: Edge Condition: Rising Level: 0 V Hyst.: Auto HoldOff: 0 s
#Channel 1: Range: 500 mV/div Offset: 0 V Sample Mode: Average
#Channel 2: Range: 500 mV/div Offset: 0 V Sample Mode: Average

Time (s),Channel 1 (V),Channel 2 (V)
0.09020714285714283,0.007994539395473711,-1.101820474942045
0.09023214285714284,0.007322610521727715,-1.099808317746006
0.09025714285714284,0.00665068164798233,-1.095784003353934
0.09028214285714284,0.006314717211109485,-1.094442565223242
0.09030714285714284,0.00530682390049095,-1.091424329429187
0.09033214285714283,0.004298930589872414,-1.089747531765823
0.09035714285714284,0.003627001716126266,-1.089412172233149
0.09038214285714284,0.002619108405508189,-1.087400015037113
0.09040714285714284,0.001275250658016808,-1.088070734102458
0.09043214285714284,0.0009392862211439635,-1.08706465550444
0.09045714285714283,0.0002673573473982732,-1.08706465550444
0.09048214285714284,-0.0004045715263475697,-1.088406093635131
0.09050714285714284,-0.0007405359632202621,-1.087400015037113
0.09053214285714284,-0.000404571526347417,-1.088741453167804
0.09055714285714284,-6.860708947457189e-05,-1.088070734102458
0.09058214285714283,0.0006033217842711183,-1.088406093635131
0.09060714285714284,0.000939286221144269,-1.08941217223315
0.09063214285714284,0.001611215094889653,-1.088741453167804
0.09065714285714284,0.001611215094889653,-1.090753610363841
0.09068214285714284,0.001947179531762499,-1.090753610363841
0.09070714285714283,0.001611215094889653,-1.091424329429187
0.09073214285714284,0.002283143968635038,-1.093436486625224
0.09075714285714284,0.001611215094889653,-1.093101127092551
0.09078214285714284,0.0009392862211439635,-1.09410720569057
0.09080714285714284,0.0002673573473982732,-1.092765767559878
0.09083214285714283,-0.001076500400093107,-1.091424329429187
0.09085714285714284,-0.001748429273839256,-1.090082891298493
0.09088214285714284,-0.002756322584457333,-1.085387857841076
0.09090714285714284,-0.003092287021330178,-1.081363543449001
0.09093214285714284,-0.004100180331948713,-1.074656352795545
0.09095714285714283,-0.005444038079440093,-1.067613802609415
0.09098214285714284,-0.00645193139005924,-1.060906611955954
0.09100714285714284,-0.007795789137550009,-1.051851904573791
0.09103214285714284,-0.008803682448168544,-1.04346791625697
0.09105714285714284,-0.009475611321914235,-1.033407130276785
0.09108214285714283,-0.00981157575878708,-1.024352422894618
0.09110714285714283,-0.01014754019565977,-1.015633075045128
0.09113214285714284,-0.01048350463253277,-1.005572289064939
0.09115714285714284,-0.009475611321914235,-0.9965175816827718
0.09118214285714284,-0.008803682448168544,-0.9857860766372408
0.09120714285714283,-0.007459824700677164,-0.9760606501897283
0.09123214285714283,-0.005780002516313703,-0.9666705832748929
0.09125714285714284,-0.004100180331948713,-0.9556037186966848
0.09128214285714284,-0.002084393710711643,-0.9452075731838266
0.09130714285714284,-6.860708947457189e-05,-0.933469989540277
0.09133214285714283,0.001947179531762499,-0.9217324058967274
0.09135714285714283,0.002955072842380575,-0.9099948222531832
0.09138214285714284,0.00463489502674526,-0.8965804409462641
0.09140714285714284,0.00597875277423664,-0.8841721382373688
0.09143214285714284,0.00665068164798233,-0.8704223973977823
0.09145714285714283,0.006314717211109485,-0.8573433756235412
0.09148214285714283,0.005306823900491408,-0.8445997133819789
0.09150714285714284,0.003291037279253879,-0.8305146130097137
0.09153214285714284,0.0002673573473982732,-0.8171002317027999
0.09155714285714284,-0.002420358147584488,-0.8003322550691577
0.09158214285714283,-0.003764215895075868,-0.7812167617068055
0.09160714285714283,-0.003092287021330483,-0.7587476730177352
0.09163214285714284,0.0006033217842711183,-0.7302421127405331
0.09165714285714284,0.007994539395473711,-0.6963707999405758
0.09168214285714284,0.01941733024915044,-0.6557922964871616
0.09170714285714283,0.03453572990842847,-0.6108541191090004
0.09173214285714283,0.05234184506268116,-0.5628977059368053
0.09175714285714284,0.07115585352756859,-0.512258416503184
0.09178214285714284,0.08963389755557508,-0.4619544866022573
0.09180714285714284,0.1064321193992173,-0.412991994832022
0.09183214285714283,0.1195347324372583,-0.3690598960518793
0.09185714285714283,0.1282698077959483,-0.3304935497945197
0.09188214285714284,0.1333092743490449,-0.2966222369945449
0.09190714285714284,0.1349890965334092,-0.2684520362500259
0.09193214285714284,0.1336452387859178,-0.2433000712995625
0.09195714285714283,0.130957523290935,-0.2221724207411733
0.09198214285714283,0.1282698077959535,-0.2027215678461572
0.09200714285714284,0.1252461278640967,-0.1842767935491419
0.09203214285714284,0.1232303412428596,-0.1661673787848083
0.09205714285714284,0.1218864834953682,-0.1480579640204747
0.09208214285714283,0.1215505190584953,-0.1302839087888139
0.09210714285714283,0.1215505190584953,-0.1131805726225066
0.09213214285714284,0.1218864834953682,-0.09607723645618373
0.09215714285714284,0.122222447932241,-0.07964461935521434
0.09218214285714284,0.1225584123691139,-0.0628766427215721
0.09220714285714283,0.1232303412428596,-0.04644402562060271
0.09223214285714283,0.1242382345534776,-0.03034676805231349
0.09225714285714284,0.1252461278640967,-0.01357879141866393
0.09228214285714284,0.126589985611588,0.00352454474765115
0.09230714285714284,0.1282698077959523,0.02096324044663907
0.09233214285714283,0.128941736669698,0.038401936145627
0.09235714285714283,0.1296136655434433,0.05516991277926161
0.09238214285714284,0.1296136655434436,0.07227324894558432
0.09240714285714284,0.128941736669698,0.08904122557922656
0.09243214285714284,0.1275978789222066,0.1051384831475231
0.09245714285714283,0.1262540211747152,0.1215711002484925
0.09248214285714283,0.124574198990351,0.1380037173494619
0.09250714285714284,0.1232303412428596,0.1547716939831041
0.09253214285714284,0.1225584123691139,0.1722103896820921
0.09255714285714284,0.1215505190584953,0.1893137258484071
0.09258214285714284,0.1212145546216225,0.2064170620147222
0.09260714285714283,0.1205426257478768,0.2238557577137101
0.09263214285714284,0.1198706968741311,0.2406237343473523
0.09265714285714284,0.1191987680003854,0.2573917109809946
0.09268214285714284,0.1188628035635126,0.2734889685492912
0.09270714285714284,0.117854910252894,0.2899215856502605
0.09273214285714283,0.1175189458160212,0.3063542027512299
0.09275714285714284,0.1171829813791484,0.3227868198521993
0.09278214285714284,0.1171829813791484,0.3395547964858416
0.09280714285714284,0.1171829813791484,0.355987413586811
0.09283214285714284,0.1168470169422755,0.3727553902204532
0.09285714285714283,0.1171829813791484,0.3895233668540954
0.09288214285714284,0.1165110525054024,0.4052852648897267
0.09290714285714284,0.115839123631657,0.4220532415233614
0.09293214285714284,0.1144952658841656,0.437815139558985
0.09295714285714284,0.1134873725735471,0.4539123971272816
0.09298214285714283,0.1124794792629285,0.470345014228251
0.09300714285714284,0.1114715859523098,0.4861069122638826
0.09303214285714284,0.1111356215154372,0.5035456079628626
0.09305714285714284,0.1104636926416915,0.519978225063832
0.09308214285714284,0.1097917637679458,0.5367462016974742
0.09310714285714283,0.1094557993310729,0.5535141783311165
0.09313214285714284,0.1087838704573271,0.568940716834075
0.09315714285714284,0.1084479060204544,0.5857086934677095
0.09318214285714284,0.1077759771467087,0.6004645129053147
0.09320714285714284,0.107104048272963,0.6152203323429198
0.09323214285714283,0.107104048272963,0.6303115113131978
0.09325714285714284,0.1067680838360903,0.6443966116854644
0.09328214285714284,0.107104048272963,0.6598231501884082
0.09330714285714284,0.1074400127098359,0.6739082505606677
0.09333214285714284,0.1084479060204544,0.6883287104656001
0.09335714285714283,0.1087838704573272,0.7030845299032051
0.09338214285714284,0.1091198348942002,0.7164989112101257
0.09340714285714284,0.1094557993310729,0.7312547306477242
0.09343214285714284,0.1091198348942001,0.7446691119546379
0.09345714285714284,0.1087838704573272,0.7587542123268974
0.09348214285714283,0.1091198348942001,0.7738453912971754
0.09350714285714284,0.1087838704573274,0.787595132136769
0.09353214285714284,0.1091198348942001,0.8030216706397129
0.09355714285714284,0.1087838704573272,0.8167714114792995
0.09358214285714284,0.1084479060204544,0.8305211523188861
0.09360714285714283,0.1067680838360902,0.8442708931584728
0.09363214285714284,0.1054242260885974,0.8556731172693552
0.09365714285714284,0.1024005461567432,0.8680814199782448
0.09368214285714284,0.09870493735114189,0.8778068464257572
0.09370714285714284,0.09568125741928629,0.8878676324059426
0.09373214285714283,0.09232161305055783,0.8985991374514737
0.09375714285714284,0.0892979331187016,0.9086599234316648
0.09378214285714284,0.08795407537121083,0.9214035856732271
0.09380714285714284,0.08694618206059232,0.9331411693167767
0.09383214285714284,0.08761811093433799,0.9465555506236905
0.09385714285714283,0.08862600424495654,0.9609760105286228
0.09388214285714284,0.08929793311870252,0.9733843132375243
0.09390714285714284,0.08996986199244791,0.9871340540771046
0.09393214285714284,0.08963389755557508,0.9975301995899628
0.09395714285714284,0.08761811093433799,1.006920266504803
0.09398214285714283,0.08493039543935524,1.015974973886969
0.09400714285714284,0.08157075107062479,1.022011445475084
0.09403214285714284,0.07720321339127981,1.028718636128537
0.09405714285714284,0.07283567571193281,1.034084388651303
0.09408214285714284,0.06914006690633151,1.040120860239414
0.09410714285714283,0.06611638697447592,1.04783412949089
0.09413214285714284,0.06376463591636539,1.054541320144351
0.09415714285714284,0.06242077816887462,1.064266746591859
0.09418214285714284,0.06174884929512892,1.072986094441353
0.09420714285714284,0.06107692042138323,1.082711520888866
0.09423214285714283,0.06074095598451039,1.093778385467069
0.09425714285714283,0.0604049915476377,1.102833092849232
0.09428214285714284,0.0600690271107647,1.113564597894767
0.09430714285714284,0.05906113380014617,1.121948586211588
0.09433214285714284,0.05838920492640048,1.131003293593755
0.09435714285714283,0.05738131161578194,1.140393360508595
0.09438214285714283,0.05603745386829117,1.147100551162049
0.09440714285714284,0.05502956055767202,1.155484539478873
0.09443214285714284,0.0533497383733078,1.161185651534311
0.09445714285714284,0.05166991618894357,1.167222123122422
0.09448214285714283,0.04965412956770651,1.173258594710534
0.09450714285714283,0.04730237850959765,1.176276830504588
0.09453214285714284,0.04528659188835952,1.1823133020927
0.09455714285714284,0.04327080526712244,1.185331537886756
0.09458214285714284,0.04159098308275822,1.18935585227883
0.09460714285714283,0.04058308977213968,1.194386245268923
0.09463214285714283,0.0399111608983943,1.197404481062977
0.09465714285714284,0.04024712533526684,1.203776312183762
0.09468214285714284,0.04024712533526684,1.207465267043164
0.09470714285714284,0.04091905420901253,1.212495660033256
0.09473214285714283,0.04159098308275822,1.217861412556022
0.09475714285714283,0.04159098308275822,1.220208929284731
0.09478214285714284,0.04192694751963107,1.224903962742152
0.09480714285714284,0.04159098308275822,1.226580760405516
0.09483214285714284,0.04091905420901253,1.228592917601553
0.09485714285714283,0.04159098308275822,1.231275793862936
0.09488214285714283,0.04091905420901284,1.231611153395608
0.09490714285714284,0.04125501864588538,1.234964748722337
0.09493214285714284,0.04125501864588538,1.235635467787683
0.09495714285714284,0.04159098308275822,1.237312265451047
0.09498214285714283,0.04226291195650391,1.239659782179757
0.09500714285714283,0.0425988763933766,1.23999514171243
0.09503214285714284,0.0429348408302496,1.242007298908467
0.09505714285714284,0.04327080526712244,1.241671939375794
0.09508214285714284,0.0429348408302496,1.241671939375794
0.09510714285714283,0.0429348408302496,1.242678017973812
0.09513214285714283,0.0429348408302496,1.241001220310449
0.09515714285714284,0.04327080526712244,1.242007298908467
0.09518214285714284,0.04427869857774098,1.241336579843121
0.09520714285714284,0.04495062745148667,1.241001220310448
0.09523214285714283,0.04562255632523236,1.241336579843121
0.09525714285714283,0.04663044963585044,1.239659782179757
0.09528214285714284,0.04696641407272374,1.238989063114411
0.09530714285714284,0.04696641407272374,1.235635467787683
0.09533214285714284,0.0466304496358509,1.232617231993627
0.09535714285714283,0.04562255632523236,1.230269715264917
0.09538214285714283,0.04360676970399621,1.225239322274827
0.09540714285714284,0.04259887639337676,1.222221086480769
0.09543214285714284,0.04192694751963107,1.217190693490676
0.09545714285714284,0.04159098308275822,1.213501738631275
0.09548214285714283,0.04125501864588538,1.210818862369892
0.09550714285714283,0.04058308977213999,1.205453109847129
0.09553214285714284,0.04024712533526684,1.202434874053071
0.09555714285714284,0.0392392320246483,1.196733761997633
0.09558214285714284,0.03722344540341124,1.190697290409521
0.09560714285714284,0.03487169434530132,1.184996178354083
0.09563214285714283,0.03151204997657286,1.175941470971916
0.09565714285714284,0.02781644117097157,1.168228201720441
0.09568214285714284,0.02378486792849743,1.158502775272928
0.09570714285714284,0.02008925912289613,1.149448067890762
0.09573214285714284,0.01672961475416768,1.141734798639286
0.09575714285714283,0.01404189925918492,1.132344731724447
0.09578214285714284,0.0123620770748207,1.126308260136335
0.09580714285714284,0.01135418376420216,1.118930350417533
0.09583214285714284,0.01101821932732932,1.112558519296749
0.09585714285714284,0.01135418376420216,1.107528126306656
0.09588214285714283,0.01135418376420216,1.100485576120526
0.09590714285714284,0.01101821932732916,1.094784464065084
0.09593214285714284,0.01068225489045647,1.086400475748267
0.09595714285714284,0.009338397142965091,1.077681127898773
0.09598214285714284,0.00665068164798233,1.068626420516606
0.09600714285714283,0.00396296615299957,1.056218117807711
0.09603214285714284,0.0006033217842697433,1.045486612762174
0.09605714285714284,-0.002420358147584488,1.031736871922593
0.09608214285714284,-0.005444038079440093,1.019328569213698
0.09610714285714284,-0.007795789137550009,1.007926345102821
0.09613214285714283,-0.009475611321914235,0.9948473233285801
0.09615714285714284,-0.01081946906940577,0.9841158182830434
0.09618214285714284,-0.01115543350627846,0.9717075155741538
0.09620714285714284,-0.01115543350627846,0.96064065099595
0.09623214285714284,-0.01081946906940561,0.9502445054830917
0.09625714285714283,-0.01048350463253277,0.9378362027741964
0.09628214285714284,-0.01048350463253292,0.9264339786633137
0.09630714285714284,-0.01081946906940561,0.913019597356406
0.09633214285714284,-0.01115543350627846,0.899940575582165
0.09635714285714284,-0.01216332681689699,0.8868615538079241
0.09638214285714283,-0.01317122012751553,0.8714350153049732
0.09640714285714284,-0.01451507787500767,0.8573499149327063
0.09643214285714284,-0.01619490005937114,0.8409172978317444
0.09645714285714284,-0.01787472224373536,0.8248200402634478
0.09648214285714284,-0.01955454442809959,0.8087227826951513
0.09650714285714283,-0.0219062954862095,0.7909487274634905
0.09653214285714284,-0.02425804654432018,0.7741807508298398
0.09655714285714284,-0.02593786872868364,0.7557359765328419
0.09658214285714284,-0.02795365534992071,0.7382972808338539
0.09660714285714284,-0.02896154866053925,0.7211939446675388
0.09663214285714283,-0.02963347753428494,0.7030845299032051
0.09665714285714284,-0.02963347753428494,0.6869872723349009
0.09668214285714284,-0.02963347753428494,0.6698839361685935
0.09670714285714284,-0.0286255842236664,0.6534513190676242
0.09673214285714284,-0.02828961978679356,0.6376894210320004
0.09675714285714283,-0.02761769091304787,0.6202507253330125
0.09678214285714284,-0.02761769091304833,0.6028120296340159
0.09680714285714284,-0.0286255842236664,0.5836965362716725
0.09683214285714284,-0.03097733528177632,0.5635749643113018
0.09685714285714284,-0.03433697965050477,0.5421119542202397
0.09688214285714283,-0.0390404817667246,0.5186367869331406
0.09690714285714284,-0.04407994831981972,0.4944909005806844
0.09693214285714284,-0.0494553793097828,0.4693389356302325
0.09695714285714284,-0.05415888142600263,0.444522330212442
0.09698214285714284,-0.05852641910534962,0.4210471629253428
0.09700714285714283,-0.06121413460033238,0.3979073551709166
0.09703214285714284,-0.06222202791095076,0.3771150641451909
0.09705714285714284,-0.06188606347407807,0.3566581326521566
0.09708214285714284,-0.059870276852841,0.338548717887823
0.09710714285714284,-0.05751852579473108,0.3211100221888351
0.09713214285714283,-0.05449484586287548,0.3030006074245015
0.09715714285714284,-0.05247905924163795,0.2838851140621397
0.09718214285714284,-0.05147116593101987,0.2627574635037601
0.09720714285714284,-0.05214309480476556,0.2399530152820067
0.09723214285714284,-0.05449484586287548,0.215471769396889
0.09725714285714283,-0.05819045466847678,0.1886430067830615
0.09728214285714284,-0.0625579923478259,0.1608081655712023
0.09730714285714284,-0.06726149446404359,0.1323026052940235
0.09733214285714284,-0.07162903214339059,0.1048031236148503
0.09735714285714284,-0.07532464094899188,0.07797436100102267
0.09738214285714283,-0.07734042757022894,0.05282239605055932
0.09740714285714283,-0.07801235644397433,0.02901186923079818
0.09743214285714284,-0.07834832088084748,0.006207421009033908
0.09745714285714284,-0.0776763920071018,-0.01525558908202815
0.09748214285714284,-0.0770044631333561,-0.03638323964041737
0.09750714285714283,-0.07599656982273756,-0.05717553066613374
0.09753214285714283,-0.07566060538586487,-0.07863854075718604
0.09755714285714284,-0.07532464094899188,-0.1001015508482579
0.09758214285714284,-0.07532464094899188,-0.1215645609393199
0.09760714285714284,-0.07599656982273756,-0.1433629305630548
0.09763214285714283,-0.07734042757022894,-0.1661673787848083
0.09765714285714283,-0.0793562141914651,-0.1899779056045695
0.09768214285714284,-0.08170796524957594,-0.2134530728916794
0.09770714285714284,-0.08473164518143153,-0.237934318776797
0.09773214285714284,-0.08876321842390567,-0.2637570027926061
0.09775714285714283,-0.09279479166637983,-0.2895796868084151
0.09778214285714283,-0.0974982937825975,-0.3170791684875759
0.09780714285714284,-0.1015298670250738,-0.3429018525033974
0.09783214285714284,-0.1052254758306751,-0.3687245365192064
0.09785714285714284,-0.1079131913256579,-0.3932057824043241
0.09788214285714283,-0.1089210846362764,-0.4160102306260776
0.09790714285714283,-0.1089210846362764,-0.4381439597824753
0.09793214285714284,-0.1069052980150393,-0.458265531742856
0.09795714285714284,-0.1045535469569294,-0.4770456655725353
0.09798214285714284,-0.1018658314619466,-0.4964965184675603
0.09800714285714283,-0.09917811596696388,-0.514605933231894
0.09803214285714283,-0.0974982937826004,-0.5353982242576009
0.09805714285714284,-0.09682636490885396,-0.5561905152833267
0.09808214285714284,-0.0978342582194725,-0.5789949635050802
0.09810714285714284,-0.09985004484070956,-0.603140849857525
0.09813214285714283,-0.103209689209438,-0.6272867362099698
0.09815714285714283,-0.1072412624519103,-0.6534447797584398
0.09818214285714284,-0.1112728356943863,-0.6782613851762422
0.09820714285714284,-0.1149684444999876,-0.702407271528687
0.09823214285714284,-0.1179921244318432,-0.7258824388157862
0.09825714285714283,-0.1193359821793346,-0.7466747298415025
0.09828214285714283,-0.1193359821793346,-0.7671316613345367
0.09830714285714284,-0.118328088868716,-0.7845703570335339
0.09833214285714284,-0.116312302247479,-0.8013383336671762
0.09835714285714284,-0.1136245867524962,-0.8181063103008185
0.09838214285714283,-0.1102649423837678,-0.8328621297384237
0.09840714285714283,-0.1082491557625316,-0.8513069040354216
0.09843214285714284,-0.1069052980150393,-0.8690809592670908
