measurement/delay_1/fast.csv

#Digilent WaveForms Oscilloscope Acquisition
#Device Name: DiscoveryStudio
#Serial Number: SN:210384B18F1D
#Date Time: 2026-07-09 18:24:37.217
#Sample rate: 40000Hz
#Samples: 8192
#Trigger: Source: Channel 1 Type: Edge Condition: Rising Level: 0 V Hyst.: Auto HoldOff: 0 s
#Channel 1: Range: 200 mV/div Offset: 0 V Sample Mode: Average
#Channel 2: Range: 200 mV/div Offset: 0 V Sample Mode: Average

Time (s),Channel 1 (V),Channel 2 (V)
-0.0839107142857143,-0.002084393710711643,0.001847747084286927
-0.08388571428571429,-0.00208439371071149,0.001512387551614082
-0.08386071428571429,-0.001748429273838797,0.001512387551614082
-0.08383571428571429,-0.002084393710711643,0.001847747084286927
-0.08381071428571429,-0.002420358147584488,0.001512387551614082
-0.0837857142857143,-0.002084393710711643,0.001847747084286927
-0.08376071428571429,-0.002084393710711643,0.001512387551614387
-0.08373571428571429,-0.002084393710711643,0.002183106616959771
-0.08371071428571429,-0.002084393710711643,0.001847747084286927
-0.08368571428571429,-0.002084393710711643,0.001512387551614082
-0.0836607142857143,-0.002084393710711643,0.002183106616959771
-0.08363571428571429,-0.002420358147584488,0.001512387551614234
-0.08361071428571429,-0.002420358147584488,0.001847747084286927
-0.08358571428571429,-0.002084393710711643,0.001512387551614082
-0.08356071428571429,-0.002084393710711643,0.001512387551614082
-0.0835357142857143,-0.002084393710711643,0.001177028018941237
-0.08351071428571429,-0.002084393710711643,0.001512387551614234
-0.08348571428571429,-0.002084393710711643,0.001847747084286927
-0.08346071428571429,-0.002084393710711643,0.001512387551614082
-0.08343571428571429,-0.002084393710711643,0.001847747084286927
-0.0834107142857143,-0.002084393710711643,0.001847747084286927
-0.08338571428571429,-0.002420358147584335,0.001847747084286927
-0.08336071428571429,-0.002084393710711643,0.001847747084286927
-0.08333571428571429,-0.002420358147584488,0.001847747084286927
-0.08331071428571429,-0.002420358147584488,0.002183106616959771
-0.0832857142857143,-0.002420358147584488,0.001512387551614082
-0.08326071428571429,-0.002084393710711643,0.001847747084286774
-0.08323571428571429,-0.002084393710711643,0.001512387551614082
-0.08321071428571429,-0.002084393710711643,0.002183106616959771
-0.08318571428571429,-0.002084393710711643,0.001847747084286927
-0.0831607142857143,-0.002084393710711643,0.001512387551614082
-0.08313571428571429,-0.002084393710711643,0.001847747084286622
-0.08311071428571429,-0.002084393710711643,0.001177028018941237
-0.08308571428571429,-0.002084393710711643,0.001847747084286927
-0.08306071428571429,-0.002084393710711643,0.001177028018941237
-0.0830357142857143,-0.002084393710711643,0.001512387551614082
-0.0830107142857143,-0.002084393710711643,0.001512387551614082
-0.08298571428571429,-0.002084393710711643,0.001512387551614082
-0.08296071428571429,-0.002084393710711643,0.001847747084286927
-0.08293571428571429,-0.002084393710711643,0.001177028018941237
-0.0829107142857143,-0.002084393710711643,0.001177028018941237
-0.0828857142857143,-0.002084393710711643,-0.000835129177094916
-0.08286071428571429,-0.002084393710711643,-0.001170488709768676
-0.08283571428571429,-0.002084393710711643,-0.001170488709768676
-0.08281071428571429,-0.002084393710711643,-0.001170488709768676
-0.0827857142857143,-0.002084393710711643,-0.000835129177095831
-0.0827607142857143,-0.002420358147584335,-0.001170488709768523
-0.08273571428571429,-0.002420358147584488,-0.000835129177095831
-0.08271071428571429,-0.002084393710711643,-0.001170488709768676
-0.08268571428571429,-0.002420358147584488,0.0005063089535955478
-0.0826607142857143,-0.002420358147584488,0.0008416684862683925
-0.0826357142857143,-0.002084393710711795,0.001177028018941085
-0.08261071428571429,-0.002084393710711643,0.001512387551614082
-0.08258571428571429,-0.002084393710711643,0.001177028018941237
-0.08256071428571429,-0.002084393710711643,0.001177028018941237
-0.0825357142857143,-0.002084393710711643,0.0008416684862683925
-0.0825107142857143,-0.002084393710711643,0.001512387551613777
-0.08248571428571429,-0.002084393710711643,0.001512387551614082
-0.08246071428571429,-0.002084393710711643,0.001512387551614082
-0.08243571428571429,-0.002084393710711643,0.001512387551614082
-0.0824107142857143,-0.002084393710711643,0.000170949420922703
-0.0823857142857143,-0.002084393710711643,-0.0001644101117499892
-0.08236071428571429,-0.002084393710711643,-0.000835129177095831
-0.08233571428571429,-0.002420358147584488,-0.0004997696444229864
-0.08231071428571429,-0.002084393710711643,-0.001170488709768676
-0.0822857142857143,-0.002420358147584488,-0.000835129177095831
-0.0822607142857143,-0.002084393710711795,-0.0004997696444231389
-0.08223571428571429,-0.002420358147584488,-0.000835129177095831
-0.08221071428571429,-0.002420358147584488,0.0008416684862683925
-0.08218571428571429,-0.002084393710711643,0.001847747084286927
-0.0821607142857143,-0.002420358147584488,0.00352454474765115
-0.0821357142857143,-0.002084393710711795,0.003189185214978458
-0.08211071428571429,-0.002084393710711643,0.003859904280323995
-0.08208571428571429,-0.002084393710711643,0.004195263812996839
-0.08206071428571429,-0.002420358147584488,0.004530623345669684
-0.0820357142857143,-0.002420358147584488,0.005201342411015374
-0.0820107142857143,-0.002084393710711795,0.004195263812997297
-0.08198571428571429,-0.002420358147584488,0.002518466149632616
-0.08196071428571429,-0.002420358147584488,0.001177028018941237
-0.08193571428571429,-0.002420358147584488,0.0008416684862683925
-0.0819107142857143,-0.002420358147584488,0.000170949420922703
-0.0818857142857143,-0.002084393710711795,0.000170949420922703
-0.08186071428571429,-0.002420358147584488,0.000170949420922703
-0.08183571428571429,-0.002420358147584488,-0.0001644101117501417
-0.08181071428571429,-0.002420358147584488,-0.0004997696444229864
-0.08178571428571429,-0.002420358147584488,-0.000835129177095831
-0.0817607142857143,-0.002420358147584488,-0.000835129177095831
-0.08173571428571429,-0.002420358147584488,-0.001170488709768676
-0.08171071428571429,-0.002084393710711643,-0.001170488709768676
-0.08168571428571429,-0.002084393710711643,-0.000835129177095831
-0.08166071428571429,-0.002420358147584488,-0.001170488709768676
-0.0816357142857143,-0.002084393710711643,-0.0004997696444229864
-0.08161071428571429,-0.002084393710711643,-0.0004997696444229864
-0.08158571428571429,-0.002084393710711643,-0.0001644101117501417
-0.08156071428571429,-0.002084393710711643,-0.0004997696444229864
-0.08153571428571429,-0.002084393710711643,-0.0001644101117501417
-0.0815107142857143,-0.002084393710711643,0.0008416684862683925
-0.08148571428571429,-0.002084393710711643,0.001177028018941237
-0.08146071428571429,-0.002420358147584488,0.001512387551614082
-0.08143571428571429,-0.002084393710711643,0.001512387551614082
-0.08141071428571429,-0.002084393710711643,0.002183106616959771
-0.0813857142857143,-0.002084393710711643,0.002183106616959771
-0.08136071428571429,-0.002084393710711643,0.001847747084286927
-0.08133571428571429,-0.002084393710711643,0.002183106616959771
-0.08131071428571429,-0.002084393710711643,0.001847747084286927
-0.08128571428571429,-0.002084393710711643,0.002183106616959771
-0.0812607142857143,-0.002084393710711643,0.001847747084286927
-0.08123571428571429,-0.00174842927383895,0.001847747084286927
-0.08121071428571429,-0.002084393710711643,0.001847747084286927
-0.08118571428571429,-0.002084393710711643,0.001512387551614082
-0.08116071428571429,-0.002084393710711643,0.001847747084286927
-0.0811357142857143,-0.002084393710711643,0.001847747084286927
-0.08111071428571429,-0.002084393710711643,0.001847747084286927
-0.08108571428571429,-0.002084393710711643,0.001847747084286927
-0.08106071428571429,-0.001748429273838797,0.001847747084286927
-0.08103571428571429,-0.002084393710711643,0.001847747084286927
-0.0810107142857143,-0.001748429273838797,0.001847747084286927
-0.08098571428571429,-0.002084393710711643,0.002183106616959619
-0.08096071428571429,-0.002084393710711643,0.001847747084286927
-0.08093571428571429,-0.002084393710711643,0.001847747084286927
-0.08091071428571429,-0.001748429273838797,0.001512387551614082
-0.0808857142857143,-0.002084393710711643,0.0008416684862683925
-0.08086071428571429,-0.002420358147584182,0.0008416684862683925
-0.08083571428571429,-0.001748429273838797,0.0008416684862683925
-0.08081071428571429,-0.002084393710711643,0.001512387551614082
-0.08078571428571429,-0.002084393710711643,0.001512387551614082
-0.0807607142857143,-0.002084393710711643,0.001847747084286927
-0.08073571428571429,-0.002084393710711643,0.001512387551614082
-0.08071071428571429,-0.002084393710711643,0.001512387551614082
-0.08068571428571429,-0.001748429273838797,0.001847747084286927
-0.08066071428571429,-0.002420358147584488,0.001512387551614082
-0.0806357142857143,-0.002084393710711643,0.001512387551614082
-0.08061071428571429,-0.002084393710711643,0.00117702801894139
-0.08058571428571429,-0.002084393710711643,0.001512387551614082
-0.08056071428571429,-0.001748429273838797,0.001512387551614082
-0.08053571428571429,-0.002084393710711643,0.001512387551614082
-0.0805107142857143,-0.002084393710711643,0.002183106616959771
-0.08048571428571429,-0.00174842927383895,0.002183106616959924
-0.08046071428571429,-0.002084393710711643,0.002518466149632616
-0.08043571428571429,-0.002084393710711643,0.002183106616959771
-0.08041071428571429,-0.002084393710711643,0.002853825682305461
-0.0803857142857143,-0.002084393710711643,0.002518466149632616
-0.08036071428571429,-0.002420358147584335,0.002518466149632769
-0.08033571428571429,-0.002084393710711643,0.002853825682305461
-0.08031071428571429,-0.002084393710711643,0.002183106616959771
-0.08028571428571429,-0.002084393710711643,0.003189185214978305
-0.0802607142857143,-0.002084393710711643,0.002518466149632616
-0.08023571428571429,-0.00208439371071149,0.002853825682305461
-0.08021071428571429,-0.001748429273838797,0.002853825682305461
-0.08018571428571429,-0.002084393710711643,0.002853825682305461
-0.08016071428571429,-0.002084393710711643,0.003189185214978305
-0.0801357142857143,-0.002084393710711643,0.002853825682305461
-0.08011071428571429,-0.002084393710711643,0.002853825682305461
-0.08008571428571429,-0.002084393710711643,0.002853825682305461
-0.08006071428571429,-0.002084393710711643,0.002853825682305461
-0.08003571428571429,-0.002084393710711643,0.002518466149632616
-0.0800107142857143,-0.002084393710711643,0.002518466149632616
-0.07998571428571428,-0.001748429273838797,0.002853825682305156
-0.07996071428571429,-0.001748429273838797,0.002183106616959771
-0.07993571428571429,-0.001748429273838797,0.002183106616959771
-0.07991071428571429,-0.001748429273838797,0.001847747084286927
-0.0798857142857143,-0.001412464836965952,0.002183106616959771
-0.0798607142857143,-0.001748429273838645,0.001847747084287079
-0.07983571428571429,-0.001412464836965952,0.002183106616959771
-0.07981071428571429,-0.001748429273838797,0.001847747084286927
-0.07978571428571429,-0.001748429273838797,0.001847747084286927
-0.0797607142857143,-0.002084393710711643,0.001847747084286927
-0.0797357142857143,-0.002084393710711643,0.002183106616959619
-0.07971071428571429,-0.001748429273838797,0.002183106616959771
-0.07968571428571429,-0.002084393710711643,0.001847747084286927
-0.07966071428571429,-0.002084393710711643,0.001847747084286927
-0.0796357142857143,-0.002084393710711643,0.002183106616959771
-0.0796107142857143,-0.002084393710711643,0.001847747084287079
-0.07958571428571429,-0.002084393710711643,0.002183106616959771
-0.07956071428571429,-0.001748429273838797,0.0008416684862683925
-0.07953571428571429,-0.002084393710711643,0.001512387551614082
-0.0795107142857143,-0.002084393710711643,0.001847747084286927
-0.0794857142857143,-0.002084393710711643,0.001847747084286927
-0.07946071428571429,-0.002420358147584488,0.001847747084286927
-0.07943571428571429,-0.001748429273838797,0.001177028018941237
-0.07941071428571429,-0.002084393710711643,0.001847747084286927
-0.0793857142857143,-0.002084393710711643,0.001847747084286927
-0.0793607142857143,-0.002084393710711643,0.002183106616959619
-0.07933571428571429,-0.002084393710711643,0.001847747084286927
-0.07931071428571429,-0.002084393710711643,0.001847747084286927
-0.07928571428571429,-0.002084393710711643,0.002183106616959771
-0.0792607142857143,-0.002084393710711643,0.002183106616959771
-0.0792357142857143,-0.002084393710711643,0.002183106616959771
-0.07921071428571429,-0.002084393710711643,0.002183106616959771
-0.07918571428571429,-0.002084393710711643,0.002183106616959771
-0.07916071428571429,-0.002084393710711643,0.002183106616959771
-0.0791357142857143,-0.002084393710711643,0.002518466149632616
-0.0791107142857143,-0.00174842927383895,0.003524544747650693
-0.07908571428571429,-0.002084393710711643,0.003859904280323995
-0.07906071428571429,-0.002084393710711643,0.003859904280323995
-0.07903571428571429,-0.002084393710711643,0.002853825682305461
-0.0790107142857143,-0.002084393710711643,0.002518466149632616
-0.0789857142857143,-0.002084393710711643,0.002853825682305308
-0.07896071428571429,-0.002084393710711643,0.002183106616959771
-0.07893571428571429,-0.002084393710711643,0.002853825682305461
-0.07891071428571429,-0.002084393710711643,0.002518466149632616
-0.0788857142857143,-0.002084393710711643,0.002518466149632616
-0.0788607142857143,-0.002084393710711643,0.002518466149632616
-0.07883571428571429,-0.002084393710711643,0.002518466149632616
-0.07881071428571429,-0.002084393710711643,0.002853825682305461
-0.07878571428571429,-0.002084393710711643,0.002183106616959771
-0.0787607142857143,-0.002084393710711643,0.002518466149632616
-0.0787357142857143,-0.002084393710711643,0.002183106616959924
-0.07871071428571429,-0.002084393710711643,0.002518466149632616
-0.07868571428571429,-0.002084393710711643,0.002518466149632616
-0.07866071428571429,-0.002084393710711643,0.002183106616959771
-0.07863571428571429,-0.002084393710711643,0.002183106616959771
-0.0786107142857143,-0.002084393710711643,0.002183106616959771
-0.07858571428571429,-0.002084393710711643,0.002518466149632616
-0.07856071428571429,-0.001748429273838797,0.001847747084286927
-0.07853571428571429,-0.002084393710711643,0.002183106616959771
-0.07851071428571429,-0.002084393710711643,0.002518466149632616
-0.0784857142857143,-0.002084393710711643,0.002518466149632616
-0.07846071428571429,-0.002084393710711643,0.002518466149632616
-0.07843571428571429,-0.002084393710711643,0.002518466149632616
-0.07841071428571429,-0.002084393710711643,0.002518466149632616
-0.07838571428571429,-0.002084393710711643,0.002518466149632616
-0.0783607142857143,-0.002084393710711643,0.002518466149632616
-0.07833571428571429,-0.002084393710711643,0.002518466149632616
-0.07831071428571429,-0.002084393710711643,0.002518466149632616
-0.07828571428571429,-0.002084393710711643,0.002518466149632616
-0.07826071428571429,-0.002084393710711643,0.002183106616959771
-0.0782357142857143,-0.001748429273838797,0.002518466149632616
-0.07821071428571429,-0.002084393710711643,0.002518466149632616
-0.07818571428571429,-0.002084393710711643,0.002518466149632616
-0.07816071428571429,-0.001748429273838797,0.002518466149632616
-0.07813571428571429,-0.002084393710711643,0.002518466149632616
-0.0781107142857143,-0.001748429273838797,0.002518466149632616
-0.07808571428571429,-0.002084393710711643,0.002518466149632616
-0.07806071428571429,-0.002084393710711643,0.002518466149632616
-0.07803571428571429,-0.002084393710711643,0.002518466149632616
-0.07801071428571429,-0.002084393710711643,0.002518466149632616
-0.0779857142857143,-0.002084393710711643,0.001847747084286927
-0.07796071428571429,-0.002084393710711795,0.00117702801894139
-0.07793571428571429,-0.002420358147584488,0.001512387551614082
-0.07791071428571429,-0.002084393710711643,0.001512387551614082
-0.07788571428571429,-0.002084393710711643,0.002183106616959771
-0.0778607142857143,-0.002084393710711643,0.002518466149632616
-0.07783571428571429,-0.002084393710711643,0.002183106616959771
-0.07781071428571429,-0.002084393710711643,0.002183106616959771
-0.07778571428571429,-0.002084393710711643,0.002183106616959771
-0.07776071428571429,-0.002084393710711643,0.002518466149632616
-0.0777357142857143,-0.002084393710711643,0.001847747084286927
-0.07771071428571429,-0.002084393710711643,0.0005063089535953953
-0.07768571428571429,-0.002084393710711643,0.000170949420922703
-0.07766071428571429,-0.002084393710711643,0.0005063089535955478
-0.07763571428571429,-0.001748429273838797,0.000170949420922703
-0.0776107142857143,-0.002084393710711643,0.0008416684862683925
-0.07758571428571429,-0.002084393710711643,0.0008416684862680875
-0.07756071428571429,-0.002084393710711643,0.000170949420922703
-0.07753571428571429,-0.002084393710711643,0.0005063089535955478
-0.07751071428571429,-0.001748429273838797,0.002518466149632616
-0.0774857142857143,-0.002084393710711643,0.002853825682305461
-0.07746071428571429,-0.002420358147584488,0.002518466149632616
-0.07743571428571429,-0.002420358147584488,0.002518466149632616
-0.07741071428571429,-0.002084393710711643,0.002853825682305461
-0.07738571428571429,-0.002420358147584488,0.002518466149632616
-0.0773607142857143,-0.002084393710711643,0.002183106616959771
-0.07733571428571429,-0.002420358147584335,0.002183106616959771
-0.07731071428571429,-0.002084393710711643,0.002183106616959771
-0.07728571428571429,-0.002084393710711643,0.002183106616959771
-0.07726071428571429,-0.002084393710711643,0.002183106616959771
-0.0772357142857143,-0.002084393710711643,0.001177028018941237
-0.07721071428571429,-0.002084393710711643,0.0008416684862680875
-0.07718571428571429,-0.002084393710711643,0.000170949420922703
-0.07716071428571429,-0.002420358147584488,0.0005063089535955478
-0.07713571428571429,-0.002420358147584488,0.0005063089535955478
-0.0771107142857143,-0.002420358147584488,0.0005063089535955478
-0.07708571428571429,-0.002084393710711643,0.0005063089535955478
-0.07706071428571429,-0.002084393710711643,0.0005063089535955478
-0.07703571428571429,-0.002084393710711643,0.001512387551614082
-0.07701071428571429,-0.002420358147584488,0.001177028018941237
-0.0769857142857143,-0.002084393710711643,0.001512387551614082
-0.07696071428571429,-0.002084393710711643,0.002183106616959771
-0.07693571428571429,-0.002084393710711643,0.002183106616959771
-0.07691071428571429,-0.002084393710711643,0.002518466149632616
-0.07688571428571429,-0.002084393710711643,0.002183106616959771
-0.0768607142857143,-0.002084393710711643,0.002183106616959771
-0.07683571428571428,-0.002420358147584488,0.002518466149632464
-0.07681071428571429,-0.002420358147584488,0.002183106616959771
-0.07678571428571429,-0.002420358147584488,0.002518466149632616
-0.07676071428571429,-0.002084393710711643,0.002518466149632616
-0.0767357142857143,-0.001748429273838797,0.002853825682305461
-0.0767107142857143,-0.00208439371071149,0.002518466149632769
-0.07668571428571429,-0.002084393710711643,0.002518466149632616
-0.07666071428571429,-0.002084393710711643,0.002518466149632616
-0.07663571428571429,-0.002084393710711643,0.002853825682305461
-0.0766107142857143,-0.002084393710711643,0.002853825682305461
-0.0765857142857143,-0.00174842927383895,0.002518466149632769
-0.07656071428571429,-0.002084393710711643,0.001847747084286927
-0.07653571428571429,-0.002084393710711643,0.001847747084286927
-0.07651071428571429,-0.001748429273838797,0.002518466149632616
-0.0764857142857143,-0.002084393710711643,0.002518466149632616
-0.0764607142857143,-0.00174842927383895,0.002518466149632616
-0.07643571428571429,-0.002084393710711643,0.002183106616959771
-0.07641071428571429,-0.002084393710711643,0.002183106616959771
-0.07638571428571429,-0.002084393710711643,0.002183106616959771
-0.0763607142857143,-0.002084393710711643,0.002183106616959771
-0.0763357142857143,-0.002084393710711643,0.002183106616959771
-0.07631071428571429,-0.002084393710711643,0.002183106616959771
-0.07628571428571429,-0.002084393710711643,0.002183106616959771
