measurement/exam_3/stereo_lr_hi.csv

#Digilent WaveForms Oscilloscope Acquisition
#Device Name: DiscoveryStudio
#Serial Number: SN:210384B18F1D
#Date Time: 2026-07-09 21:19:59.572
#Sample rate: 40000Hz
#Samples: 8192
#Trigger: Source: Channel 1 Type: Edge Condition: Rising Level: 0 V Hyst.: Auto HoldOff: 0 s
#Channel 1: Range: 500 mV/div Offset: 0 V Sample Mode: Average
#Channel 2: Range: 500 mV/div Offset: 0 V Sample Mode: Average

Time (s),Channel 1 (V),Channel 2 (V)
-0.06544270833333335,0.2791178399518734,-0.2406171950381655
-0.06541770833333332,0.2639994402925748,-0.2563790930738105
-0.06539270833333333,0.2488810406333037,-0.2718056315767544
-0.06536770833333333,0.2340986054108985,-0.2872321700797052
-0.06534270833333333,0.2183082768778747,-0.3016526299846375
-0.06531770833333334,0.2031898772185967,-0.3177498875529341
-0.06529270833333334,0.1870635842487075,-0.3331764260558779
-0.06526770833333334,0.1709372912788109,-0.3499444026895195
-0.06524270833333334,0.1548109983089143,-0.3663770197904891
-0.06521770833333335,0.1383487409021451,-0.3828096368914585
-0.06519270833333335,0.1215505190585106,-0.3999129730577655
-0.06516770833333332,0.1057601905254642,-0.4156748710934119
-0.06514270833333333,0.08929793311870221,-0.4314367691290285
-0.06511770833333333,0.07317164014880567,-0.447534026697325
-0.06509270833333333,0.05738131161578194,-0.4619544866022573
-0.06506770833333334,0.04091905420901253,-0.4773810251052081
-0.06504270833333334,0.0247927612391233,-0.4921368445428066
-0.06501770833333334,0.008330503832354043,-0.5072280235130845
-0.06499270833333334,-0.008131753574415368,-0.5223192024833625
-0.06496770833333335,-0.02425804654431208,-0.5364043028556225
-0.06494270833333335,-0.0410562683879464,-0.5518308413585657
-0.06491770833333332,-0.05751852579473841,-0.5659159417308459
-0.06489270833333333,-0.07364481876462764,-0.5806717611684444
-0.06486770833333333,-0.08943514729765137,-0.5950922210733767
-0.06484270833333333,-0.1052254758306751,-0.6088419619129634
-0.06481770833333333,-0.1210158043636988,-0.6232624218178957
-0.06479270833333334,-0.1368061328967153,-0.6370121626574761
-0.06476770833333334,-0.1522604969928664,-0.6507619034970628
-0.06474270833333334,-0.1677148610890172,-0.6648470038693219
-0.06471770833333335,-0.1831692251851681,-0.677255306578218
-0.06469270833333335,-0.1989595537181845,-0.6906696878851253
-0.06466770833333332,-0.2137419889406111,-0.7027426310613653
-0.06464270833333333,-0.2291963530367549,-0.7148155742375822
-0.06461770833333333,-0.2446507171329058,-0.7272238769464775
-0.06459270833333333,-0.2601050812290567,-0.7386261010573543
-0.06456770833333333,-0.2762313741989533,-0.7517051228315952
-0.06454270833333334,-0.2920217027319698,-0.7634427064751395
-0.06451770833333334,-0.3081479957018662,-0.7758510091840344
-0.06449270833333334,-0.3249462175455081,-0.7875885928275842
-0.06446770833333335,-0.3407365460785324,-0.7976493788077703
-0.06444270833333335,-0.3575347679221665,-0.8080455243206237
-0.06441770833333335,-0.3729891320183186,-0.8144173554414114
-0.06439270833333333,-0.3881075316776107,-0.8201184674968555
-0.06436770833333333,-0.4032259313368887,-0.823472062823584
-0.06434270833333333,-0.4173364376855482,-0.8241427818889296
-0.06431770833333333,-0.4317829084710805,-0.8244781414216025
-0.06429270833333334,-0.4452214859459883,-0.8224659842255663
-0.06426770833333334,-0.4589960278577747,-0.820789186562202
-0.06424270833333334,-0.4737784630801795,-0.8194477484315104
-0.06421770833333335,-0.4875530049919666,-0.817100231702801
-0.06419270833333335,-0.5026714046512371,-0.8160941531047823
-0.06416770833333335,-0.51711787543677,-0.8140819959087461
-0.06414270833333333,-0.5308924173485697,-0.81240519824538
-0.06411770833333333,-0.5460108170078478,-0.8117344791800344
-0.06409270833333333,-0.5591134300458888,-0.8093869624513245
-0.06406770833333333,-0.5735599008314212,-0.808380883853306
-0.06404270833333334,-0.5873344427432016,-0.8060333671245972
-0.06401770833333334,-0.6004370557812427,-0.8040212099285599
-0.06399270833333334,-0.6142115976930291,-0.8030151313305409
-0.06396770833333335,-0.626642281857325,-0.7999968955364861
-0.06394270833333335,-0.6404168237691047,-0.7996615360038123
-0.06391770833333335,-0.6528475079334012,-0.7973140192751041
-0.06389270833333333,-0.6652781920977078,-0.7956372216117379
-0.06386770833333333,-0.6780448406988759,-0.7946311430137193
-0.06384270833333333,-0.6894676315525526,-0.7922836262850094
-0.06381770833333333,-0.7025702445905936,-0.7912775476869909
-0.06379270833333334,-0.7133211065705198,-0.7885946714256094
-0.06376770833333334,-0.7247438974241962,-0.7869178737622446
-0.06374270833333334,-0.7375105460253637,-0.7865825142295712
-0.06371770833333334,-0.7479254435684229,-0.7845703570335348
-0.06369270833333335,-0.7603561277327117,-0.7845703570335339
-0.06366770833333335,-0.7707710252757718,-0.7822228403048261
-0.06364270833333333,-0.7821938161294579,-0.7808814021741327
-0.06361770833333333,-0.7936166069831346,-0.7802106831087869
-0.06359270833333333,-0.8030236112155743,-0.7771924473147314
-0.06356770833333333,-0.8137744731955053,-0.7761863687167129
-0.06354270833333334,-0.8228455129910681,-0.7731681329226586
-0.06351770833333334,-0.8325884816603802,-0.7711559757266211
-0.06349270833333334,-0.8430033792034382,-0.7698145375959293
-0.06346770833333334,-0.8514024901252603,-0.7671316613345472
-0.06344270833333335,-0.8618173876683174,-0.7664609422692007
-0.06341770833333335,-0.8708884274638808,-0.764448785073165
-0.06339270833333333,-0.8799594672594558,-0.762771987409799
-0.06336770833333333,-0.8893664714918955,-0.7621012683444534
-0.06334270833333333,-0.8970936535399709,-0.7594183920830706
-0.06331770833333333,-0.9061646933355377,-0.7584123134850521
-0.06329270833333334,-0.9128839820729916,-0.7553940776909979
-0.06326770833333334,-0.9206111641210666,-0.7537172800276331
-0.06324270833333334,-0.9290102750428875,-0.7523758418969414
-0.06321770833333334,-0.9350576349065997,-0.750028325168232
-0.06319270833333335,-0.9427848169546743,-0.7493576061028856
-0.06316770833333335,-0.9488321768183835,-0.74734544890685
-0.06314270833333332,-0.9552155011189731,-0.7460040107761569
-0.06311770833333333,-0.9626067187301758,-0.7460040107761569
-0.06309270833333333,-0.9676461852832684,-0.7439918535801198
-0.06306770833333333,-0.9740295095838525,-0.7429857749821013
-0.06304270833333334,-0.9787330117000723,-0.7406382582533914
-0.06301770833333334,-0.9841084426900354,-0.7389614605900279
-0.06299270833333334,-0.9901558025537462,-0.7382907415246818
-0.06296770833333334,-0.9938514113593486,-0.7356078652632999
-0.06294270833333335,-1.000234735659932,-0.7346017866652805
-0.06291770833333335,-1.003930344465533,-0.7322542699365723
-0.06289270833333332,-1.008297882144883,-0.730577472273206
-0.06286770833333333,-1.013337348697976,-0.7299067532078602
-0.06284270833333333,-1.016361028629831,-0.7275592364791503
-0.06281770833333333,-1.021064530746051,-0.7265531578811318
-0.06279270833333334,-1.023752246241034,-0.7242056411524219
-0.06276770833333334,-1.026775926172888,-0.7225288434890584
-0.06274270833333334,-1.030807499415362,-0.7218581244237123
-0.06271770833333334,-1.032151357162854,-0.7191752481623305
-0.06269270833333335,-1.035511001531582,-0.7185045290969839
-0.06266770833333335,-1.036518894842201,-0.7161570123682758
-0.06264270833333332,-1.038198717026567,-0.7148155742375818
-0.06261770833333333,-1.040214503647803,-0.7138094956395638
-0.06259270833333333,-1.040214503647803,-0.7114619789108538
-0.06256770833333333,-1.04223029026904,-0.7107912598455082
-0.06254270833333334,-1.04223029026904,-0.7087791026494711
-0.06251770833333334,-1.042566254705913,-0.7071023049861076
-0.06249270833333333,-1.043910112453404,-0.7064315859207612
-0.06246770833333334,-1.042902219142786,-0.7040840691920512
-0.06244270833333334,-1.043910112453404,-0.7034133501267056
-0.06241770833333334,-1.042566254705913,-0.7010658333979957
-0.06239270833333333,-1.041558361395294,-0.699389035734631
-0.06236770833333333,-1.041222396958422,-0.6983829571366129
-0.06234270833333334,-1.039206610337184,-0.696035440407903
-0.06231770833333334,-1.038870645900312,-0.6950293618098844
-0.06229270833333334,-1.036182930405329,-0.6926818450811745
-0.06226770833333333,-1.034503108220964,-0.6913404069504828
-0.06224270833333333,-1.033495214910346,-0.6906696878851375
-0.06221770833333334,-1.029799606104745,-0.6883221711564276
-0.06219270833333334,-1.028455748357253,-0.687316092558409
-0.06216770833333334,-1.024424175114779,-0.6846332162970262
-0.06214270833333333,-1.021736459619795,-0.6832917781663344
-0.06211770833333333,-1.018712779687941,-0.6819503400356435
-0.06209270833333334,-1.013673313134848,-0.6792674637742607
-0.06206770833333334,-1.01031366876612,-0.6779260256435694
-0.06204270833333334,-1.004938237776154,-0.6759138684475323
-0.06201770833333333,-0.9998987712230597,-0.6745724303168404
-0.06199270833333333,-0.9958671979805874,-0.6735663517188224
-0.06196770833333334,-0.9891479092431305,-0.6712188349901125
-0.06194270833333334,-0.9844444071269106,-0.6702127563920939
-0.06191770833333334,-0.977389153952581,-0.667865239663384
-0.06189270833333333,-0.9710058296519943,-0.6661884420000193
-0.06186770833333333,-0.9652944342251585,-0.6648470038693284
-0.06184270833333334,-0.9575672521770831,-0.6624994871406185
-0.06181770833333334,-0.9521918211871175,-0.6624994871406185
-0.06179270833333334,-0.9444646391390421,-0.6604873299445815
-0.06176770833333333,-0.9380813148384552,-0.6594812513465624
-0.06174270833333333,-0.9320339549747468,-0.6584751727485444
-0.06171770833333334,-0.9246427373635442,-0.6564630155525073
-0.06169270833333334,-0.9179234486260873,-0.6537801392911246
-0.06166770833333334,-0.9101962665780119,-0.6490851058337047
-0.06164270833333333,-0.9021331200930603,-0.6430486342455906
-0.06161770833333333,-0.8950778669187339,-0.6363414435921366
-0.06159270833333334,-0.8849989338125485,-0.6259452980792785
-0.06156770833333334,-0.8765998228907274,-0.6152137930337473
-0.06154270833333334,-0.8661849253476692,-0.6021347712595064
-0.06151770833333333,-0.8571138855520982,-0.5887203899525867
-0.06149270833333333,-0.8480428457565355,-0.5756413681783518
-0.06146770833333334,-0.8372919837766045,-0.5605501892080738
-0.06144270833333334,-0.8278849795441648,-0.5457943697704686
-0.06141770833333334,-0.8167981531273609,-0.5300324717348448
-0.06139270833333334,-0.8067192200211801,-0.514605933231901
-0.06136770833333333,-0.7973122157887359,-0.4991793947289431
-0.06134270833333334,-0.7855534604981864,-0.4834174966933193
-0.06131770833333334,-0.7751385629551282,-0.4676555986576957
-0.06129270833333334,-0.7637157721014515,-0.4515583410893991
-0.06126770833333334,-0.7522929812477799,-0.4357964430537826
-0.06124270833333333,-0.7415421192678436,-0.4203699045508246
-0.06121770833333334,-0.7291114351035484,-0.404272646982528
-0.06119270833333334,-0.7183605731236173,-0.38918146801225
-0.06116770833333334,-0.7059298889593221,-0.3737549295092991
-0.06114270833333334,-0.6938351692319052,-0.358663750539028
-0.06111770833333333,-0.6824123783782229,-0.3435725715687431
-0.06109270833333334,-0.6693097653401819,-0.3281460330657923
-0.06106770833333334,-0.6575510100496323,-0.3130548540955143
-0.06104270833333334,-0.6437764681378457,-0.2979636751252362
-0.06101770833333334,-0.6313457839735561,-0.2828724961549651
-0.06099270833333333,-0.6189150998092552,-0.2681166767173531
-0.06096770833333334,-0.6054765223343413,-0.2526901382144022
-0.06094270833333334,-0.5923739092963004,-0.2369282401787785
-0.06091770833333334,-0.5782634029476409,-0.220830982610482
-0.06089270833333334,-0.5641528965989879,-0.2037276464441747
-0.06086770833333333,-0.5503783546871948,-0.1872950293431975
-0.06084270833333334,-0.5352599550279168,-0.1698563336442095
-0.06081770833333334,-0.5211494486792573,-0.1524176379452216
-0.06079270833333334,-0.5060310490199792,-0.1349789422462337
-0.06076770833333334,-0.4915845782344535,-0.1182109656125991
-0.06074270833333333,-0.4774740718857875,-0.1024490675769678
-0.06071770833333334,-0.4623556722265094,-0.08668716954134408
-0.06069270833333334,-0.44824516587785,-0.07092527150572038
-0.06066770833333334,-0.4331267662185719,-0.05583409253544237
-0.06064270833333334,-0.4183443309961735,-0.04040755403249852
-0.06061770833333333,-0.4035618957737616,-0.02431029646419496
-0.06059270833333334,-0.3877715672407379,-0.008213038895898415
-0.06056770833333334,-0.3726531675814598,0.00922565680308951
-0.06054270833333334,-0.3565268746115632,0.02632899296940459
-0.06051770833333334,-0.340400581641674,0.04343232913571189
-0.06049270833333333,-0.3249462175455158,0.05986494623668906
-0.06046770833333334,-0.3084839601387464,0.07629756333765846
-0.06044270833333334,-0.2930295960425955,0.09172410184060931
-0.06041770833333334,-0.2769033030726989,0.1068152808108873
-0.06039270833333334,-0.2617849034134278,0.1212357407158131
-0.06036770833333333,-0.24633053931727,0.135656200620752
-0.06034270833333334,-0.2305402107842463,0.1497413009930115
-0.06031770833333334,-0.2144139178143497,0.1648324799632895
-0.06029270833333334,-0.1982876248444532,0.1799236589335675
-0.06026770833333334,-0.1821613318745639,0.195685556969184
-0.06024270833333333,-0.16603503890466,0.2114474550048149
-0.06021770833333333,-0.1492368170610178,0.2272093530404386
-0.06019270833333334,-0.1321026307805027,0.243641970141408
-0.06016770833333334,-0.1156403733737333,0.2594038681770317
-0.06014270833333334,-0.09917811596697138,0.2751657662126482
-0.06011770833333333,-0.08338778743394015,0.2905923047156063
-0.06009270833333333,-0.06625360115342505,0.3056834836858843
-0.06006770833333334,-0.0494553793097828,0.3214453817215079
-0.06004270833333334,-0.03299312190301339,0.3365365606917859
-0.06001770833333334,-0.01619490005937114,0.351627739662064
-0.05999270833333333,-6.860708947457189e-05,0.3663835590996691
-0.05996770833333333,0.01639365031729484,0.3814747380699471
-0.05994270833333334,0.03352783659780994,0.396901276572898
-0.05991770833333334,0.04999009400457935,0.4109863769451575
-0.05989270833333334,0.06678831584822159,0.4254068368500898
-0.05986770833333333,0.08325057325499102,0.440162656287695
-0.05984270833333333,0.09971283066176043,0.4542477566599545
-0.05981770833333334,0.1168470169422755,0.4693389356302325
-0.05979270833333334,0.1336452387859178,0.483424036002492
-0.05976770833333334,0.1501074961926872,0.4971737768420786
-0.05974270833333333,0.1672416824732095,0.5119295962796894
-0.05971770833333333,0.183032011006226,0.524337898988579
-0.05969270833333334,0.1998302328498683,0.5380876398281655
-0.05966770833333334,0.2159565258197648,0.550160583004388
-0.05964270833333334,0.2314108899159157,0.5622335261806104
-0.05961770833333333,0.2472012184489463,0.5749771884221835
-0.05959270833333333,0.2623196181082174,0.5860440530003824
-0.05956770833333334,0.2787818755149868,0.5991230747746233
-0.05954270833333334,0.2942362396111377,0.6105252988855
-0.05951770833333334,0.3103625325810343,0.6232689611270681
-0.05949270833333333,0.3261528611140651,0.6363479829013144
-0.05946770833333333,0.3416072252102089,0.6480855665448586
-0.05944270833333334,0.3584054470538511,0.6611645883190996
-0.05941770833333334,0.373859811150002,0.6729021719626491
-0.05939270833333334,0.3896501396830257,0.6849751151388715
-0.05936770833333333,0.4051045037791833,0.6967126987824259
-0.05934270833333333,0.4198869390015817,0.7071088442952793
-0.05931770833333334,0.4356772675346055,0.7185110684061561
-0.05929270833333334,0.4504597027570107,0.7289072139190143
-0.05926770833333334,0.464906173542543,0.7389679998991996
-0.05924270833333333,0.4800245732018272,0.7496995049447344
-0.05921770833333333,0.4934631506767349,0.7580834932615517
-0.05919270833333334,0.5085815503360129,0.7688149983070828
-0.05916770833333334,0.5226920566846724,0.7771989866239039
-0.05914270833333334,0.536802563033332,0.7862536940060707
-0.05911770833333333,0.5512490338188705,0.7963144799862598
-0.05909270833333333,0.5650235757306509,0.8046984683030771
-0.05906770833333334,0.5798060109530561,0.8147592542832625
-0.05904270833333334,0.5932445884279699,0.8231432426000836
-0.05901770833333334,0.6073550947766294,0.8321979499822504
-0.05899270833333333,0.6214656011252946,0.8412526573644206
-0.05896770833333333,0.6338962852895842,0.8486305670832198
-0.05894270833333334,0.6476708272013708,0.8570145554000409
-0.05891770833333334,0.6597655469287932,0.8630510269881521
-0.05889270833333334,0.6721962310930885,0.8690874985762633
-0.05886770833333333,0.6846269152573886,0.8757946892297223
-0.05884270833333333,0.6953777772373148,0.8801543631544672
-0.05881770833333334,0.7088163547122286,0.8868615538079241
-0.05879270833333334,0.7195672166921596,0.8918919467980168
-0.05876770833333334,0.7316619364195821,0.8975930588534551
-0.05874270833333333,0.7437566561470095,0.9043002495069143
-0.05871770833333333,0.7548434825638084,0.9093306424970047
-0.05869270833333334,0.7672741667281037,0.9163731926831344
-0.05866770833333334,0.7780250287080347,0.9220743047385728
-0.05864270833333334,0.7884399262510929,0.9271046977286654
-0.05861770833333333,0.7998627171047741,0.9331411693167783
-0.05859270833333333,0.8096056857740821,0.9364947646435051
-0.05856770833333334,0.8210284766277589,0.9418605171662706
-0.05854270833333334,0.8300995164233257,0.9448787529603262
-0.05851770833333334,0.8398424850926381,0.9482323482870547
-0.05849270833333333,0.8499214181988273,0.9519213031464565
-0.05846770833333333,0.8583205291206447,0.9532627412771474
-0.05844270833333334,0.8683994622268301,0.956280977071203
-0.05841770833333334,0.8761266442749055,0.9572870556692215
-0.05839270833333334,0.8848617196335994,0.9592992128652585
-0.05836770833333333,0.8932608305554238,0.9609760105286228
-0.05834270833333333,0.9003160837297504,0.9609760105286228
-0.05831770833333334,0.9090511590884442,0.962652808191987
-0.05829270833333334,0.9157704478259012,0.962652808191987
-0.05826770833333334,0.922825701000231,0.9633235272573327
-0.05824270833333334,0.9308888474851755,0.9646649653880235
-0.05821770833333333,0.9362642784751447,0.9636588867900056
-0.05819270833333334,0.944327424960093,0.9643296058553512
-0.05816770833333334,0.9493668915131857,0.9629881677246599
-0.05814270833333334,0.9550782869400241,0.9619820891266413
-0.05811770833333334,0.9607896823668599,0.9609760105286232
-0.05809270833333333,0.9644852911724637,0.9579577747345671
-0.05806770833333334,0.9701966865993021,0.9569516961365486
-0.05804270833333334,0.9735563309680305,0.953933460342493
-0.05801770833333334,0.9775879042105047,0.9522566626791288
-0.05799270833333334,0.9822914063267224,0.950915224548438
-0.05796770833333333,0.9853150862585801,0.9482323482870547
-0.05794270833333334,0.9900185883747999,0.9475616292217089
-0.05791770833333334,0.9933782327435284,0.945214112492999
-0.05789270833333334,0.9967378771122568,0.9428665957642891
-0.05786770833333334,1.000769450354729,0.9405190790355804
-0.05784270833333333,1.002449272539095,0.9358240455781595
-0.05781770833333334,1.005808916907823,0.9324704502514309
-0.05779270833333334,1.007152774655315,0.9271046977286654
-0.05776770833333334,1.009504525713425,0.9220743047385728
-0.05774270833333334,1.012192241208406,0.9180499903465005
-0.05771770833333333,1.013200134519026,0.9123488782910603
-0.05769270833333334,1.015887850014009,0.908659923431659
-0.05766770833333334,1.0172317077615,0.9039648899742392
-0.05764270833333334,1.01958345881961,0.9002759351148378
-0.05761770833333334,1.022607138751465,0.8975930588534563
-0.05759270833333333,1.023615032062084,0.8928980253960352
-0.05756770833333334,1.02663871199394,0.8895444300693068
-0.05754270833333334,1.026974676430813,0.8835079584811957
-0.05751770833333334,1.027982569741431,0.8774714868930844
-0.05749270833333334,1.029326427488922,0.8710996557723033
-0.05746770833333333,1.027646605304559,0.8623803079228064
-0.05744270833333334,1.028654498615177,0.8550023982040038
-0.05741770833333334,1.026974676430813,0.8456123312891642
-0.05739270833333334,1.026302747557067,0.8375637025050159
-0.05736770833333334,1.025966783120194,0.829850433253544
-0.05734270833333333,1.023950996498957,0.8214664449367194
-0.05731770833333334,1.023279067625211,0.8140885352179168
