measurement/exam_3/stereo_lr_low.csv

#Digilent WaveForms Oscilloscope Acquisition
#Device Name: DiscoveryStudio
#Serial Number: SN:210384B18F1D
#Date Time: 2026-07-09 21:19:32.945
#Sample rate: 40000Hz
#Samples: 8192
#Trigger: Source: Channel 1 Type: Edge Condition: Rising Level: 0 V Hyst.: Auto HoldOff: 0 s
#Channel 1: Range: 500 mV/div Offset: 0 V Sample Mode: Average
#Channel 2: Range: 500 mV/div Offset: 0 V Sample Mode: Average

Time (s),Channel 1 (V),Channel 2 (V)
-0.06543815789473685,0.1739609712106592,-0.01592630814737384
-0.06541315789473684,0.1682495757838184,-0.02162742020281449
-0.06538815789473684,0.1628741447938553,-0.02665781319290488
-0.06536315789473685,0.1571627493670169,-0.03235892524834323
-0.06533815789473685,0.1514513539401786,-0.03738931823843591
-0.06531315789473685,0.1457399585133402,-0.04275507076120142
-0.06528815789473684,0.1396925986496261,-0.04879154234931538
-0.06526315789473684,0.1333092743490449,-0.05482801393742383
-0.06523815789473685,0.1269259500484609,-0.06119984505820788
-0.06521315789473685,0.1205426257478768,-0.06790703571166477
-0.06518815789473685,0.1138233370104199,-0.07427886683244882
-0.06516315789473684,0.1074400127098327,-0.08065069795323578
-0.06513815789473684,0.1003847595355061,-0.08702252907401692
-0.06511315789473685,0.09366547079804921,-0.09305900066212813
-0.06508815789473685,0.08728214649746516,-0.09909547225023933
-0.06506315789473685,0.08056285776000824,-0.1047965843056777
-0.06503815789473684,0.07384356902254814,-0.1111684154264645
-0.06501315789473684,0.06678831584822159,-0.1172048870145729
-0.06498815789473684,0.05939709823701901,-0.1239120776680298
-0.06496315789473685,0.05301377393643495,-0.129948549256141
-0.06493815789473685,0.04595852076210521,-0.1363203803769251
-0.06491315789473684,0.03957519646151794,-0.142356851965039
-0.06488815789473684,0.03251994328719141,-0.1483933235531475
-0.06486315789473684,0.02613661898660734,-0.1540944356085859
-0.06483815789473685,0.01975329468602329,-0.1594601881313514
-0.06481315789473685,0.01370593482231208,-0.1648259406541169
-0.06478815789473684,0.006650681647979121,-0.1705270527095578
-0.06476315789473684,-0.000404571526347417,-0.1762281647649936
-0.06473815789473684,-0.006787895826931473,-0.1815939172877591
-0.06471315789473685,-0.01384314900126122,-0.1869596698105246
-0.06468815789473685,-0.02056243773871812,-0.1923254223332901
-0.06466315789473684,-0.02728172647617793,-0.1973558153233849
-0.06463815789473684,-0.03366505077675908,-0.2020508487808026
-0.06461315789473684,-0.04038433951421598,-0.2067458822382225
-0.06458815789473685,-0.04676766381480004,-0.2117762752283152
-0.06456315789473685,-0.05382291698912978,-0.2168066682184078
-0.06453815789473685,-0.06087817016345633,-0.2228431398065163
-0.06451315789473684,-0.06826938777466213,-0.2285442518619574
-0.06448815789473684,-0.07532464094899188,-0.2342453639173958
-0.06446315789473685,-0.08204392968644877,-0.2399464759728341
-0.06443815789473685,-0.08876321842390567,-0.2446415094302539
-0.06441315789473685,-0.09514654272448685,-0.2493365428876716
-0.06438815789473684,-0.1011939025882009,-0.2526901382144022
-0.06436315789473684,-0.1069052980150393,-0.2560437335411306
-0.06433815789473685,-0.111944764568132,-0.2583912502698406
-0.06431315789473685,-0.1169842311212247,-0.2607387669985505
-0.06428815789473685,-0.1226956265480604,-0.2640923623252774
-0.06426315789473684,-0.1290789508486471,-0.2677813171846802
-0.06423815789473684,-0.1354622751492311,-0.2721409911094272
-0.06421315789473685,-0.1418455994498152,-0.2771713840995199
-0.06418815789473685,-0.1482289237503993,-0.2822017770896125
-0.06416315789473685,-0.1552841769247258,-0.2879028891450483
-0.06413815789473684,-0.1613315367884402,-0.2925979226024707
-0.06411315789473684,-0.1677148610890243,-0.2979636751252362
-0.06408815789473685,-0.1737622209527355,-0.3019879895173104
-0.06406315789473685,-0.1798095808164467,-0.3056769443767117
-0.06403815789473685,-0.1858569406801552,-0.309701258768784
-0.06401315789473684,-0.1915683361069963,-0.3127194945628414
-0.06398815789473684,-0.1972797315338346,-0.3160730898895698
-0.06396315789473685,-0.2033270913975458,-0.3197620447489711
-0.06393815789473685,-0.2090384868243842,-0.3227802805430268
-0.06391315789473685,-0.21474988225122,-0.3261338758697537
-0.06388815789473684,-0.2201253132411881,-0.3288167521311379
-0.06386315789473684,-0.2255007442311536,-0.3321703474578664
-0.06383815789473685,-0.2305402107842463,-0.3345178641865763
-0.06381315789473685,-0.235579677337339,-0.3372007404479591
-0.06378815789473685,-0.240955108327302,-0.340554335774686
-0.06376315789473684,-0.2456586104435243,-0.3425664929707246
-0.06373815789473684,-0.2506980769966171,-0.3452493692321074
-0.06371315789473685,-0.255065614675964,-0.3475968859608172
-0.06368815789473685,-0.2601050812290567,-0.3496090431568543
-0.06366315789473685,-0.2651445477821471,-0.3522919194182358
-0.06363815789473684,-0.2695120854614964,-0.3539687170816013
-0.06361315789473684,-0.2742155875777162,-0.3559808742776384
-0.06358815789473685,-0.278919089693936,-0.3576576719410026
-0.06356315789473685,-0.2829506629364101,-0.3593344696043668
-0.06353815789473685,-0.2876541650526278,-0.361346626800403
-0.06351315789473684,-0.292021702731977,-0.3630234244637681
-0.06348815789473684,-0.296389240411324,-0.3647002221271323
-0.06346315789473685,-0.300756778090671,-0.3670477388558422
-0.06343815789473685,-0.3047883513331451,-0.3683891769865336
-0.06341315789473685,-0.3091558890124901,-0.3707366937152425
-0.06338815789473684,-0.3125155333812205,-0.3714074127805893
-0.06336315789473684,-0.3165471066236947,-0.3727488509112806
-0.06333815789473685,-0.3199067509924231,-0.3734195699766263
-0.06331315789473685,-0.3229304309242788,-0.3737549295092991
-0.06328815789473685,-0.3266260397298784,-0.3740902890419718
-0.06326315789473684,-0.3289777907879899,-0.3737549295092991
-0.06323815789473684,-0.3326733995935912,-0.3744256485746448
-0.06321315789473685,-0.335361115088574,-0.3747610081073177
-0.06318815789473685,-0.3383847950204296,-0.3750963676399905
-0.06316315789473685,-0.3417444393891581,-0.3764378057706819
-0.06313815789473684,-0.3444321548841408,-0.3767731653033548
-0.06311315789473684,-0.3474558348159964,-0.3777792439013733
-0.06308815789473685,-0.3501435503109792,-0.378449962966719
-0.06306315789473685,-0.352831265805962,-0.3781146034340461
-0.06303815789473685,-0.3555189813009447,-0.378449962966719
-0.06301315789473684,-0.3571988034853089,-0.3771085248360276
-0.06298815789473684,-0.3602224834171645,-0.3767731653033548
-0.06296315789473685,-0.3619023056015288,-0.3750963676399905
-0.06293815789473685,-0.363582127785893,-0.3737549295092991
-0.06291315789473685,-0.3659338788440029,-0.3730842104439535
-0.06288815789473684,-0.3676137010283671,-0.3714074127805893
-0.06286315789473684,-0.3696294876496042,-0.3710720532479164
-0.06283815789473685,-0.3716452742708413,-0.3704013341825707
-0.06281315789473685,-0.3733250964552055,-0.3700659746498978
-0.06278815789473685,-0.3756768475133154,-0.3704013341825707
-0.06276315789473684,-0.3770207052608076,-0.3697306151172248
-0.06273815789473684,-0.378700527445171,-0.3693952555845522
-0.06271315789473685,-0.3800443851926624,-0.3683891769865336
-0.06268815789473685,-0.3810522785032809,-0.3667123793231694
-0.06266315789473685,-0.3823961362507723,-0.3650355816598052
-0.06263815789473684,-0.3823961362507723,-0.3620173458657481
-0.06261315789473684,-0.3823961362507723,-0.3586637505390211
-0.06258815789473685,-0.383068065124518,-0.3559808742776384
-0.06256315789473685,-0.3827321006876451,-0.3522919194182371
-0.06253815789473685,-0.3837399939982637,-0.3502797622222
-0.06251315789473684,-0.383739993998264,-0.3475968859608166
-0.06248815789473684,-0.3844119228720094,-0.3462554478301259
-0.06246315789473685,-0.385083851745755,-0.3445786501667616
-0.06243815789473685,-0.3854198161826279,-0.3435725715687431
-0.06241315789473685,-0.3864277094932465,-0.3425664929707246
-0.06238815789473684,-0.3860917450563738,-0.3402189762420138
-0.06236315789473684,-0.3864277094932465,-0.3382068190459776
-0.06233815789473685,-0.3857557806195008,-0.335188583251922
-0.06231315789473685,-0.3854198161826279,-0.3314996283925207
-0.06228815789473685,-0.3844119228720094,-0.3278106735331194
-0.06226315789473684,-0.3834040295613902,-0.3231156400756976
-0.06223815789473684,-0.3820601718138995,-0.3187559661509526
-0.06221315789473685,-0.3807163140664081,-0.3147316517588785
-0.06218815789473685,-0.3793724563189167,-0.3103719778341315
-0.06216315789473685,-0.3790364918820439,-0.307018382507403
-0.06213815789473684,-0.3773566696976793,-0.3033294276480002
-0.06211315789473684,-0.3766847408239339,-0.2999758323212733
-0.06208815789473685,-0.3753408830764426,-0.2969575965272177
-0.06206315789473685,-0.374332989765824,-0.2936040012004892
-0.06203815789473685,-0.3736610608920783,-0.2905857654064337
-0.06201315789473684,-0.371309309833968,-0.2865614510143579
-0.06198815789473684,-0.3703014165233499,-0.2828724961549582
-0.06196315789473684,-0.3682856299021128,-0.2785128222302112
-0.06193815789473685,-0.3662698432808758,-0.2738177887727914
-0.06191315789473685,-0.3642540566596387,-0.2691227553153716
-0.06188815789473684,-0.3619023056015278,-0.2640923623252767
-0.06186315789473684,-0.3598865189802917,-0.2590619693351863
-0.06183815789473684,-0.3571988034853089,-0.2543669358777664
-0.06181315789473685,-0.354847052427199,-0.2493365428876738
-0.06178815789473685,-0.352831265805962,-0.2456475880282725
-0.06176315789473684,-0.3498075858741053,-0.240952554570851
-0.06173815789473684,-0.3474558348159964,-0.2372635997114513
-0.06171315789473684,-0.3447681193210136,-0.2325685662540316
-0.06168815789473685,-0.3420804038260309,-0.2282088923292845
-0.06166315789473685,-0.3393926883310481,-0.2238492184045376
-0.06163815789473684,-0.3356970795254455,-0.2184834658817696
-0.06161315789473684,-0.3326733995935912,-0.2131177133590065
-0.06158815789473684,-0.3293137552248628,-0.2074166013035681
-0.06156315789473685,-0.3256181464192615,-0.2017154892481298
-0.06153815789473685,-0.3219225376136602,-0.1960143771926914
-0.06151315789473684,-0.3178909643711845,-0.1899779056045777
-0.06148815789473684,-0.3145313200024576,-0.1842767935491419
-0.06146315789473684,-0.3108357111968563,-0.1789110410263764
-0.06143815789473685,-0.307140102391255,-0.1735452885036108
-0.06141315789473685,-0.3041164224593994,-0.1688502550461911
-0.06138815789473685,-0.3000848492169271,-0.1634845025234279
-0.06136315789473684,-0.296389240411324,-0.1584541095333328
-0.06133815789473684,-0.2923576671688498,-0.1530883570105673
-0.06131315789473685,-0.2883260939263757,-0.1470518854224561
-0.06128815789473685,-0.2839585562470287,-0.1410154138343449
-0.06126315789473685,-0.2795910185676837,-0.1346435827135637
-0.06123815789473684,-0.2752234808883347,-0.1286071111254496
-0.06121315789473684,-0.2708559432089878,-0.1225706395373385
-0.06118815789473685,-0.2664884055296408,-0.1165341679492273
-0.06116315789473685,-0.2621208678502938,-0.1108330558937889
-0.06113815789473685,-0.2574173657340761,-0.1047965843056804
-0.06111315789473684,-0.2530498280547269,-0.09909547225023933
-0.06108815789473684,-0.2483463259385071,-0.09339436019480098
-0.06106315789473685,-0.2436428238222872,-0.08735788860668976
-0.06103815789473685,-0.2386033572691946,-0.08165677655125141
-0.06101315789473685,-0.2335638907161042,-0.07562030496314295
-0.06098815789473684,-0.2291963530367549,-0.06991919290770185
-0.06096315789473684,-0.2241568864836622,-0.06421808085226348
-0.06093815789473685,-0.2191174199305696,-0.05784624973147943
-0.06091315789473685,-0.2144139178143497,-0.05180977814336823
-0.06088815789473685,-0.2093744512612594,-0.04577330655525977
-0.06086315789473684,-0.2039990202712915,-0.03940147543447298
-0.06083815789473684,-0.1989595537181989,-0.03336500384636177
-0.06081315789473685,-0.1929121938544877,-0.02665781319290488
-0.06078815789473685,-0.187872727301395,-0.02028598207212082
-0.06076315789473685,-0.1821613318745592,-0.01458487001668506
-0.06073815789473684,-0.1767859008845911,-0.008548398428571259
-0.06071315789473684,-0.1717464343314984,-0.003182645905805744
-0.06068815789473685,-0.1663710033415329,0.002518466149632616
-0.06066315789473685,-0.1609955723515674,0.008219578205070976
-0.06063815789473685,-0.1552841769247316,0.01459140932585213
-0.06061315789473684,-0.1499087459347635,0.02062788091396623
-0.06058815789473684,-0.1438613860710523,0.02733507156742312
-0.06056315789473685,-0.1378140262073411,0.03437762175355286
-0.06053815789473685,-0.1317666663436299,0.04175553147235544
-0.06051315789473685,-0.1253833420430487,0.04879808165848198
-0.06048815789473684,-0.1196719466162074,0.05584063184461493
-0.06046315789473684,-0.1129526578787505,0.06254782249807182
-0.06043815789473685,-0.1079131913256579,0.06824893455351018
-0.06041315789473685,-0.1022017958988195,0.07395004660894854
-0.06038815789473685,-0.0968263649088564,0.07898043959903892
-0.06036315789473684,-0.09178689835576129,0.08367547305646103
-0.06033815789473684,-0.08641146736579577,0.08837050651388087
-0.06031315789473685,-0.0807000719389574,0.09373625903664638
-0.06028815789473685,-0.07498867651211902,0.0991020115594119
-0.06026315789473685,-0.06860535221153787,0.1051384831475203
-0.06023815789473684,-0.06255799234782376,0.11184567380098
-0.06021315789473684,-0.0561746680472397,0.118217504921764
-0.06018815789473685,-0.04979134374665565,0.1252600551078938
-0.06016315789473685,-0.04340801944607159,0.1316318862286778
-0.06013815789473685,-0.03702469514549044,0.1376683578167863
-0.06011315789473684,-0.03064137084490347,0.1440401889375731
-0.06008815789473684,-0.02425804654431942,0.1500766605256843
-0.06006315789473685,-0.01821068668060821,0.1557777725811226
-0.06003815789473685,-0.01182736238002415,0.161478884636561
-0.06001315789473685,-0.005444038079440093,0.1671799966919993
-0.05998815789473684,0.0009392862211439635,0.1728811087474377
-0.05996315789473684,0.006986646084855175,0.1785822208028761
-0.05993815789473685,0.01336997038543923,0.1842833328583144
-0.05991315789473685,0.01941733024915044,0.1899844449137528
-0.05988815789473685,0.02546469011286166,0.1953501974365183
-0.05986315789473684,0.03184801441344571,0.2017220285573024
-0.05983815789473684,0.03789537427715692,0.2074231406127408
-0.05981315789473685,0.04394273414086813,0.2127888931355063
-0.05978815789473685,0.05066202287832504,0.2188253647236175
-0.05976315789473685,0.05704534717890909,0.2245264767790558
-0.05973815789473684,0.06309270704262304,0.2298922293018238
-0.05971315789473684,0.06914006690633151,0.2352579818245868
-0.05968815789473685,0.07518742677004273,0.2402883748146795
-0.05966315789473685,0.08157075107062678,0.2453187678047722
-0.05963815789473685,0.08761811093433799,0.250013801262192
-0.05961315789473684,0.09400143523492495,0.2557149133176327
-0.05958815789473684,0.1003847595355061,0.2607453063077231
-0.05956315789473685,0.1064321193992173,0.2661110588304886
-0.05953815789473685,0.1131514081366742,0.2714768113532541
-0.05951315789473685,0.1195347324372583,0.2768425638760196
-0.05948815789473684,0.1262540211747181,0.283214394996806
-0.05946315789473684,0.1326373454752992,0.2882447879868963
-0.05943815789473685,0.1386847053390105,0.293275180976989
-0.05941315789473685,0.1447320652027217,0.2979702144344088
-0.05938815789473685,0.15044346062956,0.3016591692938101
-0.05936315789473684,0.1561548560564008,0.3050127646205399
-0.05933815789473684,0.1615302870463639,0.3080310004145942
-0.05931315789473685,0.1665697535994566,0.3110492362086498
-0.05928815789473685,0.172281149026295,0.3147381910680511
-0.05926315789473685,0.1779925444531333,0.3180917863947795
-0.05923815789473684,0.1833679754431013,0.3224514603195283
-0.05921315789473684,0.1887434064330644,0.3264757747116006
-0.05918815789473685,0.1944548018599027,0.3311708081690204
-0.05916315789473685,0.200502161723614,0.3362012011591131
-0.05913815789473685,0.2062135571504523,0.3405608750838601
-0.05911315789473684,0.2122609170141661,0.3449205490086089
-0.05908815789473684,0.2179723124410019,0.3489448634006812
-0.05906315789473685,0.2233477434309674,0.3526338182600825
-0.05903815789473685,0.2290591388578058,0.355987413586811
-0.05901315789473685,0.2344345698477713,0.3590056493808665
-0.05898815789473684,0.2394740364008664,0.3616885256422507
-0.05896315789473684,0.2448494673908295,0.3647067614363049
-0.05893815789473685,0.250224898380795,0.3677249972303605
-0.05891315789473685,0.2556003293707605,0.371078592557089
-0.05888815789473685,0.2599678670501075,0.3734261092857989
-0.05886315789473684,0.2653432980400753,0.3767797046125287
-0.05883815789473684,0.2703827645931657,0.3797979404065829
-0.05881315789473684,0.2750862667093855,0.3828161762006385
-0.05878815789473685,0.2801257332624782,0.386169771527367
-0.05876315789473685,0.284829235378698,0.3885172882560769
-0.05873815789473684,0.28953273749492,0.3912001645174607
-0.05871315789473684,0.2942362396111377,0.3935476812461696
-0.05868815789473684,0.2989397417273575,0.3955598384422067
-0.05866315789473685,0.3036432438435774,0.3982427147035894
-0.05863815789473685,0.3076748170860515,0.3995841528342808
-0.05861315789473684,0.3123783192022733,0.4015963100303186
-0.05858815789473684,0.3167458568816183,0.4032731076936821
-0.05856315789473684,0.3207774301240925,0.4049499053570463
-0.05853815789473685,0.3251449678034394,0.4069620625530834
-0.05851315789473685,0.3288405766090408,0.4083035006837747
-0.05848815789473684,0.3332081142883894,0.4103156578798126
-0.05846315789473684,0.336903723093989,0.411992455543176
-0.05843815789473684,0.3409352963364632,0.4133338936738674
-0.05841315789473685,0.3453028340158102,0.4153460508699044
-0.05838815789473685,0.3486624783845386,0.4166874890005959
-0.05836315789473684,0.3526940516270144,0.4176935675986146
-0.05833815789473684,0.3563896604326141,0.4183642866639601
-0.05831315789473684,0.3590773759275968,0.4183642866639601
-0.05828815789473685,0.363108949170071,0.4190350057293057
-0.05826315789473685,0.3657966646650537,0.4190350057293057
-0.05823815789473685,0.3691563090337806,0.4193703652619785
-0.05821315789473684,0.3721799889656378,0.4197057247946515
-0.05818815789473684,0.3752036688974934,0.4203764438599971
-0.05816315789473685,0.3788992777030947,0.4217178819906885
-0.05813815789473685,0.3819229576349503,0.4223886010560342
-0.05811315789473685,0.3849466375668045,0.4230593201213796
-0.05808815789473684,0.3879703174986615,0.4237300391867256
-0.05806315789473684,0.3909939974305171,0.4237300391867256
-0.05803815789473685,0.393345748488627,0.4237300391867256
-0.05801315789473685,0.3956974995467369,0.422723960588707
-0.05798815789473685,0.3980492506048458,0.4223886010560344
-0.05796315789473684,0.4000650372260839,0.42071180339267
-0.05793815789473684,0.4017448594104481,0.4193703652619786
-0.05791315789473685,0.4044325749054309,0.4186996461966329
-0.05788815789473685,0.4057764326529223,0.4173582080659415
-0.05786315789473685,0.4084641481479038,0.4170228485332689
-0.05783815789473684,0.4104799347691421,0.4173582080659415
-0.05781315789473684,0.4121597569535063,0.4170228485332687
-0.05778815789473685,0.4148474724484891,0.4176935675986144
-0.05776315789473685,0.4161913301959805,0.4170228485332687
-0.05773815789473685,0.4185430812540893,0.416687489000596
-0.05771315789473684,0.4195509745647089,0.4153460508699044
-0.05768815789473684,0.4202229034384546,0.4133338936738674
-0.05766315789473685,0.421566761185946,0.4109863769451575
-0.05763815789473685,0.421566761185946,0.4079681411511019
-0.05761315789473685,0.4222386900596913,0.4052852648897203
-0.05758815789473684,0.4225746544965646,0.4019316695629907
-0.05756315789473684,0.4232465833703102,0.3995841528342808
-0.05753815789473685,0.4242544766809287,0.3975719956382437
-0.05751315789473685,0.4245904411178016,0.3955598384422067
-0.05748815789473685,0.4259342988652924,0.3945537598441886
-0.05746315789473684,0.4266062277390387,0.3932123217134967
-0.05743815789473684,0.4276141210496572,0.3922062431154782
-0.05741315789473685,0.4286220143602757,0.3915355240501325
-0.05738815789473685,0.4286220143602757,0.3891880073214226
-0.05736315789473685,0.4289579787971484,0.3871758501253864
