measurement/exam_2/balance.csv

#Digilent WaveForms Oscilloscope Acquisition
#Device Name: DiscoveryStudio
#Serial Number: SN:210384B18F1D
#Date Time: 2026-07-09 06:19:22.245
#Sample rate: 40000Hz
#Samples: 8192
#Trigger: Source: Channel 1 Type: Edge Condition: Rising Level: 0 V Hyst.: Auto HoldOff: 0 s
#Channel 1: Range: 500 mV/div Offset: 0 V Sample Mode: Average
#Channel 2: Range: 500 mV/div Offset: 0 V Sample Mode: Average

Time (s),Channel 1 (V),Channel 2 (V)
0.09111851851851853,0.7625706646118838,-0.0004997696444229864
0.09114351851851854,0.7766811709605493,-0.0004997696444229864
0.09116851851851854,0.7897837839985843,-0.0004997696444229864
0.09119351851851853,0.8042302547841166,-0.0004997696444229864
0.09121851851851853,0.8166609389484119,-0.0004997696444229864
0.09124351851851853,0.82942758754958,-0.0004997696444229864
0.09126851851851854,0.8421942361507534,-0.0004997696444229864
0.09129351851851854,0.8539529914412977,-0.0004997696444229864
0.09131851851851853,0.8667196400424658,-0.0004997696444229864
0.09134351851851853,0.8781424308961425,-0.0004997696444229864
0.09136851851851853,0.8899011861866921,-0.0004997696444229864
0.09139351851851854,0.9019959059141195,-0.0004997696444229864
0.09141851851851854,0.9130827323309184,-0.0004997696444229864
0.09144351851851854,0.924841487621468,-0.0004997696444229864
0.09146851851851853,0.935592349601399,-0.0004997696444229864
0.09149351851851853,0.946679176018203,-0.0004997696444229864
0.09151851851851854,0.9577660024350112,-0.0004997696444229864
0.09154351851851854,0.9671730066674464,-0.0004997696444229864
0.09156851851851854,0.9779238686473776,-0.0004997696444229864
0.09159351851851853,0.9863229795691987,-0.000835129177095831
0.09161851851851853,0.9960659482385111,-0.0004997696444229864
0.09164351851851854,1.005472952470954,-0.0004997696444229864
0.09166851851851854,1.013536098955899,-0.0004997696444229864
0.09169351851851854,1.022607138751466,-0.0004997696444229864
0.09171851851851853,1.030334320799541,-0.0004997696444229864
0.09174351851851853,1.039069396158235,-0.000835129177095831
0.09176851851851854,1.047132542643187,-0.0004997696444229864
0.09179351851851854,1.054187795817513,-0.0004997696444229864
0.09181851851851854,1.062586906739334,-0.0004997696444229864
0.09184351851851853,1.068634266603046,-0.0004997696444229864
0.09186851851851853,1.075689519777375,-0.000835129177095831
0.09189351851851854,1.082408808514835,-0.000835129177095831
0.09191851851851854,1.088120203941671,-0.000835129177095831
0.09194351851851854,1.095175457116,-0.000835129177095831
0.09196851851851853,1.100214923669093,-0.000835129177095831
0.09199351851851853,1.106262283532804,-0.000835129177095831
0.09201851851851853,1.11197367895964,-0.000835129177095831
0.09204351851851854,1.116677181075862,-0.000835129177095831
0.09206851851851854,1.122724540939574,-0.000835129177095831
0.09209351851851853,1.126084185308302,-0.000835129177095831
0.09211851851851853,1.130451722987649,-0.000835129177095831
0.09214351851851853,1.134147331793249,-0.000835129177095831
0.09216851851851854,1.136835047288233,-0.000835129177095831
0.09219351851851854,1.140866620530707,-0.000835129177095831
0.09221851851851853,1.142210478278199,-0.000835129177095831
0.09224351851851853,1.145570122646927,-0.000835129177095831
0.09226851851851853,1.148593802578781,-0.000835129177095831
0.09229351851851854,1.150273624763147,-0.000835129177095831
0.09231851851851854,1.153969233568748,-0.000835129177095831
0.09234351851851853,1.15531309131624,-0.0004997696444229864
0.09236851851851853,1.15766484237435,-0.000835129177095831
0.09239351851851853,1.159344664558713,-0.000835129177095831
0.09241851851851854,1.159680628995587,-0.000835129177095831
0.09244351851851854,1.161360451179951,-0.000835129177095831
0.09246851851851853,1.16001659343246,-0.000835129177095831
0.09249351851851853,1.159680628995587,-0.000835129177095831
0.09251851851851853,1.159344664558714,-0.000835129177095831
0.09254351851851854,1.157328877937477,-0.000835129177095831
0.09256851851851854,1.157328877937477,-0.000835129177095831
0.09259351851851853,1.154977126879367,-0.000835129177095831
0.09261851851851853,1.153633269131875,-0.000835129177095831
0.09264351851851853,1.152289411384385,-0.000835129177095831
0.09266851851851854,1.149265731452529,-0.000835129177095831
0.09269351851851854,1.14825783814191,-0.000835129177095831
0.09271851851851853,1.144562229336309,-0.000835129177095831
0.09274351851851853,1.141874513841326,-0.000835129177095831
0.09276851851851853,1.139186798346344,-0.000835129177095831
0.09279351851851854,1.135155225103869,-0.000835129177095831
0.09281851851851854,1.132803474045759,-0.000835129177095831
0.09284351851851853,1.128435936366412,-0.000835129177095831
0.09286851851851853,1.125076291997684,-0.000835129177095831
0.09289351851851853,1.121380683192084,-0.000835129177095831
0.09291851851851854,1.11634121663899,-0.000835129177095831
0.09294351851851854,1.112645607833388,-0.000835129177095831
0.09296851851851853,1.106262283532804,-0.000835129177095831
0.09299351851851853,1.100886852542839,-0.000835129177095831
0.09301851851851853,1.09483949267913,-0.000835129177095831
0.09304351851851854,1.087448275067925,-0.000835129177095831
0.09306851851851854,1.081736879641086,-0.000835129177095831
0.09309351851851853,1.073337768719265,-0.001170488709768676
0.09311851851851853,1.066618479981809,-0.000835129177095831
0.09314351851851853,1.059899191244355,-0.000835129177095831
0.09316851851851854,1.052172009196276,-0.000835129177095831
0.09319351851851854,1.046124649332565,-0.000835129177095831
0.09321851851851853,1.037389573973871,-0.001170488709768676
0.09324351851851853,1.029662391925796,-0.001170488709768676
0.09326851851851853,1.021599245440851,-0.001170488709768676
0.09329351851851854,1.012192241208408,-0.000835129177095831
0.09331851851851854,1.004129094723459,-0.001170488709768676
0.09334351851851853,0.9933782327435284,-0.001170488709768676
0.09336851851851853,0.9839712285110888,-0.000835129177095831
0.09339351851851853,0.9742282598417762,-0.000835129177095831
0.09341851851851854,0.9634773978618452,-0.000835129177095831
0.09344351851851854,0.9547423225031513,-0.000835129177095831
0.09346851851851853,0.9433195316494745,-0.000835129177095831
0.09349351851851853,0.933576562980162,-0.001170488709768676
0.09351851851851853,0.922825701000231,-0.000835129177095831
0.09354351851851854,0.9114029101465542,-0.000835129177095831
0.09356851851851854,0.9006520481666231,-0.000835129177095831
0.09359351851851853,0.8882213640023279,-0.000835129177095831
0.09361851851851853,0.8767985731486512,-0.000835129177095831
0.09364351851851853,0.8647038534212287,-0.000835129177095831
0.09366851851851854,0.8522731692569334,-0.000835129177095831
0.09369351851851854,0.8411863428401296,-0.000835129177095831
0.09371851851851853,0.8277477653652158,-0.001170488709768676
0.09374351851851853,0.8156530456377934,-0.000835129177095831
0.09376851851851853,0.8032223614734981,-0.000835129177095831
0.09379351851851854,0.7894478195617057,-0.000835129177095831
0.09381851851851854,0.7770171353974161,-0.000835129177095831
0.09384351851851853,0.7625706646118838,-0.001170488709768676
0.09386851851851853,0.7484601582632243,-0.000835129177095831
0.09389351851851853,0.7346856163514377,-0.000835129177095831
0.09391851851851854,0.7199031811290264,-0.0008351291770959836
0.09394351851851854,0.7064646036541187,-0.001170488709768676
0.09396851851851853,0.6910102395579678,-0.001170488709768676
0.09399351851851853,0.6772356976461812,-0.000835129177095831
0.09401851851851853,0.6631251912975217,-0.001170488709768676
0.09404351851851854,0.648006791638237,-0.000835129177095831
0.09406851851851854,0.6335603208527113,-0.000835129177095831
0.09409351851851853,0.6174340278828148,-0.001170488709768676
0.09411851851851853,0.6019796637866639,-0.001170488709768676
0.09414351851851853,0.5861893352536401,-0.001170488709768676
0.09416851851851854,0.5697270778468637,-0.000835129177095831
0.09419351851851854,0.5542727137507198,-0.000835129177095831
0.09421851851851853,0.536802563033332,-0.001170488709768676
0.09424351851851853,0.5206762700634353,-0.001170488709768676
0.09426851851851853,0.504214012656666,-0.001170488709768676
0.09429351851851854,0.4874157908130163,-0.0008351291770959836
0.09431851851851854,0.4712894978431271,-0.001170488709768676
0.09434351851851853,0.4534833826888663,-0.000835129177095831
0.09436851851851853,0.4370211252820969,-0.001170488709768676
0.09439351851851853,0.4198869390015817,-0.001170488709768676
0.09441851851851854,0.402752752721059,-0.001170488709768676
0.09444351851851854,0.3859545308774244,-0.001170488709768676
0.09446851851851853,0.3681484157231636,-0.001170488709768676
0.09449351851851853,0.3510142294426485,-0.001170488709768676
0.09451851851851853,0.3335440787252606,-0.001170488709768676
0.09454351851851854,0.315737963570992,-0.001170488709768523
0.09456851851851854,0.2986037772904847,-0.000835129177095831
0.09459351851851854,0.2797897688256054,-0.000835129177095831
0.09461851851851853,0.2623196181082174,-0.000835129177095831
0.09464351851851853,0.243841574080211,-0.000835129177095831
0.09466851851851854,0.2253635300521963,-0.0008351291770959836
0.09469351851851854,0.2072214504610708,-0.001170488709768676
0.09471851851851854,0.1884074419961915,-0.000835129177095831
0.09474351851851853,0.1702653624050579,-0.001170488709768676
0.09476851851851853,0.1524592472507971,-0.001170488709768676
0.09479351851851854,0.1343171676596552,-0.001170488709768676
0.09481851851851854,0.1161750880685298,-0.001170488709768676
0.09484351851851854,0.09803300847739618,-0.001170488709768676
0.09486851851851853,0.07989092888626256,-0.001170488709768676
0.09489351851851853,0.06242077816887462,-0.001170488709768676
0.09491851851851854,0.04461466301460573,-0.001170488709768676
0.09494351851851854,0.02680854786035303,-0.001170488709768676
0.09496851851851854,0.009002432706092245,-0.001170488709768676
0.09499351851851853,-0.008803682448168544,-0.001170488709768676
0.09501851851851853,-0.02593786872868364,-0.001170488709768676
0.09504351851851854,-0.04374398388295253,-0.001170488709768523
0.09506851851851854,-0.06155009903720522,-0.000835129177095831
0.09509351851851854,-0.07969217862833886,-0.000835129177095831
0.09511851851851853,-0.09817022265634534,-0.000835129177095831
0.09514351851851853,-0.1166482666843518,-0.000835129177095831
0.09516851851851853,-0.1351263107123499,-0.000835129177095831
0.09519351851851854,-0.1536043547403648,-0.000835129177095831
0.09521851851851854,-0.1720823987683713,-0.001170488709768676
0.09524351851851853,-0.1905604427963777,-0.000835129177095831
0.09526851851851853,-0.2090384868243842,-0.000835129177095831
0.09529351851851853,-0.2268446019786369,-0.000835129177095831
0.09531851851851854,-0.2449866815697786,-0.000835129177095831
0.09534351851851854,-0.2634647255977852,-0.001170488709768676
0.09536851851851853,-0.2816068051889188,-0.001170488709768676
0.09539351851851853,-0.2994129203431796,-0.001170488709768676
0.09541851851851853,-0.3172190354974322,-0.001170488709768676
0.09544351851851854,-0.335361115088574,-0.001170488709768676
0.09546851851851854,-0.352831265805962,-0.001170488709768676
0.09549351851851853,-0.3703014165233499,-0.000835129177095831
0.09551851851851853,-0.3877715672407379,-0.000835129177095831
0.09554351851851853,-0.4042338246474997,-0.000835129177095831
0.09556851851851854,-0.4213680109280223,-0.000835129177095831
0.09559351851851854,-0.4381662327716646,-0.000835129177095831
0.09561851851851853,-0.4549644546153068,-0.000835129177095831
0.09564351851851853,-0.4714267120220763,-0.0004997696444229864
0.09566851851851853,-0.4878889694288382,-0.0008351291770956786
0.09569351851851854,-0.5046871912724878,-0.000835129177095831
0.09571851851851854,-0.5211494486792573,-0.000835129177095831
0.09574351851851853,-0.5372757416491538,-0.000835129177095831
0.09576851851851853,-0.5537379990559232,-0.000835129177095831
0.09579351851851853,-0.5695283275889398,-0.000835129177095831
0.09581851851851854,-0.5859905849957164,-0.000835129177095831
0.09584351851851854,-0.6014449490918673,-0.001170488709768676
0.09586851851851853,-0.6175712420617638,-0.000835129177095831
0.09589351851851853,-0.6326896417210418,-0.000835129177095831
0.09591851851851853,-0.647808041380313,-0.001170488709768523
0.09594351851851854,-0.6635983699133436,-0.000835129177095831
0.09596851851851854,-0.6783808051357488,-0.001170488709768676
0.09599351851851853,-0.6934992047950268,-0.000835129177095831
0.09601851851851853,-0.708281640017432,-0.000835129177095831
0.09604351851851853,-0.7223921463660851,-0.000835129177095831
0.09606851851851854,-0.7378465104622424,-0.000835129177095831
0.09609351851851854,-0.7512850879371562,-0.000835129177095831
0.09611851851851853,-0.7653955942858156,-0.0004997696444229864
0.09614351851851853,-0.7791701361976023,-0.000835129177095831
0.09616851851851853,-0.7922727492356373,-0.000835129177095831
0.09619351851851854,-0.8060472911474299,-0.000835129177095831
0.09621851851851854,-0.8184779753117252,-0.0004997696444229864
0.09624351851851853,-0.8315805883497661,-0.0004997696444229864
0.09626851851851853,-0.8446832013878071,-0.000835129177095831
0.09629351851851853,-0.856777921115224,-0.000835129177095831
0.09631851851851854,-0.8702164985901434,-0.000835129177095831
0.09634351851851854,-0.8816392894438201,-0.000835129177095831
0.09636851851851853,-0.8937340091712425,-0.000835129177095831
0.09639351851851853,-0.9054927644617921,-0.000835129177095831
0.09641851851851853,-0.9162436264417182,-0.000835129177095831
0.09644351851851854,-0.9280023817322727,-0.000835129177095831
0.09646851851851854,-0.938081314838458,-0.000835129177095831
0.09649351851851853,-0.9488321768183891,-0.000835129177095831
0.09651851851851853,-0.9595830387983201,-0.000835129177095831
0.09654351851851853,-0.9689900430307598,-0.000835129177095831
0.09656851851851854,-0.9800768694475637,-0.000835129177095831
0.09659351851851854,-0.9894838736800033,-0.000835129177095831
0.09661851851851853,-0.9992268423493158,-0.0004997696444229864
0.09664351851851853,-1.008969811018628,-0.000835129177095831
0.09666851851851853,-1.017704886377322,-0.000835129177095831
0.09669351851851854,-1.026775926172889,-0.0004997696444229864
0.09671851851851854,-1.034503108220965,-0.0004997696444229864
0.09674351851851853,-1.042902219142786,-0.000835129177095831
0.09676851851851853,-1.050293436753988,-0.000835129177095831
0.09679351851851853,-1.057348689928318,-0.000835129177095831
0.09681851851851854,-1.066083765287015,-0.000835129177095831
0.09684351851851854,-1.072467089587596,-0.000835129177095831
0.09686851851851853,-1.079858307198799,-0.000835129177095831
0.09689351851851853,-1.086913560373129,-0.000835129177095831
0.09691851851851853,-1.09296092023684,-0.000835129177095831
0.09694351851851854,-1.100016173411172,-0.0004997696444231389
0.09696851851851854,-1.104719675527389,-0.000835129177095831
0.09699351851851853,-1.110431070954228,-0.0004997696444229864
0.09701851851851853,-1.11547053750732,-0.000835129177095831
0.09704351851851853,-1.12017403962354,-0.0004997696444229864
0.09706851851851854,-1.126557363924126,-0.0008351291770956785
0.09709351851851854,-1.130588937166598,-0.0004997696444229864
0.09711851851851853,-1.135964368156564,-0.0004997696444229864
0.09714351851851853,-1.140667870272784,-0.000835129177095831
0.09716851851851853,-1.144027514641512,-0.0004997696444229864
0.09719351851851854,-1.148731016757733,-0.0004997696444229864
0.09721851851851854,-1.150410838942096,-0.0004997696444229864
0.09724351851851853,-1.153098554437079,-0.0004997696444229864
0.09726851851851853,-1.155450305495189,-0.0004997696444229864
0.09729351851851853,-1.156122234368935,-0.0004997696444229864
0.09731851851851854,-1.158473985427045,-0.0004997696444229864
0.09734351851851854,-1.158809949863917,-0.0004997696444229864
0.09736851851851853,-1.160153807611409,-0.0004997696444229864
0.09739351851851853,-1.162169594232646,-0.0004997696444229864
0.09741851851851853,-1.162841523106392,-0.0004997696444229864
0.09744351851851854,-1.164857309727629,-0.0004997696444229864
0.09746851851851854,-1.164857309727629,-0.0004997696444229864
0.09749351851851853,-1.165529238601374,-0.0004997696444229864
0.09751851851851853,-1.165529238601374,-0.0004997696444229864
0.09754351851851853,-1.164185380853883,-0.0004997696444229864
0.09756851851851854,-1.164521345290754,-0.0004997696444229864
0.09759351851851854,-1.161833629795773,-0.0004997696444229864
0.09761851851851854,-1.160825736485154,-0.000835129177095831
0.09764351851851853,-1.158809949863917,-0.0004997696444229864
0.09766851851851853,-1.155786269932062,-0.0004997696444229864
0.09769351851851854,-1.154442412184569,-0.0004997696444229864
0.09771851851851854,-1.150410838942096,-0.0004997696444229864
0.09774351851851854,-1.147387159010241,-0.0004997696444229864
0.09776851851851853,-1.144027514641512,-0.0004997696444229864
0.09779351851851853,-1.139659976962165,-0.0004997696444229864
0.09781851851851854,-1.137644190340926,-0.0004997696444229864
0.09784351851851854,-1.132940688224708,-0.0004997696444229864
0.09786851851851854,-1.12958104385598,-0.0004997696444229864
0.09789351851851853,-1.125885435050379,-0.0004997696444229864
0.09791851851851853,-1.121517897371032,-0.0004997696444229864
0.09794351851851854,-1.1181582530023,-0.0004997696444229864
0.09796851851851854,-1.112110893138592,-0.0004997696444229864
0.09799351851851854,-1.106735462148626,-0.0004997696444229864
0.09801851851851853,-1.100688102284915,-0.0004997696444229864
0.09804351851851853,-1.093296884673713,-0.0001644101117501417
0.09806851851851854,-1.087249524809998,-0.0001644101117502942
0.09809351851851854,-1.07885041388818,-0.0004997696444229864
0.09811851851851854,-1.072131125150723,-0.0001644101117501417
0.09814351851851853,-1.065747800850139,-0.0001644101117501417
0.09816851851851853,-1.057684654365191,-0.0001644101117501417
0.09819351851851854,-1.051637294501476,-0.0001644101117501417
0.09821851851851854,-1.043238183579659,-0.0001644101117501417
0.09824351851851854,-1.036182930405329,-0.0001644101117501417
0.09826851851851853,-1.028119783920381,-0.0001644101117501417
0.09829351851851853,-1.018712779687941,-0.0001644101117501417
0.09831851851851853,-1.010649633202996,-0.0001644101117501417
0.09834351851851854,-0.9998987712230616,-0.0001644101117501417
0.09836851851851854,-0.9904917669906219,-0.0001644101117501417
0.09839351851851853,-0.9804128338844366,-0.0001644101117501417
0.09841851851851853,-0.9696619719045054,-0.0001644101117501417
0.09844351851851853,-0.9609268965458155,-0.0001644101117501417
0.09846851851851854,-0.9491681412552619,-0.0001644101117501417
0.09849351851851854,-0.9394251725859494,-0.0001644101117501417
0.09851851851851853,-0.9286743106060183,-0.0001644101117501417
0.09854351851851853,-0.9172515197523416,-0.0001644101117501417
0.09856851851851853,-0.9068366222092882,0.0001709494209225506
0.09859351851851854,-0.894741902481861,-0.0001644101117501417
0.09861851851851854,-0.8829831471913114,-0.0001644101117501417
0.09864351851851853,-0.8712243919007618,-0.0001644101117501417
0.09866851851851853,-0.8587937077364666,-0.0001644101117501417
0.09869351851851853,-0.8470349524459223,-0.0001644101117501417
0.09871851851851854,-0.8335963749710033,0.000170949420922703
0.09874351851851854,-0.8215016552435808,-0.0001644101117501417
0.09876851851851853,-0.8087350066424127,-0.0001644101117501417
0.09879351851851853,-0.7952964291674989,-0.0001644101117501417
0.09881851851851853,-0.7828657450032093,0.0001709494209225506
0.09884351851851854,-0.7687552386545441,-0.0001644101117501417
0.09886851851851854,-0.7549806967427575,-0.0001644101117501417
0.09889351851851853,-0.7412061548309709,0.000170949420922703
0.09891851851851853,-0.7264237196085657,0.000170949420922703
0.09894351851851853,-0.7126491776967852,-0.0001644101117499892
0.09896851851851854,-0.6971948136006281,-0.0001644101117501417
0.09899351851851854,-0.6824123783782229,-0.0001644101117501417
0.09901851851851853,-0.6676299431558177,-0.0001644101117501417
0.09904351851851853,-0.6525115434965397,0.000170949420922703
