measurement/exam_2/hifi.csv

#Digilent WaveForms Oscilloscope Acquisition
#Device Name: DiscoveryStudio
#Serial Number: SN:210384B18F1D
#Date Time: 2026-07-09 06:27:26.918
#Sample rate: 40000Hz
#Samples: 8192
#Trigger: Source: Channel 1 Type: Edge Condition: Rising Level: 0 V Hyst.: Auto HoldOff: 0 s
#Channel 1: Range: 500 mV/div Offset: 0 V Sample Mode: Average
#Channel 2: Range: 500 mV/div Offset: 0 V Sample Mode: Average

Time (s),Channel 1 (V),Channel 2 (V)
0.03414932432432434,0.4336614809133684,0.002518466149632616
0.03417432432432435,0.4229106189334319,-0.02363957739886193
0.03419932432432435,0.410815899206015,-0.05147441861069538
0.03422432432432435,0.3990571439154654,-0.07796782169185011
0.03424932432432434,0.3869624241880429,-0.104125865240332
0.03427432432432434,0.3748677044606205,-0.1292778301907954
0.03429932432432435,0.361765091422573,-0.1544297951412703
0.03432432432432435,0.3473186206370472,-0.1799171196243949
0.03434932432432435,0.3332081142883878,-0.2054044441075311
0.03437432432432434,0.3177537501922368,-0.2298856899926487
0.03439932432432434,0.3036432438435774,-0.2536962168124207
0.03442432432432435,0.2895327374949113,-0.2775067436322037
0.03444932432432435,0.2750862667093855,-0.3016526299846375
0.03447432432432435,0.2606397959238532,-0.3261338758697552
0.03449932432432434,0.2455213962645752,-0.3512858408202185
0.03452432432432434,0.23073896104217,-0.376102446238009
0.03454932432432435,0.2159565258197579,-0.3995776135251188
0.03457432432432435,0.2008381261604868,-0.4230527808122073
0.03459932432432435,0.1863916553749545,-0.4458572290339607
0.03462432432432434,0.1709372912788036,-0.4676555986576957
0.03464932432432434,0.1568267849301441,-0.4894539682814306
0.03467432432432435,0.143052243018351,-0.51058161883983
0.03469932432432435,0.128941736669698,-0.5327153479962276
0.03472432432432435,0.1151671947579113,-0.5551844366853081
0.03474932432432434,0.100720723972379,-0.5776535253743887
0.03477432432432434,0.08593828874997378,-0.6007933331288151
0.03479932432432435,0.07182778240130801,-0.6225917027525598
0.03482432432432435,0.05805324048952763,-0.6443900723762849
0.03484932432432435,0.0429348408302496,-0.6655177229346741
0.03487432432432434,0.02815240560784442,-0.6856392948950448
0.03489932432432434,0.01336997038543923,-0.706766945453434
0.03492432432432435,-0.001412464836972827,-0.7272238769464868
0.03494932432432435,-0.01653086449624398,-0.747680808439521
0.03497432432432435,-0.0323211930292677,-0.7684730994652375
0.03499932432432434,-0.0494553793097828,-0.7875885928275895
0.03502432432432434,-0.06658956559029791,-0.8087162433859788
0.03504932432432434,-0.08439568074455059,-0.8274963772156495
0.03507432432432435,-0.1025377603356923,-0.8459411515126646
0.03509932432432435,-0.118328088868716,-0.8637152067443253
0.03512432432432434,-0.1337824529648669,-0.8804831833779676
0.03514932432432434,-0.1499087459347635,-0.8995986767403197
0.03517432432432434,-0.1663710033415254,-0.9180434510373178
0.03519932432432435,-0.1851850118064122,-0.9374943039323511
0.03522432432432435,-0.2026551625238002,-0.9579512354253947
0.03524932432432434,-0.2187814554936967,-0.9760606501897283
0.03527432432432434,-0.2342358195898476,-0.9955115030847533
0.03529932432432434,-0.248010361501628,-1.013285558316406
0.03532432432432435,-0.2641366544715308,-1.032065692146093
0.03534932432432435,-0.278919089693936,-1.0505104664431
0.03537432432432434,-0.2937015249163412,-1.066272364478724
0.03539932432432434,-0.3081479957018736,-1.084046419710384
0.03542432432432434,-0.3225944664873993,-1.099472958213328
0.03544932432432435,-0.3377128661466839,-1.114899496716286
0.03547432432432435,-0.352831265805962,-1.13066139475191
0.03549932432432434,-0.3666058077177486,-1.144411135591496
0.03552432432432434,-0.3817242073770266,-1.16017303362712
0.03554932432432434,-0.395498749288807,-1.174593493532046
0.03557432432432435,-0.4106171489480913,-1.190020032035003
0.03559932432432435,-0.4250636197336236,-1.205111211005281
0.03562432432432434,-0.439510090519156,-1.218190232779522
0.03564932432432434,-0.4553004190521797,-1.232610692684454
0.03567432432432434,-0.4697468898377055,-1.245018995393344
0.03569932432432435,-0.4845293250601172,-1.257091938569572
0.03572432432432435,-0.4976319380981582,-1.269164881745795
0.03574932432432434,-0.510734551136199,-1.278890308193307
0.03577432432432434,-0.5255169863586042,-1.291969329967548
0.03579932432432434,-0.5419792437653662,-1.305383711274456
0.03582432432432435,-0.5604572877933801,-1.32047489024474
0.03584932432432435,-0.5782634029476409,-1.335566069215018
0.03587432432432434,-0.5937177670437919,-1.346632933793222
0.03589932432432434,-0.6081642378293242,-1.358035157904098
0.03592432432432434,-0.6205949219936138,-1.367089865286261
0.03594932432432435,-0.6330256061579147,-1.378156729864469
0.03597432432432435,-0.6457922547590829,-1.390565032573364
0.03599932432432434,-0.6575510100496323,-1.40062581855355
0.03602432432432434,-0.6696457297770548,-1.412363402197099
0.03604932432432434,-0.6810685206307263,-1.421753469111935
0.03607432432432435,-0.693163240358154,-1.431814255092124
0.03609932432432435,-0.7052579600855764,-1.442881119670328
0.03612432432432434,-0.7150009287548889,-1.449923669856458
0.03614932432432434,-0.72575179073482,-1.460319815369316
0.03617432432432434,-0.7371745815884915,-1.470045241816824
0.03619932432432435,-0.7526289456846476,-1.484130342189088
0.03622432432432435,-0.7724508474601454,-1.502910476018767
0.03624932432432434,-0.7912648559250247,-1.518337014521718
0.03627432432432434,-0.8094069355161584,-1.533763553024669
0.03629932432432434,-0.8215016552435752,-1.542147541341486
0.03632432432432435,-0.8322525172235118,-1.547513293864256
0.03634932432432435,-0.84266741476657,-1.55388512498504
0.03637432432432434,-0.8530823123096283,-1.558580158442459
0.03639932432432434,-0.8655129964739235,-1.566628787226608
0.03642432432432434,-0.8759278940169817,-1.571323820684028
0.03644932432432435,-0.8856708626862942,-1.576018854141447
0.03647432432432435,-0.8964217246662253,-1.581719966196886
0.03649932432432434,-0.9061646933355377,-1.584402842458269
0.03652432432432434,-0.9175874841892145,-1.589768594981034
0.03654932432432434,-0.9263225595479084,-1.591780752177071
0.03657432432432435,-0.9350576349066024,-1.593457549840435
0.03659932432432435,-0.9454725324496607,-1.598152583297855
0.03662432432432434,-0.9572312877402102,-1.602176897689929
0.03664932432432434,-0.9730216162732339,-1.611902324137442
0.03667432432432434,-0.9878040514956391,-1.618944874323571
0.03669932432432435,-1.000234735659935,-1.623304548248319
0.03672432432432435,-1.008969811018628,-1.624981345911683
0.03674932432432435,-1.013337348697976,-1.621292391052281
0.03677432432432434,-1.019384708561687,-1.620957031519609
0.03679932432432434,-1.024760139551652,-1.619280233856244
0.03682432432432435,-1.031479428289113,-1.619950952921591
0.03684932432432435,-1.039206610337184,-1.621627750584954
0.03687432432432435,-1.043910112453404,-1.618944874323571
0.03689932432432434,-1.049957472317116,-1.618609514790899
0.03692432432432434,-1.05398904555959,-1.615591278996843
0.03694932432432435,-1.058020618802066,-1.612237683670114
0.03697432432432435,-1.063060085355157,-1.61056088600675
0.03699932432432435,-1.068099551908249,-1.607542650212695
0.03702432432432434,-1.078178485014434,-1.610896245539423
0.03704932432432434,-1.09060916917873,-1.615926638529516
0.03707432432432435,-1.104719675527395,-1.622633829182975
0.03709932432432435,-1.11782228856543,-1.628670300771084
0.03712432432432435,-1.124541577302887,-1.62699350310772
0.03714932432432434,-1.130588937166598,-1.624981345911683
0.03717432432432434,-1.133276652661581,-1.619615593388917
0.03719932432432435,-1.136636297030311,-1.614249840866151
0.03722432432432435,-1.140667870272784,-1.611566964604769
0.03724932432432435,-1.142347692457148,-1.605195133483985
0.03727432432432434,-1.145707336825876,-1.601506178624584
0.03729932432432434,-1.147051194573368,-1.5951343475038
0.03732432432432435,-1.149066981194605,-1.589433235448358
0.03734932432432435,-1.150746803378969,-1.583732123392923
0.03737432432432435,-1.149402945631478,-1.573671337412738
0.03739932432432434,-1.150410838942096,-1.565622708628589
0.03742432432432434,-1.152426625563333,-1.557574079844441
0.03744932432432435,-1.159481878737668,-1.554891203583059
0.03747432432432435,-1.169560811843849,-1.555897282181077
0.03749932432432435,-1.176616065018178,-1.553214405919694
0.03752432432432434,-1.182999389318762,-1.549525451060293
0.03754932432432434,-1.184007282629381,-1.539464665080107
0.03757432432432435,-1.184007282629381,-1.528062440969226
0.03759932432432435,-1.184679211503126,-1.517330935923699
0.03762432432432435,-1.182999389318762,-1.50324583555144
0.03764932432432434,-1.182327460445016,-1.490837532842545
0.03767432432432434,-1.178967816076288,-1.474740275274248
0.03769932432432435,-1.176952029455051,-1.459649096303965
0.03772432432432435,-1.176952029455051,-1.447576153127748
0.03774932432432435,-1.175272207270687,-1.432820333690143
0.03777432432432434,-1.174936242833814,-1.419741311915902
0.03779932432432434,-1.171576598465085,-1.402302616216914
0.03782432432432435,-1.169560811843849,-1.385534639583266
0.03784932432432435,-1.171240634028213,-1.372455617809031
0.03787432432432435,-1.17325642064945,-1.360047315100135
0.03789932432432434,-1.178295887202542,-1.350657248185296
0.03792432432432434,-1.178967816076288,-1.336907507345709
0.03794932432432435,-1.176280100581303,-1.319804171179386
0.03797432432432435,-1.171240634028213,-1.301024037349715
0.03799932432432435,-1.16384941641701,-1.279561027258653
0.03802432432432434,-1.158138020990172,-1.260780893428973
0.03804932432432434,-1.150746803378969,-1.239653242870584
0.03807432432432435,-1.142011728020272,-1.218525592312185
0.03809932432432435,-1.1342845459722,-1.197733301286479
0.03812432432432435,-1.125549470613506,-1.176270291195417
0.03814932432432434,-1.119838075186667,-1.157490157365737
0.03817432432432434,-1.11311878644921,-1.137368585405367
0.03819932432432434,-1.105391604401138,-1.115570215781642
0.03822432432432435,-1.098000386789932,-1.092765767559878
0.03824932432432435,-1.089601275868111,-1.070296678870797
0.03827432432432434,-1.086913560373129,-1.05285798317181
0.03829932432432434,-1.086913560373129,-1.038102163734204
0.03832432432432434,-1.087921453683747,-1.024352422894624
0.03834932432432435,-1.086241631499383,-1.008255165326321
0.03837432432432435,-1.077842520577562,-0.985450717104568
0.03839932432432434,-1.067427623034503,-0.9606341116867775
0.03842432432432434,-1.054660974433336,-0.9338053490729499
0.03844932432432434,-1.043574148016537,-0.9076473055244798
0.03847432432432435,-1.034839072657838,-0.8835014191720232
0.03849932432432435,-1.024760139551652,-0.8576787351562141
0.03852432432432434,-1.015689099756085,-0.8331974892710965
0.03854932432432434,-1.004602273339281,-0.8077101647879602
0.03857432432432434,-0.9931794824856098,-0.781887480772163
0.03859932432432435,-0.9820926560688007,-0.7560647967563422
0.03862432432432435,-0.9693260074676326,-0.7278945960118233
0.03864932432432434,-0.9585751454877016,-0.7007304738653228
0.03867432432432434,-0.9481602479446434,-0.6745724303168409
0.03869932432432434,-0.9400971014596988,-0.6507619034970799
0.03872432432432435,-0.9327058838484925,-0.6299696124713525
0.03874932432432435,-0.9222909863054343,-0.6068298047169263
0.03877432432432434,-0.9105322310148848,-0.5826839183644814
0.03879932432432434,-0.8950778669187339,-0.5551844366853081
0.03882432432432434,-0.8789515739488446,-0.5266788764081294
0.03884932432432435,-0.8638331742895593,-0.4981733161309245
0.03887432432432435,-0.8473709168827899,-0.4689970367883871
0.03889932432432434,-0.8322525172235118,-0.4404914765111952
0.03892432432432434,-0.8161262242536153,-0.4116505567013306
0.03894932432432434,-0.8006718601574714,-0.3831449964241518
0.03897432432432435,-0.7865613538088049,-0.3563162338103112
0.03899932432432435,-0.771106989712654,-0.3294874711964836
0.03902432432432434,-0.7563245544902488,-0.3016526299846375
0.03904932432432434,-0.7405342259572252,-0.2728117101747729
0.03907432432432434,-0.7260877551716993,-0.243300071299576
0.03909932432432435,-0.7133211065705247,-0.2151298705550436
0.03912432432432435,-0.6988746357849923,-0.1869596698105246
0.03914932432432434,-0.6847641294363328,-0.15811875000066
0.03917432432432434,-0.6676299431558177,-0.1276010325274312
0.03919932432432434,-0.6491518991278197,-0.09741867458688884
0.03922432432432435,-0.6320177128472961,-0.06757167617899193
0.03924932432432435,-0.614883526566781,-0.03873075636912728
0.03927432432432434,-0.5987572335968845,-0.009889836559262639
0.03929932432432434,-0.5806151540057508,0.02096324044663907
0.03932432432432434,-0.5614651811040073,0.05282239605054483
0.03934932432432435,-0.541307314891628,0.08568763025249811
0.03937432432432435,-0.5201415553686387,0.1175467858564184
0.03939932432432434,-0.4999836891562681,0.1490705819276658
0.03942432432432434,-0.4801617873807703,0.1795882994008946
0.03944932432432434,-0.4606758500421541,0.2094352978087642
0.03947432432432435,-0.4418618415772659,0.239282296216661
0.03949932432432435,-0.422039939801768,0.2687939350918713
0.03952432432432434,-0.4018820735893973,0.2999823716304459
0.03954932432432434,-0.3797084207557895,0.3308354486363476
0.03957432432432434,-0.3578707323590546,0.362359244707595
0.03959932432432435,-0.3370409372729382,0.392541602648151
0.03962432432432435,-0.3165471066236947,0.4200410843273243
0.03964932432432434,-0.2973971337219425,0.4478759255391704
0.03967432432432434,-0.278919089693936,0.4743693286203252
0.03969932432432434,-0.2597691167921838,0.5032102484301897
0.03972432432432435,-0.2409551083273045,0.5333926063707458
0.03974932432432435,-0.2214691709886795,0.5629042452459561
0.03977432432432434,-0.2023191980869273,0.5930866031865121
0.03979932432432434,-0.1828332607483023,0.6222628825290496
0.03982432432432434,-0.164019252283423,0.6514391618715871
0.03984932432432435,-0.1455412082554084,0.6809508007468098
0.03987432432432435,-0.1277350931011557,0.7081149228932978
0.03989932432432435,-0.1095930135100221,0.7376265617685082
0.03992432432432434,-0.08943514729765137,0.7674735601763913
0.03994932432432434,-0.06692553002717075,0.8003387943783301
0.03997432432432435,-0.04139223282482261,0.8358869048416676
0.03999932432432435,-0.0151870067487526,0.8707642962396276
0.04002432432432435,0.01034629045358363,0.9056416876376034
0.04004932432432434,0.03386380103468278,0.9361594051108323
0.04007432432432434,0.05502956055767202,0.964664965388024
0.04009932432432435,0.0758593556437976,0.9924998065998822
0.04012432432432435,0.09601722185615913,1.018993209681025
0.04014932432432435,0.1168470169422755,1.047163410425544
0.04017432432432434,0.1373408475915191,1.073656813506699
0.04019932432432434,0.1578346782407626,1.100150216587853
0.04022432432432435,0.178328508890015,1.126308260136346
0.04024932432432435,0.1978144462286312,1.150789506021453
0.04027432432432435,0.2176363480041291,1.176612190037262
0.04029932432432434,0.2367863209058812,1.200758076389707
0.04032432432432434,0.2566082226813791,1.227251479470862
0.04034932432432435,0.2791178399518716,1.257098477878759
0.04037432432432435,0.3053230660279416,1.288957633482665
0.04039932432432435,0.3338800431621334,1.326182541609351
0.04042432432432434,0.3621010558594524,1.361730652072672
0.04044932432432434,0.3872983886249158,1.395266605339957
0.04047432432432435,0.4081281837110401,1.424442884682505
0.04049932432432435,0.4255983344284202,1.448253411502266
0.04052432432432435,0.4437404140195538,1.473740735985402
0.04054932432432434,0.4615465291738146,1.497215903272502
0.04057432432432434,0.4796886087649482,1.521697149157619
0.04059932432432435,0.4974947239192162,1.54651375457542
0.04062432432432435,0.5132850524522328,1.56898284326449
0.04064932432432435,0.5304192387327479,1.593799448682281
0.04067432432432434,0.5488972827607543,1.617609975502053
0.04069932432432434,0.5683832200993794,1.641420502321825
0.04072432432432435,0.5882051218748857,1.664895669608932
0.04074932432432435,0.6070191303397565,1.683675803438603
0.04077432432432435,0.6261691032415088,1.702791296800955
0.04079932432432434,0.6453190761432609,1.719223913901925
0.04082432432432434,0.6664848356662502,1.736662609600913
0.04084932432432435,0.6886584884998678,1.754772024365253
0.04087432432432435,0.7104961768965928,1.769863203335524
0.04089932432432435,0.7326698297302006,1.786631179969167
0.04092432432432434,0.7531636603794442,1.798704123145389
0.04094932432432434,0.7733215265918149,1.809770987723593
0.04097432432432435,0.7928074639304472,1.818825695105761
0.04099932432432435,0.8089337569003364,1.822179290432488
0.04102432432432435,0.8243881209964873,1.824862166693871
0.04104932432432434,0.8371547695976554,1.822514649965161
0.04107432432432434,0.8495854537619507,1.819831773703778
0.04109932432432435,0.8623521023631248,1.817484256975066
0.04112432432432435,0.8754547154011598,1.813459942582994
0.04114932432432435,0.8909090794973107,1.812789223517648
0.04117432432432434,0.9063634435934615,1.810441706788938
0.04119932432432434,0.9218178076896124,1.808429549592901
0.04122432432432435,0.9366002429120234,1.805075954266169
0.04124932432432435,0.9493668915131857,1.797362685014698
0.04127432432432435,0.9641493267355908,1.792332292024605
0.04129932432432434,0.9785957975211232,1.78461902277313
0.04132432432432434,0.9947220904910198,1.778582551185018
0.04134932432432434,1.011520312334654,1.773552158194928
0.04137432432432435,1.025966783120194,1.765503529410777
0.04139932432432435,1.041757111653218,1.759802417355339
0.04142432432432434,1.055867618001878,1.752089148103864
0.04144932432432434,1.070986017661155,1.74571731698308
0.04147432432432434,1.086104417320427,1.741022283525662
0.04149932432432435,1.098199137047856,1.733309014274184
0.04152432432432435,1.11163771452277,1.727943261751419
0.04154932432432434,1.123060505376446,1.720229992499943
0.04157432432432434,1.136163118414487,1.715534959042524
0.04159932432432434,1.149265731452523,1.713522801846487
0.04162432432432435,1.158672735684968,1.708492408856394
0.04164932432432435,1.167743775480535,1.707486330258375
0.04167432432432434,1.174127099781119,1.704132734931647
0.04169932432432434,1.181854281829194,1.704803453996993
0.04172432432432434,1.19126128606163,1.709833846987083
0.04174932432432435,1.197644610362218,1.711175285117777
0.04177432432432435,1.200332325857201,1.712516723248468
0.04179932432432434,1.193277072682871,1.705474173062338
0.04182432432432434,1.180510424081703,1.694742668016807
0.04184932432432434,1.16639991773305,1.685017241569299
0.04187432432432435,1.152289411384384,1.674285736523764
0.04189932432432435,1.143218371588817,1.669590703066344
0.04192432432432434,1.132803474045759,1.662212793347541
0.04194932432432434,1.119028932133972,1.652152007367356
0.04197432432432434,1.10256667472721,1.640414423723812
0.04199932432432435,1.083416701825451,1.623981806622837
0.04202432432432435,1.070650053224283,1.614256380175324
0.04204932432432434,1.062586906739334,1.606207751391176
0.04207432432432434,1.061914977865589,1.604530953727812
0.04209932432432434,1.065274622234316,1.605872391858503
0.04212432432432435,1.066954444418681,1.603524875129793
0.04214932432432435,1.069978124350537,1.602854156064448
0.04217432432432434,1.07031408878741,1.597488403541682
0.04219932432432434,1.071657946534901,1.591116572420898
0.04222432432432434,1.074681626466756,1.584744741300117
0.04224932432432435,1.075353555340502,1.573342517189237
0.04227432432432435,1.078713199709231,1.56428780980707
0.04229932432432434,1.07972109301985,1.552550226163521
0.04232432432432434,1.081736879641086,1.542154080650663
0.04234932432432434,1.085096524009813,1.532764013735827
0.04237432432432435,1.086440381757306,1.520020351494255
0.04239932432432435,1.089800026126035,1.50995956551407
0.04242432432432434,1.090471954999781,1.496545184207156
0.04244932432432434,1.091479848310399,1.483801521965588
0.04247432432432434,1.093159670494763,1.472399297854716
0.04249932432432435,1.092487741621018,1.458314197482452
0.04252432432432435,1.094167563805382,1.447918051969593
